\relax 
\citation{psautplen}
\citation{BelterJFR2011}
\citation{bsiem}
\citation{tz}
\@writefile{toc}{\contentsline {chapter}{\numberline {1}Wst\k ep}{8}}
\@writefile{lof}{\addvspace {10\p@ }}
\@writefile{lot}{\addvspace {10\p@ }}
\@writefile{toc}{\contentsline {section}{\numberline {1.1}Wprowadzenie}{8}}
\citation{SkrzypczynskiRozprawa}
\citation{messor}
\@writefile{toc}{\contentsline {section}{\numberline {1.2}Cel i teza rozprawy}{9}}
\newlabel{wstep:tezy}{{1.2}{9}}
\@writefile{toc}{\contentsline {section}{\numberline {1.3}Przegl\k ad tre\'sci rozprawy}{10}}
\citation{PoppingaRoboCup10}
\citation{konolige97svs}
\citation{Kneip_Hokuyo_09}
\citation{oggier2004all}
\citation{davison2007monoslam}
\citation{khoshelham2012accuracy}
\@writefile{toc}{\contentsline {chapter}{\numberline {2}Obszar problemowy rozprawy}{12}}
\@writefile{lof}{\addvspace {10\p@ }}
\@writefile{lot}{\addvspace {10\p@ }}
\newlabel{chap:przeglad}{{2}{12}}
\@writefile{toc}{\contentsline {section}{\numberline {2.1}Sensory wizyjne w zadaniu rekonstrukcji sceny robota krocz\k acego}{12}}
\citation{nilsson1984shakey}
\citation{skrzypczynski2004approach}
\citation{gartshore2002exploration}
\citation{tomono20063}
\citation{hilton2005scene}
\citation{davison2007monoslam}
\citation{baczyk2010visual}
\citation{gil2010multi}
\citation{schmidt2010visual}
\citation{belter2012precise}
\@writefile{toc}{\contentsline {subsection}{\numberline {2.1.1}Kamery monokularowe}{13}}
\citation{shirai1972recognition}
\citation{shirai1972recognition}
\citation{jezouin1988building}
\citation{scharstein2003high}
\citation{rocchini2001low}
\citation{asada1990map}
\citation{kwak2008mobile}
\citation{aldon1994mobile}
\citation{khoshelham2012accuracy}
\citation{stoyanov2011comparative}
\citation{henry2012rgb}
\citation{newcombe2011kinectfusion}
\citation{nowicki2013experimental}
\@writefile{toc}{\contentsline {subsection}{\numberline {2.1.2}Uk\IeC {\l }ady z o\'swietleniem strukturalnym}{14}}
\newlabel{subs:wstep:osw}{{2.1.2}{14}}
\citation{KolterLittleDog}
\citation{Rusu09LFlatland}
\citation{stelzer2012stereo}
\citation{Rusu09LFlatland}
\citation{KolterLittleDog}
\citation{stelzer2012stereo}
\citation{kweon1990high}
\citation{paz2008large}
\citation{konolige97svs}
\citation{woodfill2004tyzx}
\citation{poppinga2008hough}
\citation{PoppingaRoboCup10}
\@writefile{toc}{\contentsline {subsection}{\numberline {2.1.3}Sensor Kinect/Xtion}{15}}
\@writefile{toc}{\contentsline {subsection}{\numberline {2.1.4}Kamery w uk\IeC {\l }adzie stereowizyjnym}{15}}
\citation{SkrzypczynskiRozprawa}
\citation{SkrzypczynskiRozprawa}
\citation{Kneip_Hokuyo_09}
\citation{OkuYeBor_Hok_2009}
\citation{YeBorensteinCAS}
\citation{pfaff2007efficient}
\citation{krotkov1994terrain}
\citation{plagemann2008learning}
\citation{nuchter20076d}
\citation{pfaff2007efficient}
\citation{pfaff2007efficient}
\@writefile{toc}{\contentsline {subsection}{\numberline {2.1.5}Skanery laserowe}{16}}
\citation{PoppingaRoboCup10}
\citation{roennau2009six}
\citation{prusak2008pose}
\citation{may2009robust}
\@writefile{toc}{\contentsline {subsection}{\numberline {2.1.6}Kamery TOF}{17}}
\citation{belter2011rough}
\citation{Rusu11ICRA}
\citation{nuchter20076d}
\citation{newcombe2011kinectfusion}
\citation{bkedkowski2013line}
\citation{rusu2008towards}
\citation{bihari1989controlling}
\citation{klein1987vision}
\citation{iagolnitzer1992locomotion}
\citation{krotkov1994terrain}
\citation{kweon1990high}
\@writefile{toc}{\contentsline {section}{\numberline {2.2}Istniej\k ace rozwi\k azania w zakresie rekonstrukcji sceny robota krocz\k acego}{19}}
\newlabel{subs:wstep:rek}{{2.2}{19}}
\citation{YeBorensteinCAS}
\citation{roennau2009six}
\@writefile{lof}{\contentsline {figure}{\numberline {2.1}{\ignorespaces Rastrowa mapa wysoko\'sci}}{20}}
\newlabel{wstep:fig:mapaWys}{{2.1}{20}}
\citation{pfaff2007efficient}
\citation{YeBorensteinCAS}
\citation{KolterLittleDog}
\citation{Rusu09LFlatland}
\citation{lang2007adaptive}
\citation{plagemann2008learning}
\citation{matthies2002portable}
\citation{mihankhah2009autonomous}
\citation{moore2002reliable}
\citation{kalakrishnan2010fast}
\citation{AsteriskStairClimbing}
\citation{albert2001detection}
\citation{gutmann2004stair}
\citation{SkrzypczynskiECMR}
\@writefile{toc}{\contentsline {chapter}{\numberline {3}Aktywny system wizyjny z o\'swietleniem strukturalnym}{24}}
\@writefile{lof}{\addvspace {10\p@ }}
\@writefile{lot}{\addvspace {10\p@ }}
\newlabel{chap:osw}{{3}{24}}
\@writefile{toc}{\contentsline {section}{\numberline {3.1}System wizyjny z o\'swietleniem strukturalnym}{24}}
\citation{ToolboxBouguet}
\@writefile{lof}{\contentsline {figure}{\numberline {3.1}{\ignorespaces Robot Ragno wyposa\.zony w uk\IeC {\l }ad z o\'swietleniem strukturalnym. Widok z przodu (a) oraz podczas wykonywania pomiar\'ow (b)}}{25}}
\newlabel{fig:osw:ragno}{{3.1}{25}}
\@writefile{toc}{\contentsline {section}{\numberline {3.2}Algorytm rekonstrukcji geometrii sceny tr\'ojwymiarowej}{25}}
\@writefile{toc}{\contentsline {subsection}{\numberline {3.2.1}Pomiary przy u\.zyciu uk\IeC {\l }adu kamera\nobreakspace  {}--\nobreakspace  {}o\'swietlacz}{25}}
\newlabel{sec:osw:obliczenia3D}{{3.2.1}{25}}
\newlabel{eq:osw:rownOgolnePl}{{3.1}{25}}
\@writefile{lof}{\contentsline {figure}{\numberline {3.2}{\ignorespaces Schemat aktywnego systemu wizyjnego z o\'swietleniem strukturalnym}}{26}}
\newlabel{fig:osw:uklad}{{3.2}{26}}
\newlabel{eq:osw:wspPktKam}{{3.2}{26}}
\newlabel{eq:osw:ogRownParam}{{3.3}{26}}
\@writefile{lof}{\contentsline {figure}{\numberline {3.3}{\ignorespaces Przekszta\IeC {\l }cenie odwrotne do rzutowania na obraz}}{27}}
\newlabel{fig:osw:przeksztOdwr}{{3.3}{27}}
\newlabel{eq:osw:wyborabc}{{3.4}{27}}
\newlabel{eq:osw:ogPrzeciecie}{{3.5}{27}}
\newlabel{eq:osw:ogPrzeciecie2}{{3.6}{27}}
\citation{joblove1978color}
\@writefile{lof}{\contentsline {figure}{\numberline {3.4}{\ignorespaces Przeci\k ecie prostej poprowadzonej przez piksel z ogniska z p\IeC {\l }aszczyzn\k a arkusza \'swietlnego}}{28}}
\newlabel{fig:osw:przeciecie}{{3.4}{28}}
\newlabel{eq:osw:rownParamPrzec}{{3.7}{28}}
\@writefile{toc}{\contentsline {subsection}{\numberline {3.2.2}Ekstrakcja \'sladu \'swietlnego na obrazie}{28}}
\@writefile{lof}{\contentsline {figure}{\numberline {3.5}{\ignorespaces Schemat blokowy algorytmu wykrywania \'sladu lasera na obrazie}}{29}}
\newlabel{fig:osw:WykrywanieSchemat}{{3.5}{29}}
\@writefile{lof}{\contentsline {figure}{\numberline {3.6}{\ignorespaces Wizualizacja przestrzeni barw HSV}}{30}}
\newlabel{fig:osw:hsv}{{3.6}{30}}
\newlabel{eq:osw:ProgMinV}{{3.8}{30}}
\@writefile{lof}{\contentsline {figure}{\numberline {3.7}{\ignorespaces G\IeC {\l }\'owne etapy przetwarzania obrazu}}{31}}
\newlabel{fig:osw:WykrywaniePrzetwarzanie}{{3.7}{31}}
\citation{chen1987modeling}
\citation{reid1996projective}
\citation{huynh1999calibrating}
\citation{ZhangKalib}
\citation{ToolboxBouguet}
\@writefile{toc}{\contentsline {section}{\numberline {3.3}Metoda kalibracji systemu i analiza niepewno\'sci pomiaru wielko\'sci geometrycznych}{32}}
\newlabel{sec:osw:Kalibracja}{{3.3}{32}}
\@writefile{toc}{\contentsline {subsection}{\numberline {3.3.1}Kalibracja uk\IeC {\l }adu kamera -- o\'swietlacz}{32}}
\citation{Forsyth2002}
\@writefile{lof}{\contentsline {figure}{\numberline {3.8}{\ignorespaces Przyk\IeC {\l }adowe zdj\k ecie kalibracyjne}}{33}}
\newlabel{fig:osw:zdjKalib}{{3.8}{33}}
\@writefile{lof}{\contentsline {figure}{\numberline {3.9}{\ignorespaces Chmura powsta\IeC {\l }a z punkt\'ow wchodz\k acych w sk\IeC {\l }ad \'sladu \'swietlnego, otrzymanych z wielu uj\k e\'c szachownicy}}{34}}
\newlabel{fig:osw:kalibChmura}{{3.9}{34}}
\@writefile{toc}{\contentsline {subsection}{\numberline {3.3.2}Analiza niepewno\'sci pomiaru wielko\'sci geometrycznych}{34}}
\newlabel{sec:osw:niepewn}{{3.3.2}{34}}
\@writefile{toc}{\contentsline {subsubsection}{Przyczyny b\IeC {\l }\k ed\'ow pomiaru}{34}}
\@writefile{toc}{\contentsline {subsubsection}{Model niepewno\'sci}{35}}
\newlabel{eq:osw:Cuv}{{3.12}{35}}
\newlabel{eq:osw:CABCD}{{3.13}{35}}
\newlabel{eq:osw:Cc}{{3.14}{35}}
\newlabel{eq:osw:Cxyz}{{3.15}{36}}
\newlabel{eq:osw:Csi}{{3.16}{36}}
\newlabel{eq:osw:Csp}{{3.17}{36}}
\newlabel{eq:osw:Csc}{{3.18}{36}}
\@writefile{toc}{\contentsline {subsubsection}{Niepewno\'s\'c pomiaru w zale\.zno\'sci od po\IeC {\l }o\.zenia punktu wzgl\k edem kamery}{37}}
\@writefile{lof}{\contentsline {figure}{\numberline {3.10}{\ignorespaces Niepewno\'s\'c pomiaru w zale\.zno\'sci od po\IeC {\l }o\.zenia punktu wzgl\k edem kamery, wyznaczona analitycznie}}{37}}
\newlabel{fig:osw:niepewn1}{{3.10}{37}}
\@writefile{toc}{\contentsline {subsubsection}{Niepewno\'s\'c pomiaru w zale\.zno\'sci od doboru parametr\'ow \\p\IeC {\l }aszczyzny arkusza \'swietlnego}{38}}
\newlabel{eq:osw:parametryBBeta}{{3.22}{38}}
\@writefile{lof}{\contentsline {figure}{\numberline {3.11}{\ignorespaces Uproszczony uk\IeC {\l }ad kamera -- o\'swietlacz, analizowany w kontek\'scie budowy mapy terenu}}{39}}
\newlabel{fig:osw:uproszczonyUklad}{{3.11}{39}}
\@writefile{lof}{\contentsline {figure}{\numberline {3.12}{\ignorespaces Niepewno\'s\'c pomiaru, w zale\.zno\'sci od warto\'sci parametru $b$, dla ustalonych odleg\IeC {\l }o\'sci $y_c$, $z_c$}}{40}}
\newlabel{fig:osw:niepewn_b}{{3.12}{40}}
\@writefile{lof}{\contentsline {figure}{\numberline {3.13}{\ignorespaces Niepewno\'s\'c pomiaru w zale\.zno\'sci od warto\'sci parametru $\beta $, dla ustalonej odleg\IeC {\l }o\'sci $z_c$ (a -- c) oraz ilustracja zmiany warto\'sci $\beta $ (d)}}{41}}
\newlabel{fig:osw:niepewn_beta_pion}{{3.13}{41}}
\@writefile{toc}{\contentsline {subsubsection}{Wp\IeC {\l }yw b\IeC {\l }\k ed\'ow kalibracji na niepewno\'s\'c pomiar\'ow}{41}}
\@writefile{lof}{\contentsline {figure}{\numberline {3.14}{\ignorespaces Niepewno\'s\'c pomiaru p\IeC {\l }askiego terenu w zale\.zno\'sci od warto\'sci parametru $\beta $}}{42}}
\newlabel{fig:osw:niepewnBETAPodl}{{3.14}{42}}
\@writefile{lof}{\contentsline {figure}{\numberline {3.15}{\ignorespaces Niepewno\'s\'c pomiaru odleg\IeC {\l }o\'sci wynikaj\k aca z b\IeC {\l }\k ednie wyznaczonych parametr\'ow r\'ownania p\IeC {\l }aszczyzny arkusza \'swietlnego, dla r\'o\.znych warto\'sci $b$ oraz $\beta $}}{43}}
\newlabel{fig:osw:niepewnBbeta}{{3.15}{43}}
\citation{SkrzypczynskiECMR}
\@writefile{lof}{\contentsline {figure}{\numberline {3.16}{\ignorespaces Niepewno\'s\'c pomiaru odleg\IeC {\l }o\'sci w osi $z_c$ dla r\'o\.znych warto\'sci $f$, wynikaj\k aca z z niedok\IeC {\l }adnego okre\'slenia po\IeC {\l }o\.zenia na obrazie (a), oraz b\IeC {\l }\k ednie wyznaczonej ogniskowej $f$ (b)}}{44}}
\newlabel{fig:osw:niepewnF}{{3.16}{44}}
\@writefile{toc}{\contentsline {section}{\numberline {3.4}Optymalizacja konfiguracji systemu wizyjnego w zadaniu akwizycji mapy terenu}{44}}
\@writefile{lof}{\contentsline {figure}{\numberline {3.17}{\ignorespaces Pochylenie uk\IeC {\l }adu w celu zmniejszenia odleg\IeC {\l }o\'sci w osi $z_c$ do pod\IeC {\l }o\.za}}{45}}
\newlabel{fig:osw:pochylenieUkladu}{{3.17}{45}}
\@writefile{lof}{\contentsline {figure}{\numberline {3.18}{\ignorespaces Ograniczenie mo\.zliwo\'sci kroczenia w wyniku zbyt w\k askiego obszaru pomiaru}}{45}}
\newlabel{fig:OgraniczenieKroczeniaIlustracja}{{3.18}{45}}
\citation{SkrzypczynskiECMR}
\@writefile{lof}{\contentsline {figure}{\numberline {3.19}{\ignorespaces Zale\.zno\'s\'c d\IeC {\l }ugo\'sci widocznej cz\k e\'sci \'sladu \'swietlnego od k\k ata pochylenia uk\IeC {\l }adu (a) oraz od warto\'sci k\k ata $\beta $ (b)}}{46}}
\newlabel{fig:osw:rozstawNogiPochyl}{{3.19}{46}}
\@writefile{lof}{\contentsline {figure}{\numberline {3.20}{\ignorespaces Symulacja przesuwania si\k e robota w zr\'o\.znicowanym terenie, dla r\'o\.znych k\k at\'ow pochylenia uk\IeC {\l }adu i warto\'sci parametru $\beta $. Pochylenie $0^{\circ }$, $\beta =70^{\circ }$ (a); pochylenie $0^{\circ }$, $\beta =60^{\circ }$ (b); pochylenie $10^{\circ }$, $\beta =70^{\circ }$\nobreakspace  {}(c); pochylenie $10^{\circ }$, $\beta =60^{\circ }$\nobreakspace  {}(d)}}{48}}
\newlabel{fig:Przeslanianie}{{3.20}{48}}
\citation{SkrzypczynskiECMR}
\@writefile{lof}{\contentsline {figure}{\numberline {3.21}{\ignorespaces Niepewno\'s\'c pomiaru dla r\'o\.znych warto\'sci $\beta $ i r\'o\.znych d\IeC {\l }ugo\'sci ogniskowej, przy ograniczeniu na szeroko\'s\'c widzianego \'sladu wi\k azki}}{49}}
\newlabel{fig:OgrNaSzerLinii}{{3.21}{49}}
\citation{PLKWCLAWAR2010Stairs}
\citation{PLKWCLAWAR2010Stairs}
\@writefile{toc}{\contentsline {chapter}{\numberline {4}Zastosowania aktywnego systemu wizyjnego w rekonstrukcji sceny robota krocz\k acego}{50}}
\@writefile{lof}{\addvspace {10\p@ }}
\@writefile{lot}{\addvspace {10\p@ }}
\newlabel{chap:osw2}{{4}{50}}
\@writefile{toc}{\contentsline {section}{\numberline {4.1}Rekonstrukcja geometrii schod\'ow wraz z weryfikacj\k a eksperymentaln\k a}{50}}
\newlabel{sec:osw:schody}{{4.1}{50}}
\@writefile{toc}{\contentsline {subsection}{\numberline {4.1.1}Percepcja we wspinaczce po schodach}{50}}
\citation{Kneip_Hokuyo_09}
\citation{douglas1973algorithms}
\citation{SkrzypczynskiRozprawa}
\@writefile{lof}{\contentsline {figure}{\numberline {4.1}{\ignorespaces Pomiary zwi\k azane z algorytmem wspinaczki po schodach. Model schod\'ow (a) oraz pomiary zwi\k azane z pozycjonowaniem robota (b)}}{51}}
\newlabel{fig:osw:measurements}{{4.1}{51}}
\@writefile{toc}{\contentsline {subsubsection}{Pomiary przy u\.zyciu skanera laserowego}{51}}
\citation{huber1964robust}
\citation{LearningOpenCV}
\@writefile{lof}{\contentsline {figure}{\numberline {4.2}{\ignorespaces Robot Messor wyposa\.zony w sensory s\IeC {\l }u\.z\k ace do pomiaru geometrii schod\'ow (a) oraz zbli\.zenie na system sensoryczny (b): 1\nobreakspace  {}-\nobreakspace  {}kamera, 2\nobreakspace  {}-\nobreakspace  {}o\'swietlacz, 3\nobreakspace  {}-\nobreakspace  {}skaner laserowy}}{52}}
\newlabel{fig:osw:stairs_sensors}{{4.2}{52}}
\@writefile{lof}{\contentsline {figure}{\numberline {4.3}{\ignorespaces Etapy przetwarzania danych ze skanera laserowego. Surowe dane (a), punkty podzielone na grupy (b), przefiltrowana centralna grupa punkt\'ow (c), punkty kluczowe w centralnej grupie punkt\'ow (d), odcinki prostoliniowe wpisane w sekwencj\k e punkt\'ow (e)}}{53}}
\newlabel{fig:osw:skan}{{4.3}{53}}
\newlabel{eq:osw:dLR}{{4.2}{53}}
\@writefile{toc}{\contentsline {subsubsection}{Pomiary przy u\.zyciu systemu z o\'swietleniem strukturalnym}{53}}
\@writefile{lof}{\contentsline {figure}{\numberline {4.4}{\ignorespaces Typowe zak\IeC {\l }\'ocenia w przetwarzaniu obrazu. Obraz z odblaskami w kolorze (a) oraz zbinaryzowany (b); obraz ze \'sladem \'swietlnym, utworzony podczas ruchu robota (c) oraz obraz r\'o\.znicowy utworzony podczas ruchu robota (d)}}{54}}
\newlabel{fig:osw:zaklocenia}{{4.4}{54}}
\@writefile{lof}{\contentsline {figure}{\numberline {4.5}{\ignorespaces Wybrane etapy przetwarzania obrazu. Obraz bez \'sladu \'swietlnego (a), obraz ze \'sladem \'swietlnym (b), obraz r\'o\.znicowy (c), fragment obrazu binarnego (d), pocienione bloby (e), przefiltrowane punkty (f), znalezione punkty kluczowe (g), wyznaczone odcinki ze wsp\'o\IeC {\l }rz\k ednymi w 3D (h)}}{55}}
\newlabel{fig:osw:obrazy}{{4.5}{55}}
\citation{labkecki2011autonomous}
\citation{bsiem}
\citation{BelterICRA2010}
\citation{YeBorensteinCAS}
\@writefile{lof}{\contentsline {figure}{\numberline {4.6}{\ignorespaces Wykorzystanie danych z IMU do przekszta\IeC {\l }cenia uk\IeC {\l }adu wsp\'o\IeC {\l }rz\k ednych wykrytych odcink\'ow \'sladu lasera}}{58}}
\newlabel{fig:osw:pochylenie_ukl_wsp}{{4.6}{58}}
\@writefile{toc}{\contentsline {section}{\numberline {4.2}Rekonstrukcja mapy terenu, wraz z weryfikacj\k a eksperymentaln\k a}{59}}
\newlabel{sec:osw:mapa}{{4.2}{59}}
\@writefile{toc}{\contentsline {subsection}{\numberline {4.2.1}Wst\k ep}{59}}
\newlabel{sec:osw:rekwstep}{{4.2.1}{59}}
\@writefile{toc}{\contentsline {subsection}{\numberline {4.2.2}Algorytm aktualizacji mapy}{59}}
\newlabel{eq:osw:mapaTransf1}{{4.3}{59}}
\newlabel{eq:osw:mapaTransf2}{{4.4}{59}}
\@writefile{lof}{\contentsline {figure}{\numberline {4.7}{\ignorespaces Przekszta\IeC {\l }cenie uk\IeC {\l }ad\'ow wsp\'o\IeC {\l }rz\k ednych pomiar\'ow (a, b, c) oraz maksymalna chwilowa zmiana wysoko\'sci (d)}}{60}}
\newlabel{fig:osw:mapRobotOrient}{{4.7}{60}}
\newlabel{eq:osw:deltaZm}{{4.5}{60}}
\citation{labkecki2011terrain}
\citation{BelterPhD}
\citation{YeBorensteinCAS}
\newlabel{eq:osw:gamma}{{4.6}{61}}
\newlabel{eq:osw:deltaXm}{{4.7}{61}}
\newlabel{eq:osw:deltaZmR}{{4.8}{61}}
\newlabel{eq:osw:certaintyMap}{{4.9}{61}}
\citation{LopatowskiMgr}
\citation{SkrzypczynskiECMR}
\citation{SkrzypczynskiECMR}
\@writefile{lof}{\contentsline {figure}{\numberline {4.8}{\ignorespaces Wyznaczanie zmiany wysoko\'sci podczas obrotu \cite  {labkecki2011terrain}}}{62}}
\newlabel{fig:osw:mapRobotOrientRot}{{4.8}{62}}
\newlabel{eq:osw:elevMap}{{4.10}{62}}
\newlabel{eq:osw:elevMap}{{4.11}{62}}
\@writefile{toc}{\contentsline {subsection}{\numberline {4.2.3}Wyniki eksperymentalne}{62}}
\@writefile{lof}{\contentsline {figure}{\numberline {4.9}{\ignorespaces Stanowisko s\IeC {\l }u\.z\k ace do przeprowadzenia wst\k epnych eksperyment\'ow \cite  {SkrzypczynskiECMR}}}{63}}
\newlabel{fig:osw:rail}{{4.9}{63}}
\@writefile{lof}{\contentsline {figure}{\numberline {4.10}{\ignorespaces Mapy wysoko\'sci zbudowane podczas wst\k epnych eksperyment\'ow}}{63}}
\newlabel{fig:osw:initialMap}{{4.10}{63}}
\@writefile{lot}{\contentsline {table}{\numberline {4.1}{\ignorespaces Pomiar wysoko\'sci dla trzech r\'o\.znych obiekt\'ow}}{64}}
\newlabel{tab:osw:wysokoscBox}{{4.1}{64}}
\@writefile{lof}{\contentsline {figure}{\numberline {4.11}{\ignorespaces Makieta nier\'ownego terenu oraz mapa wysoko\'sci zbudowana przy u\.zyciu omawianego sensora}}{64}}
\newlabel{fig:osw:mockupMap}{{4.11}{64}}
\citation{BelterJFR2011}
\citation{konolige97svs}
\citation{konolige97svs}
\citation{konolige97svs}
\citation{konolige97svs}
\citation{ToolboxBouguet}
\citation{LearningOpenCV}
\@writefile{toc}{\contentsline {chapter}{\numberline {5}Pasywny system stereowizyjny}{65}}
\@writefile{lof}{\addvspace {10\p@ }}
\@writefile{lot}{\addvspace {10\p@ }}
\newlabel{chap:stereo}{{5}{65}}
\@writefile{toc}{\contentsline {section}{\numberline {5.1}Metoda rekonstrukcji sceny 3D na podstawie g\k estej mapy g\IeC {\l }\k ebi}{65}}
\@writefile{toc}{\contentsline {subsection}{\numberline {5.1.1}Wykorzystywany system stereowizyjny}{65}}
\newlabel{sec:opis-systemu}{{5.1.1}{65}}
\citation{Forsyth2002}
\@writefile{lof}{\contentsline {figure}{\numberline {5.1}{\ignorespaces Dysparycja jako r\'o\.znica po\IeC {\l }o\.zenia odpowiadaj\k acych sobie punkt\'ow na dw\'och obrazach (a), obraz dysparycji (b)}}{66}}
\newlabel{fig:st:disparity}{{5.1}{66}}
\@writefile{toc}{\contentsline {subsection}{\numberline {5.1.2}Model systemu stereowizyjnego}{66}}
\newlabel{subs:st:rektyfikacja}{{5.1.2}{66}}
\newlabel{eq:st:pinhole}{{5.1}{67}}
\newlabel{eq:st:distortion}{{5.2}{67}}
\newlabel{eq:st:distortionR}{{5.3}{67}}
\newlabel{eq:st:distImageCoords}{{5.4}{67}}
\newlabel{eq:st:rotRL}{{5.5}{67}}
\citation{ToolboxBouguet}
\newlabel{eq:st:rotRowAlAx}{{5.6}{68}}
\newlabel{eq:st:rotRowAlOm}{{5.8}{68}}
\newlabel{eq:st:rotRowAl}{{5.9}{68}}
\newlabel{eq:st:rotRect}{{5.10}{68}}
\newlabel{eq:st:rotRect}{{5.11}{68}}
\newlabel{eq:st:rectLeft1}{{5.12}{68}}
\newlabel{eq:st:rectRight1}{{5.13}{68}}
\newlabel{eq:st:rectLeft2}{{5.14}{68}}
\newlabel{eq:st:distortionUwikl}{{5.15}{69}}
\newlabel{eq:st:linearized}{{5.16}{69}}
\newlabel{eq:st:linearizedPodst}{{5.17}{70}}
\newlabel{eq:st:linearizedUdist}{{5.18}{70}}
\newlabel{subs:3Dcalc}{{5.1.2}{70}}
\newlabel{eq:st:camZ}{{5.19}{70}}
\newlabel{eq:st:disparity}{{5.20}{70}}
\newlabel{eq:st:T_rx}{{5.21}{70}}
\newlabel{eq:st:camXY}{{5.22}{70}}
\newlabel{eq:st:RiM}{{5.23}{71}}
\newlabel{eq:st:CiR}{{5.24}{71}}
\newlabel{eq:st:mTc}{{5.25}{71}}
\newlabel{eq:st:PointToMap}{{5.26}{71}}
\newlabel{eq:st:ElevAsZm}{{5.27}{71}}
\@writefile{lof}{\contentsline {figure}{\numberline {5.2}{\ignorespaces Obroty uk\IeC {\l }adu wsp\'o\IeC {\l }rz\k ednych robota wzgl\k edem uk\IeC {\l }adu wsp\'o\IeC {\l }rz\k ednych mapy}}{72}}
\newlabel{fig:st:mapRobotOrientGeneral}{{5.2}{72}}
\@writefile{toc}{\contentsline {subsection}{\numberline {5.1.3}Pomiary przy u\.zyciu kamery Videre Design STOC}{72}}
\@writefile{toc}{\contentsline {subsubsection}{Wbudowany algorytm przetwarzania danych stereowizyjnych}{72}}
\@writefile{lof}{\contentsline {figure}{\numberline {5.3}{\ignorespaces Zastosowanie filtr\'ow wbudowanych w system SVS. Obraz z\nobreakspace  {}lewej kamery (a), obraz dysparycji utworzony z niskimi warto\'sciami prog\'ow (b), obraz dysparycji utworzony z domy\'slnymi warto\'sciami prog\'ow (c)}}{73}}
\newlabel{fig:st:disparFilt}{{5.3}{73}}
\citation{SzeliskiCV}
\@writefile{toc}{\contentsline {subsubsection}{Postprocessing danych}{74}}
\newlabel{eq:st:depthFill}{{5.28}{74}}
\citation{Rusu11ICRA}
\citation{rusu2008towards}
\@writefile{lof}{\contentsline {figure}{\numberline {5.4}{\ignorespaces Typowe b\IeC {\l }\k edy pomiaru. Obraz szary (a), obraz dysparycji (b), artefakty pojawiaj\k ace si\k e poza zasi\k egiem minimalnym oraz na odblaskowych powierzchniach (zaznaczone okr\k egami) (c), artefakty pojawiaj\k ace si\k e na kraw\k edziach obiekt\'ow (zaznaczone okr\k egami) (d)}}{75}}
\newlabel{fig:st:artifacts}{{5.4}{75}}
\@writefile{lof}{\contentsline {figure}{\numberline {5.5}{\ignorespaces Przetwarzanie obrazu g\IeC {\l }\k ebi celem usuni\k ecia artefakt\'ow. Obraz g\IeC {\l }\k ebi (a); obraz g\IeC {\l }\k ebi z wype\IeC {\l }nionymi pustymi obszarami (b); obszar g\IeC {\l }\k ebi rozmyty filtrem medianowym (c); obraz r\'o\.znicowy (d); maska okre\'slaj\k aca kt\'ore piksele nie przekraczaj\k a progu (f); maska poddana morfologicznemu otwarciu (g)}}{76}}
\newlabel{fig:st:artifactsProcessing}{{5.5}{76}}
\citation{SkrzypczynskiRozprawa}
\citation{belter2013exploration}
\citation{Matthies87errormodeling}
\citation{sahabiErrorAnalysis}
\citation{DiLeo11Covariance}
\citation{Miura93anuncertainty}
\citation{sanders2001error}
\citation{wang2011error}
\citation{KimPeformanceAnalysis05}
\@writefile{lof}{\contentsline {figure}{\numberline {5.6}{\ignorespaces Schemat blokowy proponowanego algorytmu filtracji obrazu g\IeC {\l }\k ebi}}{77}}
\newlabel{st:fig:filtracjaSchemat}{{5.6}{77}}
\@writefile{toc}{\contentsline {section}{\numberline {5.2}Analiza niepewno\'sci pomiaru wielko\'sci geometrycznych}{77}}
\newlabel{st:sec:uncert}{{5.2}{77}}
\@writefile{toc}{\contentsline {subsection}{\numberline {5.2.1}Wst\k ep}{77}}
\@writefile{lof}{\contentsline {figure}{\numberline {5.7}{\ignorespaces Chmura punkt\'ow przed usuni\k eciem artefakt\'ow (a, b) oraz po usuni\k eciu artefakt\'ow poprzez zastosowanie wyznaczonej maski (c, d)}}{78}}
\newlabel{fig:st:artifactsRem}{{5.7}{78}}
\@writefile{lof}{\contentsline {figure}{\numberline {5.8}{\ignorespaces Por\'ownanie metod filtracji. Surowa chmura punkt\'ow (a), chmura przefiltrowana filtrem SOR (b), chmura przefiltrowana przy u\.zyciu proponowanej metody (c)}}{79}}
\newlabel{fig:st:porownanieFiltracjiSOR}{{5.8}{79}}
\@writefile{toc}{\contentsline {subsection}{\numberline {5.2.2}Model niepewno\'sci}{80}}
\newlabel{st:subsec:uncert}{{5.2.2}{80}}
\newlabel{eq:st:undistortionPropagation}{{5.29}{80}}
\@writefile{lof}{\contentsline {figure}{\numberline {5.9}{\ignorespaces Schemat blokowy obrazuj\k acy kolejno\'s\'c dzia\IeC {\l }a\'n w procesie wyznaczania niepewno\'sci pomiaru wysoko\'sci terenu}}{81}}
\newlabel{fig:schemat_blokowy}{{5.9}{81}}
\newlabel{eq:st:rectificationPropagation}{{5.30}{81}}
\newlabel{eq:st:disparUncertainty}{{5.31}{81}}
\newlabel{eq:st:camXYZ}{{5.32}{82}}
\newlabel{eq:st:cam3DPropagation}{{5.33}{82}}
\newlabel{eq:st:map_cam_sigma}{{5.34}{82}}
\newlabel{ms:eq:scanner_in_robot_uncert_sigma}{{5.35}{82}}
\citation{YeBorensteinCAS}
\citation{YeBorensteinCAS}
\@writefile{toc}{\contentsline {subsection}{\numberline {5.2.3}Fizyczna interpretacja niepewno\'sci}{83}}
\@writefile{toc}{\contentsline {section}{\numberline {5.3}Metoda budowy mapy terenu, wraz z weryfikacj\k a eksperymentaln\k a}{83}}
\newlabel{st:sec:mapbuild}{{5.3}{83}}
\@writefile{toc}{\contentsline {subsection}{\numberline {5.3.1}Wst\k ep}{83}}
\@writefile{lof}{\contentsline {figure}{\numberline {5.10}{\ignorespaces Przekr\'oj przez map\k e terenu}}{84}}
\newlabel{fig:st:przekrojKoncepcja}{{5.10}{84}}
\@writefile{toc}{\contentsline {subsection}{\numberline {5.3.2}Algorytm budowy mapy terenu}{84}}
\@writefile{lof}{\contentsline {figure}{\numberline {5.11}{\ignorespaces Dwa przekroje przez r\'o\.zne cz\k e\'sci mapy makiety, wraz z naniesionymi obwiedniami, odpowiadaj\k acymi warto\'sci trzech odchyle\'n standardowych}}{85}}
\newlabel{fig:st:obwiednie}{{5.11}{85}}
\newlabel{eq:st:binKalman}{{5.37}{85}}
\@writefile{lof}{\contentsline {figure}{\numberline {5.12}{\ignorespaces Podzia\IeC {\l } przestrzeni na tr\'ojwymiarowe kom\'orki odpowiadaj\k ace rastrowi mapy wysoko\'sci}}{86}}
\newlabel{fig:st:gridCellsSmall}{{5.12}{86}}
\newlabel{eq:st:proposedColKalman}{{5.38}{86}}
\newlabel{eq:st:colKalman}{{5.39}{86}}
\@writefile{lof}{\contentsline {figure}{\numberline {5.13}{\ignorespaces Aktualizacja mapy nowymi warto\'sciami\nobreakspace  {}-- wizualizacja idei. Podzia\IeC {\l } nowego pomiaru oraz mapy globalnej na kom\'orki (a), (b); punkty z\nobreakspace  {}nowego pomiaru naniesione na map\k e globaln\k a (c); punkty zagregowane liczone dla ka\.zdej z nowo zmierzonych kom\'orek (d); wyb\'or najwy\.zszej z\nobreakspace  {}uprzednio wyznaczonych kom\'orek do aktualizacji mapy globalnej (e); aktualizacja mapy globalnej (f)}}{88}}
\newlabel{fig:st:map_updating_idea}{{5.13}{88}}
\citation{YeBorensteinCAS}
\@writefile{lof}{\contentsline {figure}{\numberline {5.14}{\ignorespaces Usuwanie pomiar\'ow przes\IeC {\l }aniaj\k acych pole widzenia-- schemat}}{89}}
\newlabel{fig:st:usuwanie przeslaniajacych}{{5.14}{89}}
\@writefile{lof}{\contentsline {figure}{\numberline {5.15}{\ignorespaces Zastosowanie sprawdzania widoczno\'sci nowo zaktualizowanych kom\'orek. Przed (a) oraz po (b) wykonaniu testu}}{89}}
\newlabel{fig:st:visibilityConstraint}{{5.15}{89}}
\@writefile{toc}{\contentsline {subsection}{\numberline {5.3.3}Weryfikacja eksperymentalna}{89}}
\newlabel{st:mapbuild:exp}{{5.3.3}{89}}
\@writefile{lof}{\contentsline {figure}{\numberline {5.16}{\ignorespaces Przyk\IeC {\l }adowy przebieg zmian warto\'sci licznika ,,\.zywotno\'sci'' nowych pomiar\'ow}}{90}}
\newlabel{st:fig:map_vitality}{{5.16}{90}}
\newlabel{eq:st:PI}{{5.40}{90}}
\@writefile{lof}{\contentsline {figure}{\numberline {5.17}{\ignorespaces Mapa utworzona przy u\.zyciu przedstawionego algorytmu (b) oraz widok z kamery (a)}}{91}}
\newlabel{fig:st:mapa1}{{5.17}{91}}
\@writefile{lof}{\contentsline {figure}{\numberline {5.18}{\ignorespaces Wycinek mapy z makiet\k a terenu. Mapa ground truth (a), mapa otrzymana z danych z minimaln\k a filtracj\k a filtrami wbudowanymi (b), mapa otrzymana z danych poddanych postprocessingowi (c) oraz mapa otrzymana z danych z domy\'sln\k a filtracj\k a filtrami wbudowanymi (d)}}{92}}
\newlabel{fig:st:makieta1}{{5.18}{92}}
\@writefile{lof}{\contentsline {figure}{\numberline {5.19}{\ignorespaces Mapa utworzona przy u\.zyciu danych z kamery zamontowanej na ramieniu robota przemys\IeC {\l }owego. Mapy pochodz\k ace z pojedynczych pomiar\'ow (a-f), widok z kamery (g) oraz mapa utworzona z po\IeC {\l }\k aczenia pomiar\'ow (h)}}{93}}
\newlabel{fig:st:mapy3}{{5.19}{93}}
\citation{schmidt2013classification}
\@writefile{lof}{\contentsline {figure}{\numberline {5.20}{\ignorespaces Widok z kamery (a) oraz mapa utworzona na zewn\k atrz budynku (b)}}{94}}
\newlabel{fig:st:mapa2}{{5.20}{94}}
\@writefile{toc}{\contentsline {chapter}{\numberline {6}Jednoczesne wykorzystanie danych z wielu sensor\'ow wizyjnych}{95}}
\@writefile{lof}{\addvspace {10\p@ }}
\@writefile{lot}{\addvspace {10\p@ }}
\newlabel{chap:ms}{{6}{95}}
\@writefile{toc}{\contentsline {section}{\numberline {6.1}Wst\k ep}{95}}
\citation{PSMNPL_CLAWAR2012_HOK}
\citation{Kneip_Hokuyo_09}
\citation{OkuYeBor_Hok_2009}
\citation{PSMNPL_CLAWAR2012_HOK}
\citation{PSMNPL_CLAWAR2012_HOK}
\@writefile{toc}{\contentsline {section}{\numberline {6.2}Skaner Laserowy Hokuyo URG--04LX}{96}}
\@writefile{toc}{\contentsline {subsection}{\numberline {6.2.1}Przekszta\IeC {\l }canie pomiar\'ow do uk\IeC {\l }adu zwi\k azanego z map\k a}{96}}
\newlabel{ms:eq:StM}{{6.2}{96}}
\newlabel{eq:ms:RiM}{{6.3}{96}}
\newlabel{eq:ms:SiR}{{6.4}{96}}
\citation{SkrzypczynskiRozprawa}
\@writefile{toc}{\contentsline {subsection}{\numberline {6.2.2}Niepewno\'s\'c pomiaru wielko\'sci geometrycznych za pomoc\k a skanera laserowego Hokuyo URG--04LX}{97}}
\newlabel{ms:eq:scanner_xy_cov}{{6.7}{97}}
\citation{Zhang04LRFCamCalib}
\citation{Li07LRFCamCalib}
\citation{krotkov1991}
\citation{wasilewski1995}
\citation{Zhang04LRFCamCalib}
\citation{li2007}
\newlabel{eq:ms:robot_scan_sigma}{{6.8}{98}}
\newlabel{ms:eq:scanner_in_robot_uncert_sigma}{{6.9}{98}}
\@writefile{toc}{\contentsline {section}{\numberline {6.3}Metoda kalibracji uk\IeC {\l }adu wielosensorycznego z\IeC {\l }o\.zonego z kamery stereowizyjnej i\nobreakspace  {}skanera laserowego 2D}{98}}
\newlabel{ms:sec:calib}{{6.3}{98}}
\citation{birbach2012}
\citation{OkadaKII01}
\citation{Forsyth2002}
\citation{XSens}
\@writefile{toc}{\contentsline {subsection}{\numberline {6.3.1}Eksperyment kalibracyjny}{99}}
\citation{Forsyth2002}
\@writefile{lof}{\contentsline {figure}{\numberline {6.1}{\ignorespaces Ruch robota podczas procedury kalibracji}}{100}}
\newlabel{fig:ms:calibMotion}{{6.1}{100}}
\@writefile{toc}{\contentsline {subsection}{\numberline {6.3.2}Filtracja danych}{100}}
\citation{more1978}
\citation{kennedy1995}
\citation{kennedy1995}
\@writefile{toc}{\contentsline {subsection}{\numberline {6.3.3}Identyfikacja parametr\'ow}{101}}
\newlabel{eq:ms:calib_eq_point}{{6.11}{101}}
\newlabel{eq:ms:calib_rGs}{{6.12}{101}}
\newlabel{ms:eq:ms_calib_function}{{6.13}{101}}
\citation{kennedy1995}
\citation{more1978}
\@writefile{toc}{\contentsline {subsection}{\numberline {6.3.4}Wyniki}{103}}
\@writefile{lof}{\contentsline {figure}{\numberline {6.2}{\ignorespaces Wyniki kalibracji skanera: pomiary w lokalnym uk\IeC {\l }adzie wsp\'o\IeC {\l }rz\k ednych (a), pomiary dla pocz\k atkowego przekszta\IeC {\l }cenia ${}^r\mathbf  {S}$ (b), pomiary dla przekszta\IeC {\l }cenia optymalnego ${}^r\mathbf  {S}$ (c)}}{103}}
\newlabel{fig:ms:calib_laser_scans}{{6.2}{103}}
\@writefile{lot}{\contentsline {table}{\numberline {6.1}{\ignorespaces Wyniki estymacji dla skanera laserowego}}{103}}
\newlabel{tab:ms:laser_est}{{6.1}{103}}
\@writefile{lof}{\contentsline {figure}{\numberline {6.3}{\ignorespaces Wyniki kalibracji kamery: pomiary w lokalnym uk\IeC {\l }adzie wsp\'o\IeC {\l }rz\k ednych kamery (a), pomiary dla pocz\k atkowego przekszta\IeC {\l }cenia ${}^r\mathbf  {S}$ (b), pomiary dla optymalnego przekszta\IeC {\l }cenia ${}^r\mathbf  {S}$ (c)}}{104}}
\newlabel{fig:ms:calib_cam_scans}{{6.3}{104}}
\citation{Haralick94covariance}
\@writefile{lot}{\contentsline {table}{\numberline {6.2}{\ignorespaces Wyniki estymacji dla kamery stereowizyjnej}}{105}}
\newlabel{tab:ms:cam_est}{{6.2}{105}}
\@writefile{toc}{\contentsline {subsection}{\numberline {6.3.5}Niepewno\'s\'c kalibracji uk\IeC {\l }adu wielosensorycznego}{105}}
\newlabel{ms:subsec:ms_calib_uncert}{{6.3.5}{105}}
\newlabel{eq:ms:calib_uncert_theta}{{6.17}{106}}
\newlabel{eq:ms:calib_uncert_X}{{6.18}{106}}
\newlabel{eq:ms:calib_sigma_theta}{{6.19}{106}}
\newlabel{eq:ms:calib_sigma_X}{{6.20}{106}}
\newlabel{eq:ms:calib_sigma_Xi}{{6.21}{106}}
\newlabel{ms:eq:uncert:gradient_f_celu}{{6.22}{106}}
\newlabel{ms:eq:ms_calib_sigma}{{6.25}{107}}
\newlabel{eq:ms:calib_sigma_example}{{6.26}{107}}
\@writefile{lof}{\contentsline {figure}{\numberline {6.4}{\ignorespaces Wp\IeC {\l }yw niepewno\'sci wyznaczenia parametr\'ow kalibracji po\IeC {\l }o\.zenia sensora na niepewno\'s\'c pomiar\'ow w uk\IeC {\l }adzie mapy}}{108}}
\newlabel{ms:fig:bad_calib_ucert}{{6.4}{108}}
\@writefile{toc}{\contentsline {section}{\numberline {6.4}Budowa mapy terenu przy u\.zyciu pasywnej stereowizji i skanera laserowego}{108}}
\newlabel{sec:camScanMap}{{6.4}{108}}
\citation{ecmr2011}
\@writefile{lof}{\contentsline {figure}{\numberline {6.5}{\ignorespaces Mapa utworzona przy u\.zyciu danych z kamery stereowizyjnej oraz skanera laserowego (a) oraz widok z kamery stereowizyjnej (b)}}{109}}
\newlabel{ms:fig:mmmapy}{{6.5}{109}}
\@writefile{lof}{\contentsline {figure}{\numberline {6.6}{\ignorespaces Mapy przedstawiaj\k ace makiet\k e terenu. Mapa utworzona przy u\.zyciu kamery stereowizyjnej (a), mapa utworzona przy u\.zyciu skanera laserowego (b), mapa utworzona przy u\.zyciu kamery stereowizyjne oraz skanera laserowego (c), mapa \emph  {ground truth} (d)}}{110}}
\newlabel{ms:fig:mmmakieta}{{6.6}{110}}
\citation{zhu2009}
\citation{dillmann2009}
\citation{johnson1997surface}
\citation{besl1992method}
\citation{KolterLittleDog}
\citation{nister2004visual}
\citation{ozawa2005using}
\citation{chilian2011multisensor}
\citation{konolige2011large}
\citation{marks2008gamma}
\citation{schmidt2010visual}
\citation{sim2005vision}
\citation{marks2008gamma}
\@writefile{toc}{\contentsline {chapter}{\numberline {7}Metoda samolokalizacji robota krocz\k acego na podstawie g\k estej mapy g\IeC {\l }\k ebi}{111}}
\@writefile{lof}{\addvspace {10\p@ }}
\@writefile{lot}{\addvspace {10\p@ }}
\newlabel{chap:loc}{{7}{111}}
\@writefile{toc}{\contentsline {section}{\numberline {7.1}Algorytm samolokalizacji}{111}}
\@writefile{toc}{\contentsline {subsection}{\numberline {7.1.1}Wst\k ep}{111}}
\citation{more1978}
\newlabel{eq:ms:loc:opti_idea}{{7.1}{113}}
\@writefile{lof}{\contentsline {figure}{\numberline {7.1}{\ignorespaces Mapa globalna oraz dopasowywana do niej mapa powsta\IeC {\l }a z aktualnego pomiaru}}{114}}
\newlabel{fig:ms:loc_overview}{{7.1}{114}}
\@writefile{toc}{\contentsline {subsection}{\numberline {7.1.2}Przygotowanie danych}{114}}
\newlabel{eq:ms:scaled_occu_ul}{{7.2}{114}}
\@writefile{lof}{\contentsline {figure}{\numberline {7.2}{\ignorespaces Globalna mapa wysoko\'sci pomniejszona 16, 9 i 4 razy (a, c, e) oraz mapa lokalna pomniejszona 16, 9 i 4 razy (b, d, f)}}{115}}
\newlabel{fig:ms:loc_scaled_sets1}{{7.2}{115}}
\@writefile{lof}{\contentsline {figure}{\numberline {7.3}{\ignorespaces Mapa wysoko\'sci pomniejszona 2 razy (a, b) oraz odpowiadaj\k ace im mapy w oryginalnej rozdzielczo\'sci (c, d) }}{116}}
\newlabel{fig:ms:loc_scaled_sets2}{{7.3}{116}}
\newlabel{eq:ms:scaled_grad_formula}{{7.3}{117}}
\@writefile{toc}{\contentsline {subsection}{\numberline {7.1.3}Dopasowanie map}{117}}
\newlabel{eq:ms:loc:opti_elev_err_formula}{{7.4}{117}}
\@writefile{lof}{\contentsline {figure}{\numberline {7.4}{\ignorespaces Schemat blokowy algorytmu wyznaczaj\k acego kolejne przybli\.zenia wyniku}}{118}}
\newlabel{fig:ms:LM_schema}{{7.4}{118}}
\newlabel{eq:ms:loc:opti_count_weight}{{7.5}{119}}
\newlabel{eq:ms:loc:opti_occu_ratio}{{7.6}{119}}
\@writefile{toc}{\contentsline {section}{\numberline {7.2}Wyniki eksperymentalne}{119}}
\@writefile{lof}{\contentsline {figure}{\numberline {7.5}{\ignorespaces Wizualizacja dzia\IeC {\l }ania algorytmu wyznaczaj\k acego kolejne przybli\.zenia wyniku\nobreakspace  {}-- cz\k e\'s\'c 1. a,b\nobreakspace  {}-- pr\'oba dopasowania bez wykorzystania prezentowanej metody (odpowiednio przed i po optymalizacji); c,d\nobreakspace  {}-- dopasowanie map pomniejszonych 16 razy; e,f\nobreakspace  {}-- dopasowanie map o rozdzielczo\'sci zmniejszonej 9 razy }}{120}}
\newlabel{fig:ms:starting_cond_det1}{{7.5}{120}}
\@writefile{lof}{\contentsline {figure}{\numberline {7.6}{\ignorespaces Wizualizacja dzia\IeC {\l }ania algorytmu wyznaczaj\k acego kolejne przybli\.zenia wyniku\nobreakspace  {}-- cz\k e\'s\'c 2. a,b\nobreakspace  {}-- dopasowanie map pomniejszonych 4 razy (odpowiednio przed i po optymalizacji); c,d\nobreakspace  {}-- dopasowanie map pomniejszonych 2 razy; e,f\nobreakspace  {}-- dopasowanie map w oryginalnej rozdzielczo\'sci}}{121}}
\newlabel{fig:ms:starting_cond_det2}{{7.6}{121}}
\@writefile{lof}{\contentsline {figure}{\numberline {7.7}{\ignorespaces Mapy utworzone z danych otrzymanych z sensora Kinect. Utworzona mapa (a), odtworzona \'scie\.zka sensora (b), przyk\IeC {\l }adowe chmury punkt\'ow z 3 i 10 pomiaru (c), (d)}}{122}}
\newlabel{ms:fig:kinect_mapy}{{7.7}{122}}
\@writefile{lof}{\contentsline {figure}{\numberline {7.8}{\ignorespaces Mapy utworzone z danych stereowizyjnych. Widok z kamery (a), mapa utworzona przy u\.zyciu samolokalizacji na podstawie odometrii (b), mapa utworzona przy u\.zyciu proponowanego algorytmu samolokalizacji (c)}}{123}}
\newlabel{ms:fig:majowe_mapy}{{7.8}{123}}
\citation{SkrzypczynskiECMR}
\citation{BelterICRA2010}
\@writefile{toc}{\contentsline {chapter}{\numberline {8}Wnioski}{124}}
\@writefile{lof}{\addvspace {10\p@ }}
\@writefile{lot}{\addvspace {10\p@ }}
\newlabel{chap:wnioski}{{8}{124}}
\@writefile{toc}{\contentsline {section}{\numberline {8.1}Wnioski w kontek\'scie dotychczasowego stanu wiedzy}{124}}
\citation{bsiem}
\citation{SkrzypczynskiRozprawa}
\citation{Haralick94covariance}
\citation{BelterJFR2011}
\citation{nowicki2013experimental}
\citation{belter2012estimating}
\citation{belter2013exploration}
\@writefile{toc}{\contentsline {section}{\numberline {8.2}Podsumowanie osi\k agni\k etych wynik\'ow}{126}}
\citation{sait1}
\citation{sait2}
\citation{labkecki2009aktywny}
\citation{labkecki2013sensory}
\citation{labkecki2012characterization}
\citation{labkecki2011terrain}
\citation{PSMNPL_CLAWAR2012_HOK}
\citation{dps}
\citation{PSPL_CLAWAR2012}
\citation{PLKWCLAWAR2010Stairs}
\citation{mechatr}
\citation{BelterICRA2010}
\citation{belter2012estimating}
\citation{ecmr2011}
\citation{SkrzypczynskiECMR}
\citation{labkecki2011autonomous}
\@writefile{toc}{\contentsline {section}{\numberline {8.3}Kierunki dalszych bada\'n}{127}}
\bibdata{rozprawa_PL}
\bibcite{albert2001detection}{1}
\bibcite{aldon1994mobile}{2}
\bibcite{asada1990map}{3}
\bibcite{baczyk2010visual}{4}
\bibcite{belter2012precise}{5}
\bibcite{BelterPhD}{6}
\bibcite{BelterICRA2010}{7}
\bibcite{belter2012estimating}{8}
\bibcite{belter2013exploration}{9}
\bibcite{ecmr2011}{10}
\bibcite{belter2011rough}{11}
\bibcite{BelterJFR2011}{12}
\bibcite{besl1992method}{13}
\bibcite{bkedkowski2013line}{14}
\bibcite{bihari1989controlling}{15}
\bibcite{birbach2012}{16}
\bibcite{ToolboxBouguet}{17}
\bibcite{LearningOpenCV}{18}
\bibcite{chen1987modeling}{19}
\bibcite{chilian2011multisensor}{20}
\bibcite{davison2007monoslam}{21}
\bibcite{douglas1973algorithms}{22}
\bibcite{Forsyth2002}{23}
\bibcite{gartshore2002exploration}{24}
\bibcite{gil2010multi}{25}
\bibcite{gutmann2004stair}{26}
\bibcite{Haralick94covariance}{27}
\bibcite{henry2012rgb}{28}
\bibcite{hilton2005scene}{29}
\bibcite{huber1964robust}{30}
\bibcite{huynh1999calibrating}{31}
\bibcite{iagolnitzer1992locomotion}{32}
\bibcite{jezouin1988building}{33}
\bibcite{joblove1978color}{34}
\bibcite{johnson1997surface}{35}
\bibcite{kalakrishnan2010fast}{36}
\bibcite{kennedy1995}{37}
\bibcite{khoshelham2012accuracy}{38}
\bibcite{KimPeformanceAnalysis05}{39}
\bibcite{klein1987vision}{40}
\bibcite{Kneip_Hokuyo_09}{41}
\bibcite{KolterLittleDog}{42}
\bibcite{konolige97svs}{43}
\bibcite{konolige2011large}{44}
\bibcite{krotkov1991}{45}
\bibcite{krotkov1994terrain}{46}
\bibcite{kwak2008mobile}{47}
\bibcite{kweon1990high}{48}
\bibcite{lang2007adaptive}{49}
\bibcite{DiLeo11Covariance}{50}
\bibcite{li2007}{51}
\bibcite{Li07LRFCamCalib}{52}
\bibcite{sait1}{53}
\bibcite{sait2}{54}
\bibcite{SkrzypczynskiECMR}{55}
\bibcite{mechatr}{56}
\bibcite{labkecki2009aktywny}{57}
\bibcite{PSMNPL_CLAWAR2012_HOK}{58}
\bibcite{dps}{59}
\bibcite{PSPL_CLAWAR2012}{60}
\bibcite{PLKWCLAWAR2010Stairs}{61}
\bibcite{labkecki2013sensory}{62}
\bibcite{labkecki2012characterization}{63}
\bibcite{labkecki2011terrain}{64}
\bibcite{labkecki2011autonomous}{65}
\bibcite{LopatowskiMgr}{66}
\bibcite{marks2008gamma}{67}
\bibcite{Matthies87errormodeling}{68}
\bibcite{matthies2002portable}{69}
\bibcite{may2009robust}{70}
\bibcite{mihankhah2009autonomous}{71}
\bibcite{Miura93anuncertainty}{72}
\bibcite{moore2002reliable}{73}
\bibcite{more1978}{74}
\bibcite{newcombe2011kinectfusion}{75}
\bibcite{nilsson1984shakey}{76}
\bibcite{nister2004visual}{77}
\bibcite{nowicki2013experimental}{78}
\bibcite{nuchter20076d}{79}
\bibcite{oggier2004all}{80}
\bibcite{OkadaKII01}{81}
\bibcite{OkuYeBor_Hok_2009}{82}
\bibcite{ozawa2005using}{83}
\bibcite{paz2008large}{84}
\bibcite{pfaff2007efficient}{85}
\bibcite{plagemann2008learning}{86}
\bibcite{poppinga2008hough}{87}
\bibcite{PoppingaRoboCup10}{88}
\bibcite{prusak2008pose}{89}
\bibcite{reid1996projective}{90}
\bibcite{rocchini2001low}{91}
\bibcite{roennau2009six}{92}
\bibcite{dillmann2009}{93}
\bibcite{Rusu11ICRA}{94}
\bibcite{rusu2008towards}{95}
\bibcite{Rusu09LFlatland}{96}
\bibcite{sahabiErrorAnalysis}{97}
\bibcite{sanders2001error}{98}
\bibcite{scharstein2003high}{99}
\bibcite{schmidt2010visual}{100}
\bibcite{schmidt2013classification}{101}
\bibcite{shirai1972recognition}{102}
\bibcite{bsiem}{103}
\bibcite{sim2005vision}{104}
\bibcite{skrzypczynski2004approach}{105}
\bibcite{psautplen}{106}
\bibcite{SkrzypczynskiRozprawa}{107}
\bibcite{stelzer2012stereo}{108}
\bibcite{stoyanov2011comparative}{109}
\bibcite{SzeliskiCV}{110}
\bibcite{AsteriskStairClimbing}{111}
\bibcite{tomono20063}{112}
\bibcite{messor}{113}
\bibcite{wang2011error}{114}
\bibcite{wasilewski1995}{115}
\bibcite{woodfill2004tyzx}{116}
\bibcite{zhu2009}{117}
\bibcite{YeBorensteinCAS}{118}
\bibcite{Zhang04LRFCamCalib}{119}
\bibcite{ZhangKalib}{120}
\bibcite{tz}{121}
\bibcite{XSens}{122}
\bibstyle{plplainpl}
