\relax 
\citation{PoppingaRoboCup10}
\citation{konolige97svs}
\citation{Kneip_Hokuyo_09}
\citation{oggier2004all}
\citation{davison2007monoslam}
\citation{khoshelham2012accuracy}
\@writefile{toc}{\contentsline {chapter}{\numberline {1}Obszar problemowy rozprawy}{1}}
\@writefile{lof}{\addvspace {10\p@ }}
\@writefile{lot}{\addvspace {10\p@ }}
\@writefile{toc}{\contentsline {section}{\numberline {1.1}Sensory wizyjne w zadaniu rekonstrukcji sceny robota krocz\k acego}{1}}
\citation{nilsson1984shakey}
\citation{skrzypczynski2004approach}
\citation{gartshore2002exploration}
\citation{tomono20063}
\citation{hilton2005scene}
\citation{davison2007monoslam}
\citation{baczyk2010visual}
\citation{gil2010multi}
\citation{schmidt2010visual}
\citation{belter2012precise}
\@writefile{toc}{\contentsline {subsection}{\numberline {1.1.1}Kamery monokularowe}{2}}
\citation{shirai1972recognition}
\citation{shirai1972recognition}
\citation{jezouin1988building}
\citation{scharstein2003high}
\citation{rocchini2001low}
\citation{asada1990map}
\citation{kwak2008mobile}
\citation{aldon1994mobile}
\citation{khoshelham2012accuracy}
\citation{stoyanov2011comparative}
\citation{henry2012rgb}
\citation{newcombe2011kinectfusion}
\citation{nowicki2013experimental}
\@writefile{toc}{\contentsline {subsection}{\numberline {1.1.2}Uk\IeC {\l }ady z o\'swietleniem strukturalnym}{3}}
\@writefile{toc}{\contentsline {subsection}{\numberline {1.1.3}Sensor Kinect/Xtion}{3}}
\citation{Rusu09LFlatland}
\citation{KolterLittleDog}
\citation{stelzer2012stereo}
\citation{Rusu09LFlatland}
\citation{KolterLittleDog}
\citation{stelzer2012stereo}
\citation{kweon1990high}
\citation{paz2008large}
\citation{konolige97svs}
\citation{woodfill2004tyzx}
\citation{poppinga2008hough}
\citation{PoppingaRoboCup10}
\@writefile{toc}{\contentsline {subsection}{\numberline {1.1.4}Kamery w uk\IeC {\l }adzie stereowizyjnym}{4}}
\citation{OkuYeBor_Hok_2009}
\citation{Kneip_Hokuyo_09}
\citation{YeBorensteinCAS}
\citation{pfaff2007efficient}
\citation{krotkov1994terrain}
\citation{plagemann2008learning}
\citation{pfaff2007efficient}
\citation{nuchter20076d}
\citation{pfaff2007efficient}
\@writefile{toc}{\contentsline {subsection}{\numberline {1.1.5}Skanery laserowe}{5}}
\citation{PoppingaRoboCup10}
\citation{roennau2009six}
\citation{prusak2008pose}
\citation{may2009robust}
\@writefile{toc}{\contentsline {subsection}{\numberline {1.1.6}Kamery TOF}{6}}
\@writefile{toc}{\contentsline {section}{\numberline {1.2}Istniej\k ace rozwi\k azania w zakresie rekonstrukcji...}{7}}
\citation{nuchter20076d}
\citation{newcombe2011kinectfusion}
\citation{Rusu11ICRA}
\citation{rusu2008towards}
\citation{bihari1989controlling}
\citation{klein1987vision}
\citation{iagolnitzer1992locomotion}
\citation{krotkov1994terrain}
\citation{kweon1990high}
\citation{YeBorensteinCAS}
\citation{roennau2009six}
\@writefile{lof}{\contentsline {figure}{\numberline {1.1}{\ignorespaces Rastrowa mapa wysoko\'sci}}{9}}
\newlabel{wstep:fig:mapaWys}{{1.1}{9}}
\citation{pfaff2007efficient}
\citation{YeBorensteinCAS}
\citation{KolterLittleDog}
\citation{Rusu09LFlatland}
\citation{lang2007adaptive}
\citation{plagemann2008learning}
\citation{matthies2002portable}
\citation{mihankhah2009autonomous}
\citation{moore2002reliable}
\citation{kalakrishnan2010fast}
\citation{AsteriskStairClimbing}
\citation{albert2001detection}
\citation{gutmann2004stair}
\bibdata{rozprawa_PL}
\bibcite{albert2001detection}{1}
\bibcite{aldon1994mobile}{2}
\bibcite{asada1990map}{3}
\bibcite{baczyk2010visual}{4}
\bibcite{belter2012precise}{5}
\bibcite{bihari1989controlling}{6}
\bibcite{davison2007monoslam}{7}
\bibcite{gartshore2002exploration}{8}
\bibcite{gil2010multi}{9}
\bibcite{gutmann2004stair}{10}
\bibcite{henry2012rgb}{11}
\bibcite{hilton2005scene}{12}
\bibcite{iagolnitzer1992locomotion}{13}
\bibcite{jezouin1988building}{14}
\bibcite{kalakrishnan2010fast}{15}
\bibcite{khoshelham2012accuracy}{16}
\bibcite{klein1987vision}{17}
\bibcite{Kneip_Hokuyo_09}{18}
\bibcite{KolterLittleDog}{19}
\bibcite{konolige97svs}{20}
\bibcite{krotkov1994terrain}{21}
\bibcite{kwak2008mobile}{22}
\bibcite{kweon1990high}{23}
\bibcite{lang2007adaptive}{24}
\bibcite{matthies2002portable}{25}
\bibcite{may2009robust}{26}
\bibcite{mihankhah2009autonomous}{27}
\bibcite{moore2002reliable}{28}
\bibcite{newcombe2011kinectfusion}{29}
\bibcite{nilsson1984shakey}{30}
\bibcite{nowicki2013experimental}{31}
\bibcite{nuchter20076d}{32}
\bibcite{oggier2004all}{33}
\bibcite{OkuYeBor_Hok_2009}{34}
\bibcite{paz2008large}{35}
\bibcite{pfaff2007efficient}{36}
\bibcite{plagemann2008learning}{37}
\bibcite{poppinga2008hough}{38}
\bibcite{PoppingaRoboCup10}{39}
\bibcite{prusak2008pose}{40}
\bibcite{rocchini2001low}{41}
\bibcite{roennau2009six}{42}
\bibcite{Rusu11ICRA}{43}
\bibcite{rusu2008towards}{44}
\bibcite{Rusu09LFlatland}{45}
\bibcite{scharstein2003high}{46}
\bibcite{schmidt2010visual}{47}
\bibcite{shirai1972recognition}{48}
\bibcite{skrzypczynski2004approach}{49}
\bibcite{stelzer2012stereo}{50}
\bibcite{stoyanov2011comparative}{51}
\bibcite{AsteriskStairClimbing}{52}
\bibcite{tomono20063}{53}
\bibcite{woodfill2004tyzx}{54}
\bibcite{YeBorensteinCAS}{55}
\bibstyle{plplainpl}
