%!PS-Adobe-2.0 EPSF-1.2
%%Creator: MATLAB, The Mathworks, Inc. Version 7.5.0.342 (R2007b). Operating System: Microsoft Windows Vista.
%%Title: .\SigmaX_2.eps
%%CreationDate: 03/13/2013  11:39:09
%%DocumentNeededFonts: Helvetica
%%DocumentProcessColors: Cyan Magenta Yellow Black
%%Pages: 1
%%BoundingBox:    28   186   593   583
%%EndComments

%%BeginProlog
% MathWorks dictionary
/MathWorks 160 dict begin
% definition operators
/bdef {bind def} bind def
/ldef {load def} bind def
/xdef {exch def} bdef
/xstore {exch store} bdef
% operator abbreviations
/c  /clip ldef
/cc /concat ldef
/cp /closepath ldef
/gr /grestore ldef
/gs /gsave ldef
/mt /moveto ldef
/np /newpath ldef
/cm /currentmatrix ldef
/sm /setmatrix ldef
/rm /rmoveto ldef
/rl /rlineto ldef
/s {show newpath} bdef
/sc {setcmykcolor} bdef
/sr /setrgbcolor ldef
/sg /setgray ldef
/w /setlinewidth ldef
/j /setlinejoin ldef
/cap /setlinecap ldef
/rc {rectclip} bdef
/rf {rectfill} bdef
% page state control
/pgsv () def
/bpage {/pgsv save def} bdef
/epage {pgsv restore} bdef
/bplot /gsave ldef
/eplot {stroke grestore} bdef
% orientation switch
/portraitMode 0 def /landscapeMode 1 def /rotateMode 2 def
% coordinate system mappings
/dpi2point 0 def
% font control
/FontSize 0 def
/FMS {/FontSize xstore findfont [FontSize 0 0 FontSize neg 0 0]
  makefont setfont} bdef
/ISOLatin1Encoding where {pop /WindowsLatin1Encoding 256 array bdef
ISOLatin1Encoding WindowsLatin1Encoding copy pop
/.notdef/.notdef/quotesinglbase/florin/quotedblbase/ellipsis/dagger
/daggerdbl/circumflex/perthousand/Scaron/guilsinglleft/OE/.notdef/.notdef
/.notdef/.notdef/quoteleft/quoteright/quotedblleft/quotedblright/bullet
/endash/emdash/tilde/trademark/scaron/guilsinglright/oe/.notdef/.notdef
/Ydieresis WindowsLatin1Encoding 128 32 getinterval astore pop}
{/WindowsLatin1Encoding StandardEncoding bdef} ifelse
/reencode {exch dup where {pop load} {pop StandardEncoding} ifelse
  exch dup 3 1 roll findfont dup length dict begin
  { 1 index /FID ne {def}{pop pop} ifelse } forall
  /Encoding exch def currentdict end definefont pop} bdef
/isroman {findfont /CharStrings get /Agrave known} bdef
/FMSR {3 1 roll 1 index dup isroman {reencode} {pop pop} ifelse
  exch FMS} bdef
/csm {1 dpi2point div -1 dpi2point div scale neg translate
 dup landscapeMode eq {pop -90 rotate}
  {rotateMode eq {90 rotate} if} ifelse} bdef
% line types: solid, dotted, dashed, dotdash
/SO { [] 0 setdash } bdef
/DO { [.5 dpi2point mul 4 dpi2point mul] 0 setdash } bdef
/DA { [6 dpi2point mul] 0 setdash } bdef
/DD { [.5 dpi2point mul 4 dpi2point mul 6 dpi2point mul 4
  dpi2point mul] 0 setdash } bdef
% macros for lines and objects
/L {lineto stroke} bdef
/MP {3 1 roll moveto 1 sub {rlineto} repeat} bdef
/AP {{rlineto} repeat} bdef
/PDlw -1 def
/W {/PDlw currentlinewidth def setlinewidth} def
/PP {closepath eofill} bdef
/DP {closepath stroke} bdef
/MR {4 -2 roll moveto dup  0 exch rlineto exch 0 rlineto
  neg 0 exch rlineto closepath} bdef
/FR {MR stroke} bdef
/PR {MR fill} bdef
/L1i {{currentfile picstr readhexstring pop} image} bdef
/tMatrix matrix def
/MakeOval {newpath tMatrix currentmatrix pop translate scale
0 0 1 0 360 arc tMatrix setmatrix} bdef
/FO {MakeOval stroke} bdef
/PO {MakeOval fill} bdef
/PD {currentlinewidth 2 div 0 360 arc fill
   PDlw -1 eq not {PDlw w /PDlw -1 def} if} def
/FA {newpath tMatrix currentmatrix pop translate scale
  0 0 1 5 -2 roll arc tMatrix setmatrix stroke} bdef
/PA {newpath tMatrix currentmatrix pop	translate 0 0 moveto scale
  0 0 1 5 -2 roll arc closepath tMatrix setmatrix fill} bdef
/FAn {newpath tMatrix currentmatrix pop translate scale
  0 0 1 5 -2 roll arcn tMatrix setmatrix stroke} bdef
/PAn {newpath tMatrix currentmatrix pop translate 0 0 moveto scale
  0 0 1 5 -2 roll arcn closepath tMatrix setmatrix fill} bdef
/vradius 0 def /hradius 0 def /lry 0 def
/lrx 0 def /uly 0 def /ulx 0 def /rad 0 def
/MRR {/vradius xdef /hradius xdef /lry xdef /lrx xdef /uly xdef
  /ulx xdef newpath tMatrix currentmatrix pop ulx hradius add uly
  vradius add translate hradius vradius scale 0 0 1 180 270 arc 
  tMatrix setmatrix lrx hradius sub uly vradius add translate
  hradius vradius scale 0 0 1 270 360 arc tMatrix setmatrix
  lrx hradius sub lry vradius sub translate hradius vradius scale
  0 0 1 0 90 arc tMatrix setmatrix ulx hradius add lry vradius sub
  translate hradius vradius scale 0 0 1 90 180 arc tMatrix setmatrix
  closepath} bdef
/FRR {MRR stroke } bdef
/PRR {MRR fill } bdef
/MlrRR {/lry xdef /lrx xdef /uly xdef /ulx xdef /rad lry uly sub 2 div def
  newpath tMatrix currentmatrix pop ulx rad add uly rad add translate
  rad rad scale 0 0 1 90 270 arc tMatrix setmatrix lrx rad sub lry rad
  sub translate rad rad scale 0 0 1 270 90 arc tMatrix setmatrix
  closepath} bdef
/FlrRR {MlrRR stroke } bdef
/PlrRR {MlrRR fill } bdef
/MtbRR {/lry xdef /lrx xdef /uly xdef /ulx xdef /rad lrx ulx sub 2 div def
  newpath tMatrix currentmatrix pop ulx rad add uly rad add translate
  rad rad scale 0 0 1 180 360 arc tMatrix setmatrix lrx rad sub lry rad
  sub translate rad rad scale 0 0 1 0 180 arc tMatrix setmatrix
  closepath} bdef
/FtbRR {MtbRR stroke } bdef
/PtbRR {MtbRR fill } bdef
/stri 6 array def /dtri 6 array def
/smat 6 array def /dmat 6 array def
/tmat1 6 array def /tmat2 6 array def /dif 3 array def
/asub {/ind2 exch def /ind1 exch def dup dup
  ind1 get exch ind2 get sub exch } bdef
/tri_to_matrix {
  2 0 asub 3 1 asub 4 0 asub 5 1 asub
  dup 0 get exch 1 get 7 -1 roll astore } bdef
/compute_transform {
  dmat dtri tri_to_matrix tmat1 invertmatrix 
  smat stri tri_to_matrix tmat2 concatmatrix } bdef
/ds {stri astore pop} bdef
/dt {dtri astore pop} bdef
/db {2 copy /cols xdef /rows xdef mul dup string
  currentfile exch readhexstring pop
  /bmap xdef pop pop} bdef
/it {gs np dtri aload pop moveto lineto lineto cp c
  cols rows 8 compute_transform 
  {bmap} image gr}bdef
/il {newpath moveto lineto stroke}bdef
currentdict end def
%%EndProlog

%%BeginSetup
MathWorks begin

0 cap

end
%%EndSetup

%%Page: 1 1
%%BeginPageSetup
%%PageBoundingBox:    28   186   593   583
MathWorks begin
bpage
%%EndPageSetup

%%BeginObject: obj1
bplot

/dpi2point 12 def
portraitMode 0216 7344 csm

  124   341  6780  4770 MR c np
85 dict begin %Colortable dictionary
/c0 { 0.000000 0.000000 0.000000 sr} bdef
/c1 { 1.000000 1.000000 1.000000 sr} bdef
/c2 { 0.900000 0.000000 0.000000 sr} bdef
/c3 { 0.000000 0.820000 0.000000 sr} bdef
/c4 { 0.000000 0.000000 0.800000 sr} bdef
/c5 { 0.910000 0.820000 0.320000 sr} bdef
/c6 { 1.000000 0.260000 0.820000 sr} bdef
/c7 { 0.000000 0.820000 0.820000 sr} bdef
c0
1 j
1 sg
   0    0 6919 5187 PR
6 w
-1532 -1652 -3830 661 1532 1651 4729 2304 4 MP
PP
3830 -660 -1532 -1652 -3830 661 1532 1651 4729 2304 5 MP stroke
0 1915 1532 1651 0 -1915 4729 2304 4 MP
PP
-1532 -1651 0 1915 1532 1651 0 -1915 4729 2304 5 MP stroke
0 1915 -3830 660 0 -1915 4729 2304 4 MP
PP
3830 -660 0 1915 -3830 660 0 -1915 4729 2304 5 MP stroke
4 w
DO
0 sg
6261 3955 mt 4729 2304 L
4729 2304 mt 4729  389 L
5303 4120 mt 3771 2469 L
3771 2469 mt 3771  554 L
4346 4285 mt 2814 2634 L
2814 2634 mt 2814  719 L
3388 4450 mt 1856 2799 L
1856 2799 mt 1856  884 L
2431 4616 mt  899 2964 L
 899 2964 mt  899 1049 L
 899 2964 mt 4729 2304 L
4729 2304 mt 4729  389 L
1409 3515 mt 5239 2854 L
5239 2854 mt 5239  939 L
1920 4065 mt 5750 3405 L
5750 3405 mt 5750 1489 L
2431 4616 mt 6261 3955 L
6261 3955 mt 6261 2040 L
 899 2964 mt 4729 2304 L
4729 2304 mt 6261 3955 L
 899 2581 mt 4729 1921 L
4729 1921 mt 6261 3572 L
 899 2198 mt 4729 1538 L
4729 1538 mt 6261 3189 L
 899 1815 mt 4729 1155 L
4729 1155 mt 6261 2806 L
 899 1432 mt 4729  772 L
4729  772 mt 6261 2423 L
 899 1049 mt 4729  389 L
4729  389 mt 6261 2040 L
SO
6 w
6261 3955 mt 2431 4616 L
 899 2964 mt 2431 4616 L
 899 2964 mt  899 1049 L
6261 3955 mt 6327 4026 L
%%IncludeResource: font Helvetica
/Helvetica /WindowsLatin1Encoding 180 FMSR

6350 4219 mt 
(-1000) s
5303 4120 mt 5369 4191 L
5393 4384 mt 
(-500) s
4346 4285 mt 4412 4356 L
4435 4549 mt 
(0) s
3388 4450 mt 3454 4522 L
3478 4714 mt 
(500) s
2431 4616 mt 2497 4687 L
2520 4879 mt 
(1000) s
 899 2964 mt  803 2981 L
 669 3154 mt 
(0) s
1409 3515 mt 1313 3531 L
 979 3704 mt 
(100) s
1920 4065 mt 1824 4082 L
1490 4254 mt 
(200) s
2431 4616 mt 2335 4632 L
2001 4805 mt 
(300) s
 899 2964 mt  832 2893 L
 709 2934 mt 
(0) s
 899 2581 mt  832 2510 L
 709 2551 mt 
(5) s
 899 2198 mt  832 2127 L
 609 2168 mt 
(10) s
 899 1815 mt  832 1744 L
 609 1785 mt 
(15) s
 899 1432 mt  832 1361 L
 609 1401 mt 
(20) s
 899 1049 mt  832  978 L
 609 1018 mt 
(25) s
gs 899 389 5363 4228 MR c np
1 sg
-95 22 51 56 4773 4060 3 MP
PP
/c8 { 0.000000 0.000000 0.562500 sr} bdef
c8
4773 4060 mt 4824 4116 L
4824 4116 mt 4729 4138 L
1 sg
-96 23 51 57 4722 4003 3 MP
PP
c8
4722 4003 mt 4773 4060 L
4773 4060 mt 4677 4083 L
1 sg
52 55 -96 23 4773 4060 3 MP
PP
c8
4773 4060 mt 4677 4083 L
4677 4083 mt 4729 4138 L
1 sg
-96 22 52 55 4677 4083 3 MP
PP
c8
4677 4083 mt 4729 4138 L
4729 4138 mt 4633 4160 L
1 sg
-96 24 51 56 4671 3947 3 MP
PP
c8
4671 3947 mt 4722 4003 L
4722 4003 mt 4626 4027 L
1 sg
51 56 -96 24 4722 4003 3 MP
PP
c8
4722 4003 mt 4626 4027 L
4626 4027 mt 4677 4083 L
1 sg
-95 22 51 56 4626 4027 3 MP
PP
c8
4626 4027 mt 4677 4083 L
4677 4083 mt 4582 4105 L
1 sg
51 55 -95 22 4677 4083 3 MP
PP
c8
4677 4083 mt 4582 4105 L
4582 4105 mt 4633 4160 L
1 sg
51 56 -96 24 4671 3947 3 MP
PP
c8
4671 3947 mt 4575 3971 L
4575 3971 mt 4626 4027 L
1 sg
-96 24 51 57 4620 3890 3 MP
PP
c8
4620 3890 mt 4671 3947 L
4671 3947 mt 4575 3971 L
1 sg
-96 21 51 55 4582 4105 3 MP
PP
c8
4582 4105 mt 4633 4160 L
4633 4160 mt 4537 4181 L
1 sg
-95 22 51 56 4575 3971 3 MP
PP
c8
4575 3971 mt 4626 4027 L
4626 4027 mt 4531 4049 L
1 sg
51 56 -95 22 4626 4027 3 MP
PP
c8
4626 4027 mt 4531 4049 L
4531 4049 mt 4582 4105 L
1 sg
-96 25 51 56 4569 3834 3 MP
PP
/c9 { 0.000000 0.000000 0.625000 sr} bdef
c9
4569 3834 mt 4620 3890 L
c8
4620 3890 mt 4524 3915 L
1 sg
51 56 -96 25 4620 3890 3 MP
PP
c8
4620 3890 mt 4524 3915 L
4524 3915 mt 4575 3971 L
1 sg
-96 20 51 56 4531 4049 3 MP
PP
c8
4531 4049 mt 4582 4105 L
4582 4105 mt 4486 4125 L
1 sg
51 56 -96 20 4582 4105 3 MP
PP
c8
4582 4105 mt 4486 4125 L
4486 4125 mt 4537 4181 L
1 sg
-95 22 51 56 4524 3915 3 MP
PP
c8
4524 3915 mt 4575 3971 L
4575 3971 mt 4480 3993 L
1 sg
51 56 -95 22 4575 3971 3 MP
PP
c8
4575 3971 mt 4480 3993 L
4480 3993 mt 4531 4049 L
1 sg
51 57 -96 24 4569 3834 3 MP
PP
c9
4569 3834 mt 4473 3858 L
c8
4473 3858 mt 4524 3915 L
1 sg
-96 24 51 57 4518 3777 3 MP
PP
c9
4518 3777 mt 4569 3834 L
4569 3834 mt 4473 3858 L
1 sg
-96 19 51 56 4486 4125 3 MP
PP
c8
4486 4125 mt 4537 4181 L
4537 4181 mt 4441 4200 L
1 sg
51 55 -96 21 4531 4049 3 MP
PP
c8
4531 4049 mt 4435 4070 L
4435 4070 mt 4486 4125 L
1 sg
-96 21 51 56 4480 3993 3 MP
PP
c8
4480 3993 mt 4531 4049 L
4531 4049 mt 4435 4070 L
1 sg
52 55 -96 23 4524 3915 3 MP
PP
c8
4524 3915 mt 4428 3938 L
4428 3938 mt 4480 3993 L
1 sg
-96 23 51 57 4473 3858 3 MP
PP
c8
4473 3858 mt 4524 3915 L
4524 3915 mt 4428 3938 L
1 sg
51 56 -96 25 4518 3777 3 MP
PP
c9
4518 3777 mt 4422 3802 L
c8
4422 3802 mt 4473 3858 L
1 sg
-96 25 51 57 4467 3720 3 MP
PP
c9
4467 3720 mt 4518 3777 L
4518 3777 mt 4422 3802 L
1 sg
51 56 -96 19 4486 4125 3 MP
PP
c8
4486 4125 mt 4390 4144 L
4390 4144 mt 4441 4200 L
1 sg
-96 19 51 55 4435 4070 3 MP
PP
c8
4435 4070 mt 4486 4125 L
4486 4125 mt 4390 4144 L
1 sg
-96 22 52 55 4428 3938 3 MP
PP
c8
4428 3938 mt 4480 3993 L
4480 3993 mt 4384 4015 L
1 sg
51 55 -96 22 4480 3993 3 MP
PP
c8
4480 3993 mt 4384 4015 L
4384 4015 mt 4435 4070 L
1 sg
51 56 -96 24 4473 3858 3 MP
PP
c8
4473 3858 mt 4377 3882 L
4377 3882 mt 4428 3938 L
1 sg
-96 24 51 56 4422 3802 3 MP
PP
c8
4422 3802 mt 4473 3858 L
4473 3858 mt 4377 3882 L
1 sg
-96 26 51 58 4416 3662 3 MP
PP
c9
4416 3662 mt 4467 3720 L
4467 3720 mt 4371 3746 L
1 sg
51 56 -96 26 4467 3720 3 MP
PP
c9
4467 3720 mt 4371 3746 L
c8
4371 3746 mt 4422 3802 L
1 sg
-95 17 51 56 4390 4144 3 MP
PP
c8
4390 4144 mt 4441 4200 L
4441 4200 mt 4346 4217 L
1 sg
-96 19 51 55 4384 4015 3 MP
PP
c8
4384 4015 mt 4435 4070 L
4435 4070 mt 4339 4089 L
1 sg
51 55 -96 19 4435 4070 3 MP
PP
c8
4435 4070 mt 4339 4089 L
4339 4089 mt 4390 4144 L
1 sg
51 56 -95 21 4428 3938 3 MP
PP
c8
4428 3938 mt 4333 3959 L
4333 3959 mt 4384 4015 L
1 sg
-95 21 51 56 4377 3882 3 MP
PP
c8
4377 3882 mt 4428 3938 L
4428 3938 mt 4333 3959 L
1 sg
51 56 -96 24 4422 3802 3 MP
PP
c8
4422 3802 mt 4326 3826 L
4326 3826 mt 4377 3882 L
1 sg
-96 24 51 56 4371 3746 3 MP
PP
c8
4371 3746 mt 4422 3802 L
4422 3802 mt 4326 3826 L
1 sg
-96 27 51 57 4365 3605 3 MP
PP
c9
4365 3605 mt 4416 3662 L
4416 3662 mt 4320 3689 L
1 sg
51 57 -96 27 4416 3662 3 MP
PP
c9
4416 3662 mt 4320 3689 L
c8
4320 3689 mt 4371 3746 L
1 sg
52 55 -96 18 4390 4144 3 MP
PP
c8
4390 4144 mt 4294 4162 L
4294 4162 mt 4346 4217 L
1 sg
-96 18 51 55 4339 4089 3 MP
PP
c8
4339 4089 mt 4390 4144 L
4390 4144 mt 4294 4162 L
1 sg
-96 19 51 56 4333 3959 3 MP
PP
c8
4333 3959 mt 4384 4015 L
4384 4015 mt 4288 4034 L
1 sg
51 55 -96 19 4384 4015 3 MP
PP
c8
4384 4015 mt 4288 4034 L
4288 4034 mt 4339 4089 L
1 sg
-95 22 51 56 4326 3826 3 MP
PP
c8
4326 3826 mt 4377 3882 L
4377 3882 mt 4282 3904 L
1 sg
51 55 -95 22 4377 3882 3 MP
PP
c8
4377 3882 mt 4282 3904 L
4282 3904 mt 4333 3959 L
1 sg
51 56 -96 24 4371 3746 3 MP
PP
c8
4371 3746 mt 4275 3770 L
4275 3770 mt 4326 3826 L
1 sg
-96 24 51 57 4320 3689 3 MP
PP
c8
4320 3689 mt 4371 3746 L
4371 3746 mt 4275 3770 L
1 sg
-96 27 51 58 4314 3547 3 MP
PP
c9
4314 3547 mt 4365 3605 L
4365 3605 mt 4269 3632 L
1 sg
51 57 -96 27 4365 3605 3 MP
PP
c9
4365 3605 mt 4269 3632 L
c8
4269 3632 mt 4320 3689 L
1 sg
-96 16 52 55 4294 4162 3 MP
PP
c8
4294 4162 mt 4346 4217 L
4346 4217 mt 4250 4233 L
1 sg
-96 18 51 55 4288 4034 3 MP
PP
c8
4288 4034 mt 4339 4089 L
4339 4089 mt 4243 4107 L
1 sg
51 55 -96 18 4339 4089 3 MP
PP
c8
4339 4089 mt 4243 4107 L
4243 4107 mt 4294 4162 L
1 sg
51 55 -96 20 4333 3959 3 MP
PP
c8
4333 3959 mt 4237 3979 L
4237 3979 mt 4288 4034 L
1 sg
-96 20 51 55 4282 3904 3 MP
PP
c8
4282 3904 mt 4333 3959 L
4333 3959 mt 4237 3979 L
1 sg
-95 23 51 56 4275 3770 3 MP
PP
c8
4275 3770 mt 4326 3826 L
4326 3826 mt 4231 3849 L
1 sg
51 55 -95 23 4326 3826 3 MP
PP
c8
4326 3826 mt 4231 3849 L
4231 3849 mt 4282 3904 L
1 sg
-96 25 51 57 4269 3632 3 MP
PP
c8
4269 3632 mt 4320 3689 L
4320 3689 mt 4224 3714 L
1 sg
51 56 -96 25 4320 3689 3 MP
PP
c8
4320 3689 mt 4224 3714 L
4224 3714 mt 4275 3770 L
1 sg
-96 28 51 59 4263 3488 3 MP
PP
c9
4263 3488 mt 4314 3547 L
4314 3547 mt 4218 3575 L
1 sg
51 57 -96 28 4314 3547 3 MP
PP
c9
4314 3547 mt 4218 3575 L
4218 3575 mt 4269 3632 L
1 sg
51 56 -95 15 4294 4162 3 MP
PP
c8
4294 4162 mt 4199 4177 L
4199 4177 mt 4250 4233 L
1 sg
-95 15 51 55 4243 4107 3 MP
PP
c8
4243 4107 mt 4294 4162 L
4294 4162 mt 4199 4177 L
1 sg
51 55 -96 18 4288 4034 3 MP
PP
c8
4288 4034 mt 4192 4052 L
4192 4052 mt 4243 4107 L
1 sg
-96 18 51 55 4237 3979 3 MP
PP
c8
4237 3979 mt 4288 4034 L
4288 4034 mt 4192 4052 L
1 sg
51 55 -96 20 4282 3904 3 MP
PP
c8
4282 3904 mt 4186 3924 L
4186 3924 mt 4237 3979 L
1 sg
-96 20 51 55 4231 3849 3 MP
PP
c8
4231 3849 mt 4282 3904 L
4282 3904 mt 4186 3924 L
1 sg
51 56 -95 23 4275 3770 3 MP
PP
c8
4275 3770 mt 4180 3793 L
4180 3793 mt 4231 3849 L
1 sg
-95 23 51 56 4224 3714 3 MP
PP
c8
4224 3714 mt 4275 3770 L
4275 3770 mt 4180 3793 L
1 sg
51 56 -96 26 4269 3632 3 MP
PP
c8
4269 3632 mt 4173 3658 L
4173 3658 mt 4224 3714 L
1 sg
-96 26 51 57 4218 3575 3 MP
PP
c9
4218 3575 mt 4269 3632 L
c8
4269 3632 mt 4173 3658 L
1 sg
51 57 -96 30 4263 3488 3 MP
PP
c9
4263 3488 mt 4167 3518 L
4167 3518 mt 4218 3575 L
1 sg
-96 30 52 58 4211 3430 3 MP
PP
c9
4211 3430 mt 4263 3488 L
4263 3488 mt 4167 3518 L
1 sg
-96 14 51 56 4199 4177 3 MP
PP
c8
4199 4177 mt 4250 4233 L
4250 4233 mt 4154 4247 L
1 sg
-95 15 51 55 4192 4052 3 MP
PP
c8
4192 4052 mt 4243 4107 L
4243 4107 mt 4148 4122 L
1 sg
51 55 -95 15 4243 4107 3 MP
PP
c8
4243 4107 mt 4148 4122 L
4148 4122 mt 4199 4177 L
1 sg
-96 18 51 55 4186 3924 3 MP
PP
c8
4186 3924 mt 4237 3979 L
4237 3979 mt 4141 3997 L
1 sg
51 55 -96 18 4237 3979 3 MP
PP
c8
4237 3979 mt 4141 3997 L
4141 3997 mt 4192 4052 L
1 sg
-96 20 51 56 4180 3793 3 MP
PP
c8
4180 3793 mt 4231 3849 L
4231 3849 mt 4135 3869 L
1 sg
51 55 -96 20 4231 3849 3 MP
PP
c8
4231 3849 mt 4135 3869 L
4135 3869 mt 4186 3924 L
1 sg
-96 24 51 56 4173 3658 3 MP
PP
c8
4173 3658 mt 4224 3714 L
4224 3714 mt 4128 3738 L
1 sg
52 55 -96 24 4224 3714 3 MP
PP
c8
4224 3714 mt 4128 3738 L
4128 3738 mt 4180 3793 L
1 sg
51 56 -96 27 4218 3575 3 MP
PP
c9
4218 3575 mt 4122 3602 L
c8
4122 3602 mt 4173 3658 L
1 sg
-96 27 51 57 4167 3518 3 MP
PP
c9
4167 3518 mt 4218 3575 L
4218 3575 mt 4122 3602 L
1 sg
51 58 -95 30 4211 3430 3 MP
PP
c9
4211 3430 mt 4116 3460 L
4116 3460 mt 4167 3518 L
1 sg
-95 30 51 59 4160 3371 3 MP
PP
/c10 { 0.000000 0.000000 0.687500 sr} bdef
c10
4160 3371 mt 4211 3430 L
c9
4211 3430 mt 4116 3460 L
1 sg
-96 14 51 55 4148 4122 3 MP
PP
c8
4148 4122 mt 4199 4177 L
4199 4177 mt 4103 4191 L
1 sg
51 56 -96 14 4199 4177 3 MP
PP
c8
4199 4177 mt 4103 4191 L
4103 4191 mt 4154 4247 L
1 sg
-95 15 51 55 4141 3997 3 MP
PP
c8
4141 3997 mt 4192 4052 L
4192 4052 mt 4097 4067 L
1 sg
51 55 -95 15 4192 4052 3 MP
PP
c8
4192 4052 mt 4097 4067 L
4097 4067 mt 4148 4122 L
1 sg
51 55 -96 18 4186 3924 3 MP
PP
c8
4186 3924 mt 4090 3942 L
4090 3942 mt 4141 3997 L
1 sg
-96 18 51 55 4135 3869 3 MP
PP
c8
4135 3869 mt 4186 3924 L
4186 3924 mt 4090 3942 L
1 sg
51 55 -96 21 4180 3793 3 MP
PP
c8
4180 3793 mt 4084 3814 L
4084 3814 mt 4135 3869 L
1 sg
-96 21 52 55 4128 3738 3 MP
PP
c8
4128 3738 mt 4180 3793 L
4180 3793 mt 4084 3814 L
1 sg
51 56 -96 24 4173 3658 3 MP
PP
c8
4173 3658 mt 4077 3682 L
4077 3682 mt 4128 3738 L
1 sg
-96 24 51 56 4122 3602 3 MP
PP
c8
4122 3602 mt 4173 3658 L
4173 3658 mt 4077 3682 L
1 sg
-96 27 51 58 4116 3460 3 MP
PP
c9
4116 3460 mt 4167 3518 L
4167 3518 mt 4071 3545 L
1 sg
51 57 -96 27 4167 3518 3 MP
PP
c9
4167 3518 mt 4071 3545 L
c8
4071 3545 mt 4122 3602 L
1 sg
51 58 -95 31 4160 3371 3 MP
PP
c10
4160 3371 mt 4065 3402 L
c9
4065 3402 mt 4116 3460 L
1 sg
-95 31 51 60 4109 3311 3 MP
PP
c10
4109 3311 mt 4160 3371 L
4160 3371 mt 4065 3402 L
1 sg
-96 12 51 56 4103 4191 3 MP
PP
c8
4103 4191 mt 4154 4247 L
4154 4247 mt 4058 4259 L
1 sg
-96 14 51 55 4097 4067 3 MP
PP
c8
4097 4067 mt 4148 4122 L
4148 4122 mt 4052 4136 L
1 sg
51 55 -96 14 4148 4122 3 MP
PP
c8
4148 4122 mt 4052 4136 L
4052 4136 mt 4103 4191 L
1 sg
52 55 -96 15 4141 3997 3 MP
PP
c8
4141 3997 mt 4045 4012 L
4045 4012 mt 4097 4067 L
1 sg
-96 15 51 55 4090 3942 3 MP
PP
c8
4090 3942 mt 4141 3997 L
4141 3997 mt 4045 4012 L
1 sg
51 55 -96 18 4135 3869 3 MP
PP
c8
4135 3869 mt 4039 3887 L
4039 3887 mt 4090 3942 L
1 sg
-96 18 51 55 4084 3814 3 MP
PP
c8
4084 3814 mt 4135 3869 L
4135 3869 mt 4039 3887 L
1 sg
51 56 -95 20 4128 3738 3 MP
PP
c8
4128 3738 mt 4033 3758 L
4033 3758 mt 4084 3814 L
1 sg
-95 20 51 56 4077 3682 3 MP
PP
c8
4077 3682 mt 4128 3738 L
4128 3738 mt 4033 3758 L
1 sg
-96 24 51 57 4071 3545 3 MP
PP
c8
4071 3545 mt 4122 3602 L
4122 3602 mt 4026 3626 L
1 sg
51 56 -96 24 4122 3602 3 MP
PP
c8
4122 3602 mt 4026 3626 L
4026 3626 mt 4077 3682 L
1 sg
-96 28 51 58 4065 3402 3 MP
PP
c9
4065 3402 mt 4116 3460 L
4116 3460 mt 4020 3488 L
1 sg
51 57 -96 28 4116 3460 3 MP
PP
c9
4116 3460 mt 4020 3488 L
c8
4020 3488 mt 4071 3545 L
1 sg
-95 32 51 61 4058 3250 3 MP
PP
c10
4058 3250 mt 4109 3311 L
4109 3311 mt 4014 3343 L
1 sg
51 59 -95 32 4109 3311 3 MP
PP
c10
4109 3311 mt 4014 3343 L
c9
4014 3343 mt 4065 3402 L
1 sg
-96 13 51 55 4052 4136 3 MP
PP
c8
4052 4136 mt 4103 4191 L
4103 4191 mt 4007 4204 L
1 sg
51 55 -96 13 4103 4191 3 MP
PP
c8
4103 4191 mt 4007 4204 L
4007 4204 mt 4058 4259 L
1 sg
-96 14 52 55 4045 4012 3 MP
PP
c8
4045 4012 mt 4097 4067 L
4097 4067 mt 4001 4081 L
1 sg
51 55 -96 14 4097 4067 3 MP
PP
c8
4097 4067 mt 4001 4081 L
4001 4081 mt 4052 4136 L
1 sg
51 55 -96 15 4090 3942 3 MP
PP
c8
4090 3942 mt 3994 3957 L
3994 3957 mt 4045 4012 L
1 sg
-96 15 51 55 4039 3887 3 MP
PP
c8
4039 3887 mt 4090 3942 L
4090 3942 mt 3994 3957 L
1 sg
51 55 -96 18 4084 3814 3 MP
PP
c8
4084 3814 mt 3988 3832 L
3988 3832 mt 4039 3887 L
1 sg
-96 18 51 56 4033 3758 3 MP
PP
c8
4033 3758 mt 4084 3814 L
4084 3814 mt 3988 3832 L
1 sg
51 55 -95 21 4077 3682 3 MP
PP
c8
4077 3682 mt 3982 3703 L
3982 3703 mt 4033 3758 L
1 sg
-95 21 51 56 4026 3626 3 MP
PP
c8
4026 3626 mt 4077 3682 L
4077 3682 mt 3982 3703 L
1 sg
-96 25 51 57 4020 3488 3 MP
PP
c8
4020 3488 mt 4071 3545 L
4071 3545 mt 3975 3570 L
1 sg
51 56 -96 25 4071 3545 3 MP
PP
c8
4071 3545 mt 3975 3570 L
3975 3570 mt 4026 3626 L
1 sg
-96 29 51 59 4014 3343 3 MP
PP
c9
4014 3343 mt 4065 3402 L
4065 3402 mt 3969 3431 L
1 sg
51 57 -96 29 4065 3402 3 MP
PP
c9
4065 3402 mt 3969 3431 L
c8
3969 3431 mt 4020 3488 L
1 sg
-95 12 51 55 4007 4204 3 MP
PP
c8
4007 4204 mt 4058 4259 L
4058 4259 mt 3963 4271 L
1 sg
51 59 -95 34 4058 3250 3 MP
PP
c10
4058 3250 mt 3963 3284 L
c9
3963 3284 mt 4014 3343 L
1 sg
-95 34 51 62 4007 3188 3 MP
PP
c10
4007 3188 mt 4058 3250 L
4058 3250 mt 3963 3284 L
1 sg
51 56 -96 12 4052 4136 3 MP
PP
c8
4052 4136 mt 3956 4148 L
3956 4148 mt 4007 4204 L
1 sg
-96 12 51 55 4001 4081 3 MP
PP
c8
4001 4081 mt 4052 4136 L
4052 4136 mt 3956 4148 L
1 sg
51 56 -95 13 4045 4012 3 MP
PP
c8
4045 4012 mt 3950 4025 L
3950 4025 mt 4001 4081 L
1 sg
-95 13 51 55 3994 3957 3 MP
PP
c8
3994 3957 mt 4045 4012 L
4045 4012 mt 3950 4025 L
1 sg
-96 15 51 55 3988 3832 3 MP
PP
c8
3988 3832 mt 4039 3887 L
4039 3887 mt 3943 3902 L
1 sg
51 55 -96 15 4039 3887 3 MP
PP
c8
4039 3887 mt 3943 3902 L
3943 3902 mt 3994 3957 L
1 sg
-96 19 51 55 3982 3703 3 MP
PP
c8
3982 3703 mt 4033 3758 L
4033 3758 mt 3937 3777 L
1 sg
51 55 -96 19 4033 3758 3 MP
PP
c8
4033 3758 mt 3937 3777 L
3937 3777 mt 3988 3832 L
1 sg
-95 22 51 56 3975 3570 3 MP
PP
c8
3975 3570 mt 4026 3626 L
4026 3626 mt 3931 3648 L
1 sg
51 55 -95 22 4026 3626 3 MP
PP
c8
4026 3626 mt 3931 3648 L
3931 3648 mt 3982 3703 L
1 sg
51 55 -96 27 4020 3488 3 MP
PP
c8
4020 3488 mt 3924 3515 L
3924 3515 mt 3975 3570 L
1 sg
-96 27 51 57 3969 3431 3 MP
PP
c8
3969 3431 mt 4020 3488 L
4020 3488 mt 3924 3515 L
1 sg
51 57 -96 31 4014 3343 3 MP
PP
c9
4014 3343 mt 3918 3374 L
c8
3918 3374 mt 3969 3431 L
1 sg
-96 31 51 59 3963 3284 3 MP
PP
c9
3963 3284 mt 4014 3343 L
4014 3343 mt 3918 3374 L
1 sg
-96 11 51 56 3956 4148 3 MP
PP
c8
3956 4148 mt 4007 4204 L
4007 4204 mt 3911 4215 L
1 sg
52 56 -96 11 4007 4204 3 MP
PP
c8
4007 4204 mt 3911 4215 L
3911 4215 mt 3963 4271 L
1 sg
-96 36 51 62 3956 3126 3 MP
PP
/c11 { 0.000000 0.000000 0.750000 sr} bdef
c11
3956 3126 mt 4007 3188 L
c10
4007 3188 mt 3911 3224 L
1 sg
52 60 -96 36 4007 3188 3 MP
PP
c10
4007 3188 mt 3911 3224 L
c9
3911 3224 mt 3963 3284 L
gr

c9
0 sg
%%IncludeResource: font Helvetica
/Helvetica /WindowsLatin1Encoding 240 FMSR

4006 5032 mt 
(x [mm]) s
gs 899 389 5363 4228 MR c np
1 sg
-96 12 51 56 3950 4025 3 MP
PP
c8
3950 4025 mt 4001 4081 L
4001 4081 mt 3905 4093 L
1 sg
51 55 -96 12 4001 4081 3 MP
PP
c8
4001 4081 mt 3905 4093 L
3905 4093 mt 3956 4148 L
1 sg
51 55 -95 13 3994 3957 3 MP
PP
c8
3994 3957 mt 3899 3970 L
3899 3970 mt 3950 4025 L
1 sg
-95 13 51 55 3943 3902 3 MP
PP
c8
3943 3902 mt 3994 3957 L
3994 3957 mt 3899 3970 L
1 sg
-96 15 51 55 3937 3777 3 MP
PP
c8
3937 3777 mt 3988 3832 L
3988 3832 mt 3892 3847 L
1 sg
51 55 -96 15 3988 3832 3 MP
PP
c8
3988 3832 mt 3892 3847 L
3892 3847 mt 3943 3902 L
1 sg
-96 19 51 55 3931 3648 3 MP
PP
c8
3931 3648 mt 3982 3703 L
3982 3703 mt 3886 3722 L
1 sg
51 55 -96 19 3982 3703 3 MP
PP
c8
3982 3703 mt 3886 3722 L
3886 3722 mt 3937 3777 L
1 sg
51 55 -95 23 3975 3570 3 MP
PP
c8
3975 3570 mt 3880 3593 L
3880 3593 mt 3931 3648 L
1 sg
-95 23 51 55 3924 3515 3 MP
PP
c8
3924 3515 mt 3975 3570 L
3975 3570 mt 3880 3593 L
1 sg
51 56 -96 28 3969 3431 3 MP
PP
c8
3969 3431 mt 3873 3459 L
3873 3459 mt 3924 3515 L
1 sg
-96 28 51 57 3918 3374 3 MP
PP
c8
3918 3374 mt 3969 3431 L
3969 3431 mt 3873 3459 L
1 sg
-96 32 52 60 3911 3224 3 MP
PP
c9
3911 3224 mt 3963 3284 L
3963 3284 mt 3867 3316 L
1 sg
-96 10 52 56 3911 4215 3 MP
PP
c8
3911 4215 mt 3963 4271 L
3963 4271 mt 3867 4281 L
1 sg
51 58 -96 32 3963 3284 3 MP
PP
c9
3963 3284 mt 3867 3316 L
3867 3316 mt 3918 3374 L
1 sg
-96 11 51 55 3905 4093 3 MP
PP
c8
3905 4093 mt 3956 4148 L
3956 4148 mt 3860 4159 L
1 sg
51 61 -96 37 3956 3126 3 MP
PP
c11
3956 3126 mt 3860 3163 L
c10
3860 3163 mt 3911 3224 L
1 sg
-96 37 51 64 3905 3062 3 MP
PP
c11
3905 3062 mt 3956 3126 L
3956 3126 mt 3860 3163 L
1 sg
51 56 -96 11 3956 4148 3 MP
PP
c8
3956 4148 mt 3860 4159 L
3860 4159 mt 3911 4215 L
1 sg
-96 12 51 55 3899 3970 3 MP
PP
c8
3899 3970 mt 3950 4025 L
3950 4025 mt 3854 4037 L
1 sg
51 56 -96 12 3950 4025 3 MP
PP
c8
3950 4025 mt 3854 4037 L
3854 4037 mt 3905 4093 L
1 sg
-95 13 51 55 3892 3847 3 MP
PP
c8
3892 3847 mt 3943 3902 L
3943 3902 mt 3848 3915 L
1 sg
51 55 -95 13 3943 3902 3 MP
PP
c8
3943 3902 mt 3848 3915 L
3848 3915 mt 3899 3970 L
1 sg
51 55 -96 15 3937 3777 3 MP
PP
c8
3937 3777 mt 3841 3792 L
3841 3792 mt 3892 3847 L
1 sg
-96 15 51 55 3886 3722 3 MP
PP
c8
3886 3722 mt 3937 3777 L
3937 3777 mt 3841 3792 L
1 sg
51 56 -96 18 3931 3648 3 MP
PP
c8
3931 3648 mt 3835 3666 L
3835 3666 mt 3886 3722 L
1 sg
-96 18 51 55 3880 3593 3 MP
PP
c8
3880 3593 mt 3931 3648 L
3931 3648 mt 3835 3666 L
1 sg
-96 23 51 56 3873 3459 3 MP
PP
c8
3873 3459 mt 3924 3515 L
3924 3515 mt 3828 3538 L
1 sg
52 55 -96 23 3924 3515 3 MP
PP
c8
3924 3515 mt 3828 3538 L
3828 3538 mt 3880 3593 L
1 sg
-96 28 51 58 3867 3316 3 MP
PP
c9
3867 3316 mt 3918 3374 L
c8
3918 3374 mt 3822 3402 L
1 sg
51 57 -96 28 3918 3374 3 MP
PP
c8
3918 3374 mt 3822 3402 L
3822 3402 mt 3873 3459 L
1 sg
-95 10 51 56 3860 4159 3 MP
PP
c8
3860 4159 mt 3911 4215 L
3911 4215 mt 3816 4225 L
1 sg
-95 34 51 61 3860 3163 3 MP
PP
c10
3860 3163 mt 3911 3224 L
c9
3911 3224 mt 3816 3258 L
1 sg
51 58 -95 34 3911 3224 3 MP
PP
c9
3911 3224 mt 3816 3258 L
3816 3258 mt 3867 3316 L
1 sg
51 56 -95 10 3911 4215 3 MP
PP
c8
3911 4215 mt 3816 4225 L
3816 4225 mt 3867 4281 L
1 sg
51 56 -96 10 3905 4093 3 MP
PP
c8
3905 4093 mt 3809 4103 L
3809 4103 mt 3860 4159 L
1 sg
-96 39 51 66 3854 2996 3 MP
PP
c11
3854 2996 mt 3905 3062 L
3905 3062 mt 3809 3101 L
1 sg
-96 10 51 56 3854 4037 3 MP
PP
c8
3854 4037 mt 3905 4093 L
3905 4093 mt 3809 4103 L
1 sg
51 62 -96 39 3905 3062 3 MP
PP
c11
3905 3062 mt 3809 3101 L
c10
3809 3101 mt 3860 3163 L
1 sg
51 56 -96 11 3899 3970 3 MP
PP
c8
3899 3970 mt 3803 3981 L
3803 3981 mt 3854 4037 L
1 sg
-96 11 51 55 3848 3915 3 MP
PP
c8
3848 3915 mt 3899 3970 L
3899 3970 mt 3803 3981 L
1 sg
51 56 -95 12 3892 3847 3 MP
PP
c8
3892 3847 mt 3797 3859 L
3797 3859 mt 3848 3915 L
1 sg
-95 12 51 55 3841 3792 3 MP
PP
c8
3841 3792 mt 3892 3847 L
3892 3847 mt 3797 3859 L
1 sg
51 56 -96 14 3886 3722 3 MP
PP
c8
3886 3722 mt 3790 3736 L
3790 3736 mt 3841 3792 L
1 sg
-96 14 51 56 3835 3666 3 MP
PP
c8
3835 3666 mt 3886 3722 L
3886 3722 mt 3790 3736 L
1 sg
-96 18 52 55 3828 3538 3 MP
PP
c8
3828 3538 mt 3880 3593 L
3880 3593 mt 3784 3611 L
1 sg
51 55 -96 18 3880 3593 3 MP
PP
c8
3880 3593 mt 3784 3611 L
3784 3611 mt 3835 3666 L
1 sg
51 56 -96 23 3873 3459 3 MP
PP
c8
3873 3459 mt 3777 3482 L
3777 3482 mt 3828 3538 L
1 sg
-96 23 51 57 3822 3402 3 MP
PP
c8
3822 3402 mt 3873 3459 L
3873 3459 mt 3777 3482 L
1 sg
51 56 -96 30 3867 3316 3 MP
PP
c9
3867 3316 mt 3771 3346 L
c8
3771 3346 mt 3822 3402 L
1 sg
-96 30 51 58 3816 3258 3 MP
PP
c9
3816 3258 mt 3867 3316 L
3867 3316 mt 3771 3346 L
1 sg
51 57 -95 9 3860 4159 3 MP
PP
c8
3860 4159 mt 3765 4168 L
3765 4168 mt 3816 4225 L
1 sg
51 59 -95 36 3860 3163 3 MP
PP
c10
3860 3163 mt 3765 3199 L
c9
3765 3199 mt 3816 3258 L
1 sg
-95 36 51 62 3809 3101 3 MP
PP
c10
3809 3101 mt 3860 3163 L
3860 3163 mt 3765 3199 L
1 sg
-95 9 51 56 3809 4103 3 MP
PP
c8
3809 4103 mt 3860 4159 L
3860 4159 mt 3765 4168 L
1 sg
-96 10 51 56 3803 3981 3 MP
PP
c8
3803 3981 mt 3854 4037 L
3854 4037 mt 3758 4047 L
1 sg
-96 42 51 69 3803 2927 3 MP
PP
/c12 { 0.000000 0.000000 0.812500 sr} bdef
c12
3803 2927 mt 3854 2996 L
c11
3854 2996 mt 3758 3038 L
1 sg
51 56 -96 10 3854 4037 3 MP
PP
c8
3854 4037 mt 3758 4047 L
3758 4047 mt 3809 4103 L
1 sg
51 63 -96 42 3854 2996 3 MP
PP
c11
3854 2996 mt 3758 3038 L
c10
3758 3038 mt 3809 3101 L
1 sg
-96 10 51 56 3797 3859 3 MP
PP
c8
3797 3859 mt 3848 3915 L
3848 3915 mt 3752 3925 L
1 sg
51 56 -96 10 3848 3915 3 MP
PP
c8
3848 3915 mt 3752 3925 L
3752 3925 mt 3803 3981 L
1 sg
-96 12 51 56 3790 3736 3 MP
PP
c8
3790 3736 mt 3841 3792 L
3841 3792 mt 3745 3804 L
1 sg
52 55 -96 12 3841 3792 3 MP
PP
c8
3841 3792 mt 3745 3804 L
3745 3804 mt 3797 3859 L
1 sg
51 55 -96 15 3835 3666 3 MP
PP
c8
3835 3666 mt 3739 3681 L
3739 3681 mt 3790 3736 L
1 sg
-96 15 51 55 3784 3611 3 MP
PP
c8
3784 3611 mt 3835 3666 L
3835 3666 mt 3739 3681 L
1 sg
51 55 -95 18 3828 3538 3 MP
PP
c8
3828 3538 mt 3733 3556 L
3733 3556 mt 3784 3611 L
1 sg
-95 18 51 56 3777 3482 3 MP
PP
c8
3777 3482 mt 3828 3538 L
3828 3538 mt 3733 3556 L
1 sg
-96 25 51 56 3771 3346 3 MP
PP
c8
3771 3346 mt 3822 3402 L
3822 3402 mt 3726 3427 L
1 sg
51 55 -96 25 3822 3402 3 MP
PP
c8
3822 3402 mt 3726 3427 L
3726 3427 mt 3777 3482 L
1 sg
-96 31 51 59 3765 3199 3 MP
PP
c9
3765 3199 mt 3816 3258 L
3816 3258 mt 3720 3289 L
1 sg
51 57 -96 31 3816 3258 3 MP
PP
c9
3816 3258 mt 3720 3289 L
c8
3720 3289 mt 3771 3346 L
1 sg
51 59 -95 39 3809 3101 3 MP
PP
c10
3809 3101 mt 3714 3140 L
c9
3714 3140 mt 3765 3199 L
1 sg
-95 39 51 63 3758 3038 3 MP
PP
c10
3758 3038 mt 3809 3101 L
3809 3101 mt 3714 3140 L
1 sg
51 56 -95 9 3809 4103 3 MP
PP
c8
3809 4103 mt 3714 4112 L
3714 4112 mt 3765 4168 L
1 sg
-95 9 51 56 3758 4047 3 MP
PP
c8
3758 4047 mt 3809 4103 L
3809 4103 mt 3714 4112 L
1 sg
-96 46 51 71 3752 2856 3 MP
PP
/c13 { 0.000000 0.000000 0.875000 sr} bdef
c13
3752 2856 mt 3803 2927 L
c12
3803 2927 mt 3707 2973 L
1 sg
51 65 -96 46 3803 2927 3 MP
PP
c12
3803 2927 mt 3707 2973 L
c11
3707 2973 mt 3758 3038 L
1 sg
-96 10 51 56 3752 3925 3 MP
PP
c8
3752 3925 mt 3803 3981 L
3803 3981 mt 3707 3991 L
1 sg
51 56 -96 10 3803 3981 3 MP
PP
c8
3803 3981 mt 3707 3991 L
3707 3991 mt 3758 4047 L
1 sg
-96 10 52 55 3745 3804 3 MP
PP
c8
3745 3804 mt 3797 3859 L
3797 3859 mt 3701 3869 L
1 sg
51 56 -96 10 3797 3859 3 MP
PP
c8
3797 3859 mt 3701 3869 L
3701 3869 mt 3752 3925 L
1 sg
51 56 -96 12 3790 3736 3 MP
PP
c8
3790 3736 mt 3694 3748 L
3694 3748 mt 3745 3804 L
1 sg
-96 12 51 55 3739 3681 3 MP
PP
c8
3739 3681 mt 3790 3736 L
3790 3736 mt 3694 3748 L
1 sg
-96 15 51 55 3733 3556 3 MP
PP
c8
3733 3556 mt 3784 3611 L
3784 3611 mt 3688 3626 L
1 sg
51 55 -96 15 3784 3611 3 MP
PP
c8
3784 3611 mt 3688 3626 L
3688 3626 mt 3739 3681 L
1 sg
51 55 -95 19 3777 3482 3 MP
PP
c8
3777 3482 mt 3682 3501 L
3682 3501 mt 3733 3556 L
1 sg
-95 19 51 55 3726 3427 3 MP
PP
c8
3726 3427 mt 3777 3482 L
3777 3482 mt 3682 3501 L
1 sg
-96 25 51 57 3720 3289 3 MP
PP
c8
3720 3289 mt 3771 3346 L
3771 3346 mt 3675 3371 L
1 sg
51 56 -96 25 3771 3346 3 MP
PP
c8
3771 3346 mt 3675 3371 L
3675 3371 mt 3726 3427 L
1 sg
51 57 -96 33 3765 3199 3 MP
PP
c9
3765 3199 mt 3669 3232 L
c8
3669 3232 mt 3720 3289 L
1 sg
-96 33 51 59 3714 3140 3 MP
PP
c9
3714 3140 mt 3765 3199 L
3765 3199 mt 3669 3232 L
1 sg
52 61 -96 41 3758 3038 3 MP
PP
c10
3758 3038 mt 3662 3079 L
c9
3662 3079 mt 3714 3140 L
1 sg
52 57 -96 8 3758 4047 3 MP
PP
c8
3758 4047 mt 3662 4055 L
3662 4055 mt 3714 4112 L
1 sg
-96 41 51 65 3707 2973 3 MP
PP
c11
3707 2973 mt 3758 3038 L
c10
3758 3038 mt 3662 3079 L
1 sg
-96 8 51 56 3707 3991 3 MP
PP
c8
3707 3991 mt 3758 4047 L
3758 4047 mt 3662 4055 L
1 sg
-96 49 51 76 3701 2780 3 MP
PP
c13
3701 2780 mt 3752 2856 L
3752 2856 mt 3656 2905 L
1 sg
51 68 -96 49 3752 2856 3 MP
PP
c13
3752 2856 mt 3656 2905 L
c11
3656 2905 mt 3707 2973 L
1 sg
-96 9 51 56 3701 3869 3 MP
PP
c8
3701 3869 mt 3752 3925 L
3752 3925 mt 3656 3934 L
1 sg
51 57 -96 9 3752 3925 3 MP
PP
c8
3752 3925 mt 3656 3934 L
3656 3934 mt 3707 3991 L
1 sg
51 56 -95 9 3745 3804 3 MP
PP
c8
3745 3804 mt 3650 3813 L
3650 3813 mt 3701 3869 L
1 sg
-95 9 51 56 3694 3748 3 MP
PP
c8
3694 3748 mt 3745 3804 L
3745 3804 mt 3650 3813 L
1 sg
-96 11 51 55 3688 3626 3 MP
PP
c8
3688 3626 mt 3739 3681 L
3739 3681 mt 3643 3692 L
1 sg
51 56 -96 11 3739 3681 3 MP
PP
c8
3739 3681 mt 3643 3692 L
3643 3692 mt 3694 3748 L
1 sg
-96 15 51 55 3682 3501 3 MP
PP
c8
3682 3501 mt 3733 3556 L
3733 3556 mt 3637 3571 L
1 sg
51 55 -96 15 3733 3556 3 MP
PP
c8
3733 3556 mt 3637 3571 L
3637 3571 mt 3688 3626 L
1 sg
-95 19 51 56 3675 3371 3 MP
PP
c8
3675 3371 mt 3726 3427 L
3726 3427 mt 3631 3446 L
1 sg
51 55 -95 19 3726 3427 3 MP
PP
c8
3726 3427 mt 3631 3446 L
3631 3446 mt 3682 3501 L
1 sg
-96 27 51 57 3669 3232 3 MP
PP
c8
3669 3232 mt 3720 3289 L
3720 3289 mt 3624 3316 L
1 sg
51 55 -96 27 3720 3289 3 MP
PP
c8
3720 3289 mt 3624 3316 L
3624 3316 mt 3675 3371 L
1 sg
-96 35 52 61 3662 3079 3 MP
PP
c9
3662 3079 mt 3714 3140 L
3714 3140 mt 3618 3175 L
1 sg
51 57 -96 35 3714 3140 3 MP
PP
c9
3714 3140 mt 3618 3175 L
c8
3618 3175 mt 3669 3232 L
1 sg
51 62 -96 44 3707 2973 3 MP
PP
c11
3707 2973 mt 3611 3017 L
c10
3611 3017 mt 3662 3079 L
1 sg
-96 44 51 68 3656 2905 3 MP
PP
c11
3656 2905 mt 3707 2973 L
3707 2973 mt 3611 3017 L
1 sg
-96 8 51 57 3656 3934 3 MP
PP
c8
3656 3934 mt 3707 3991 L
3707 3991 mt 3611 3999 L
1 sg
51 56 -96 8 3707 3991 3 MP
PP
c8
3707 3991 mt 3611 3999 L
c9
3611 3999 mt 3662 4055 L
1 sg
51 71 -96 54 3701 2780 3 MP
PP
c13
3701 2780 mt 3605 2834 L
c12
3605 2834 mt 3656 2905 L
1 sg
-96 54 51 83 3650 2697 3 MP
PP
/c14 { 0.000000 0.000000 1.000000 sr} bdef
c14
3650 2697 mt 3701 2780 L
c13
3701 2780 mt 3605 2834 L
1 sg
51 56 -96 9 3701 3869 3 MP
PP
c8
3701 3869 mt 3605 3878 L
3605 3878 mt 3656 3934 L
1 sg
-96 9 51 56 3650 3813 3 MP
PP
c8
3650 3813 mt 3701 3869 L
3701 3869 mt 3605 3878 L
1 sg
51 56 -95 9 3694 3748 3 MP
PP
c8
3694 3748 mt 3599 3757 L
3599 3757 mt 3650 3813 L
1 sg
-95 9 51 56 3643 3692 3 MP
PP
c8
3643 3692 mt 3694 3748 L
3694 3748 mt 3599 3757 L
1 sg
-96 11 51 55 3637 3571 3 MP
PP
c8
3637 3571 mt 3688 3626 L
3688 3626 mt 3592 3637 L
1 sg
51 55 -96 11 3688 3626 3 MP
PP
c8
3688 3626 mt 3592 3637 L
3592 3637 mt 3643 3692 L
1 sg
51 56 -96 14 3682 3501 3 MP
PP
c8
3682 3501 mt 3586 3515 L
3586 3515 mt 3637 3571 L
1 sg
-96 14 51 55 3631 3446 3 MP
PP
c8
3631 3446 mt 3682 3501 L
3682 3501 mt 3586 3515 L
1 sg
51 55 -95 20 3675 3371 3 MP
PP
c8
3675 3371 mt 3580 3391 L
3580 3391 mt 3631 3446 L
1 sg
-95 20 51 55 3624 3316 3 MP
PP
c8
3624 3316 mt 3675 3371 L
3675 3371 mt 3580 3391 L
1 sg
-96 28 51 57 3618 3175 3 MP
PP
c8
3618 3175 mt 3669 3232 L
3669 3232 mt 3573 3260 L
1 sg
51 56 -96 28 3669 3232 3 MP
PP
c8
3669 3232 mt 3573 3260 L
3573 3260 mt 3624 3316 L
1 sg
51 58 -95 38 3662 3079 3 MP
PP
c9
3662 3079 mt 3567 3117 L
c8
3567 3117 mt 3618 3175 L
1 sg
-95 38 51 62 3611 3017 3 MP
PP
c10
3611 3017 mt 3662 3079 L
c9
3662 3079 mt 3567 3117 L
1 sg
51 64 -96 48 3656 2905 3 MP
PP
c11
3656 2905 mt 3560 2953 L
c10
3560 2953 mt 3611 3017 L
1 sg
-96 48 51 71 3605 2834 3 MP
PP
c12
3605 2834 mt 3656 2905 L
c11
3656 2905 mt 3560 2953 L
1 sg
-96 8 51 56 3605 3878 3 MP
PP
c8
3605 3878 mt 3656 3934 L
3656 3934 mt 3560 3942 L
1 sg
51 57 -96 8 3656 3934 3 MP
PP
c8
3656 3934 mt 3560 3942 L
c9
3560 3942 mt 3611 3999 L
1 sg
51 77 -96 60 3650 2697 3 MP
PP
c14
3650 2697 mt 3554 2757 L
c13
3554 2757 mt 3605 2834 L
1 sg
-96 60 51 92 3599 2605 3 MP
PP
/c15 { 0.000000 0.062500 1.000000 sr} bdef
c15
3599 2605 mt 3650 2697 L
c14
3650 2697 mt 3554 2757 L
1 sg
51 57 -96 8 3650 3813 3 MP
PP
c8
3650 3813 mt 3554 3821 L
3554 3821 mt 3605 3878 L
1 sg
-96 8 51 56 3599 3757 3 MP
PP
c8
3599 3757 mt 3650 3813 L
3650 3813 mt 3554 3821 L
1 sg
51 56 -95 9 3643 3692 3 MP
PP
c8
3643 3692 mt 3548 3701 L
3548 3701 mt 3599 3757 L
1 sg
-95 9 51 55 3592 3637 3 MP
PP
c8
3592 3637 mt 3643 3692 L
3643 3692 mt 3548 3701 L
1 sg
51 56 -96 10 3637 3571 3 MP
PP
c8
3637 3571 mt 3541 3581 L
3541 3581 mt 3592 3637 L
1 sg
-96 10 51 56 3586 3515 3 MP
PP
c8
3586 3515 mt 3637 3571 L
3637 3571 mt 3541 3581 L
1 sg
-96 14 51 55 3580 3391 3 MP
PP
c8
3580 3391 mt 3631 3446 L
3631 3446 mt 3535 3460 L
1 sg
51 55 -96 14 3631 3446 3 MP
PP
c8
3631 3446 mt 3535 3460 L
3535 3460 mt 3586 3515 L
1 sg
-96 20 51 56 3573 3260 3 MP
PP
c8
3573 3260 mt 3624 3316 L
3624 3316 mt 3528 3336 L
1 sg
52 55 -96 20 3624 3316 3 MP
PP
c8
3624 3316 mt 3528 3336 L
3528 3336 mt 3580 3391 L
1 sg
51 55 -96 30 3618 3175 3 MP
PP
c8
3618 3175 mt 3522 3205 L
3522 3205 mt 3573 3260 L
1 sg
-96 30 51 58 3567 3117 3 MP
PP
c8
3567 3117 mt 3618 3175 L
3618 3175 mt 3522 3205 L
1 sg
-95 41 51 64 3560 2953 3 MP
PP
c10
3560 2953 mt 3611 3017 L
3611 3017 mt 3516 3058 L
1 sg
51 59 -95 41 3611 3017 3 MP
PP
c10
3611 3017 mt 3516 3058 L
c9
3516 3058 mt 3567 3117 L
1 sg
51 67 -96 52 3605 2834 3 MP
PP
c12
3605 2834 mt 3509 2886 L
c10
3509 2886 mt 3560 2953 L
1 sg
-96 52 51 77 3554 2757 3 MP
PP
c13
3554 2757 mt 3605 2834 L
c12
3605 2834 mt 3509 2886 L
1 sg
51 57 -96 7 3605 3878 3 MP
PP
c8
3605 3878 mt 3509 3885 L
c9
3509 3885 mt 3560 3942 L
1 sg
-96 7 51 57 3554 3821 3 MP
PP
c8
3554 3821 mt 3605 3878 L
3605 3878 mt 3509 3885 L
1 sg
-96 68 51 107 3548 2498 3 MP
PP
/c16 { 0.000000 0.187500 1.000000 sr} bdef
c16
3548 2498 mt 3599 2605 L
c15
3599 2605 mt 3503 2673 L
1 sg
51 84 -96 68 3599 2605 3 MP
PP
c15
3599 2605 mt 3503 2673 L
/c17 { 0.000000 0.000000 0.937500 sr} bdef
c17
3503 2673 mt 3554 2757 L
1 sg
-96 7 51 56 3548 3701 3 MP
PP
c8
3548 3701 mt 3599 3757 L
3599 3757 mt 3503 3764 L
1 sg
51 57 -96 7 3599 3757 3 MP
PP
c8
3599 3757 mt 3503 3764 L
3503 3764 mt 3554 3821 L
1 sg
51 57 -95 7 3592 3637 3 MP
PP
c8
3592 3637 mt 3497 3644 L
3497 3644 mt 3548 3701 L
1 sg
-95 7 51 56 3541 3581 3 MP
PP
c8
3541 3581 mt 3592 3637 L
3592 3637 mt 3497 3644 L
1 sg
-96 10 51 55 3535 3460 3 MP
PP
c8
3535 3460 mt 3586 3515 L
3586 3515 mt 3490 3525 L
1 sg
51 56 -96 10 3586 3515 3 MP
PP
c8
3586 3515 mt 3490 3525 L
3490 3525 mt 3541 3581 L
1 sg
51 55 -96 14 3580 3391 3 MP
PP
c8
3580 3391 mt 3484 3405 L
3484 3405 mt 3535 3460 L
1 sg
-96 14 52 55 3528 3336 3 MP
PP
c8
3528 3336 mt 3580 3391 L
3580 3391 mt 3484 3405 L
1 sg
51 55 -96 21 3573 3260 3 MP
PP
c8
3573 3260 mt 3477 3281 L
3477 3281 mt 3528 3336 L
1 sg
-96 21 51 55 3522 3205 3 MP
PP
c8
3522 3205 mt 3573 3260 L
3573 3260 mt 3477 3281 L
1 sg
-96 32 51 59 3516 3058 3 MP
PP
c9
3516 3058 mt 3567 3117 L
c8
3567 3117 mt 3471 3149 L
1 sg
51 56 -96 32 3567 3117 3 MP
PP
c8
3567 3117 mt 3471 3149 L
3471 3149 mt 3522 3205 L
1 sg
-95 45 51 67 3509 2886 3 MP
PP
c10
3509 2886 mt 3560 2953 L
3560 2953 mt 3465 2998 L
1 sg
51 60 -95 45 3560 2953 3 MP
PP
c10
3560 2953 mt 3465 2998 L
c9
3465 2998 mt 3516 3058 L
1 sg
51 70 -96 59 3554 2757 3 MP
PP
c13
3554 2757 mt 3458 2816 L
c11
3458 2816 mt 3509 2886 L
1 sg
-96 59 51 84 3503 2673 3 MP
PP
c17
3503 2673 mt 3554 2757 L
c13
3554 2757 mt 3458 2816 L
1 sg
51 58 -96 6 3554 3821 3 MP
PP
c8
3554 3821 mt 3458 3827 L
c9
3458 3827 mt 3509 3885 L
1 sg
-96 6 51 57 3503 3764 3 MP
PP
c8
3503 3764 mt 3554 3821 L
3554 3821 mt 3458 3827 L
1 sg
51 96 -96 79 3548 2498 3 MP
PP
c16
3548 2498 mt 3452 2577 L
c15
3452 2577 mt 3503 2673 L
1 sg
-96 79 51 134 3497 2364 3 MP
PP
/c18 { 0.000000 0.437500 1.000000 sr} bdef
c18
3497 2364 mt 3548 2498 L
c16
3548 2498 mt 3452 2577 L
1 sg
51 57 -96 6 3548 3701 3 MP
PP
c8
3548 3701 mt 3452 3707 L
c9
3452 3707 mt 3503 3764 L
1 sg
-96 6 51 57 3497 3644 3 MP
PP
c8
3497 3644 mt 3548 3701 L
3548 3701 mt 3452 3707 L
1 sg
-96 6 51 56 3490 3525 3 MP
PP
c8
3490 3525 mt 3541 3581 L
3541 3581 mt 3445 3587 L
1 sg
52 57 -96 6 3541 3581 3 MP
PP
c8
3541 3581 mt 3445 3587 L
3445 3587 mt 3497 3644 L
1 sg
-96 8 51 55 3484 3405 3 MP
PP
c8
3484 3405 mt 3535 3460 L
3535 3460 mt 3439 3468 L
1 sg
51 57 -96 8 3535 3460 3 MP
PP
c8
3535 3460 mt 3439 3468 L
3439 3468 mt 3490 3525 L
1 sg
-95 13 51 55 3477 3281 3 MP
PP
c8
3477 3281 mt 3528 3336 L
3528 3336 mt 3433 3349 L
1 sg
51 56 -95 13 3528 3336 3 MP
PP
c8
3528 3336 mt 3433 3349 L
3433 3349 mt 3484 3405 L
1 sg
51 55 -96 21 3522 3205 3 MP
PP
c8
3522 3205 mt 3426 3226 L
3426 3226 mt 3477 3281 L
1 sg
-96 21 51 56 3471 3149 3 MP
PP
c8
3471 3149 mt 3522 3205 L
3522 3205 mt 3426 3226 L
1 sg
-96 34 51 60 3465 2998 3 MP
PP
c9
3465 2998 mt 3516 3058 L
3516 3058 mt 3420 3092 L
1 sg
51 57 -96 34 3516 3058 3 MP
PP
c9
3516 3058 mt 3420 3092 L
c8
3420 3092 mt 3471 3149 L
1 sg
51 62 -95 50 3509 2886 3 MP
PP
c10
3509 2886 mt 3414 2936 L
c9
3414 2936 mt 3465 2998 L
1 sg
-95 50 51 70 3458 2816 3 MP
PP
c11
3458 2816 mt 3509 2886 L
c10
3509 2886 mt 3414 2936 L
1 sg
51 76 -96 67 3503 2673 3 MP
PP
c17
3503 2673 mt 3407 2740 L
c12
3407 2740 mt 3458 2816 L
1 sg
-96 67 51 96 3452 2577 3 MP
PP
c15
3452 2577 mt 3503 2673 L
c17
3503 2673 mt 3407 2740 L
1 sg
51 57 -96 6 3503 3764 3 MP
PP
c8
3503 3764 mt 3407 3770 L
c9
3407 3770 mt 3458 3827 L
1 sg
-96 6 51 57 3452 3707 3 MP
PP
c9
3452 3707 mt 3503 3764 L
c8
3503 3764 mt 3407 3770 L
1 sg
51 117 -96 96 3497 2364 3 MP
PP
c18
3497 2364 mt 3401 2460 L
c16
3401 2460 mt 3452 2577 L
1 sg
-96 96 52 187 3445 2177 3 MP
PP
/c19 { 0.000000 0.750000 1.000000 sr} bdef
c19
3445 2177 mt 3497 2364 L
c18
3497 2364 mt 3401 2460 L
1 sg
-96 6 52 57 3445 3587 3 MP
PP
c8
3445 3587 mt 3497 3644 L
3497 3644 mt 3401 3650 L
1 sg
51 57 -96 6 3497 3644 3 MP
PP
c8
3497 3644 mt 3401 3650 L
c9
3401 3650 mt 3452 3707 L
1 sg
-96 5 51 57 3439 3468 3 MP
PP
c8
3439 3468 mt 3490 3525 L
3490 3525 mt 3394 3530 L
1 sg
51 57 -96 5 3490 3525 3 MP
PP
c8
3490 3525 mt 3394 3530 L
3394 3530 mt 3445 3587 L
1 sg
-96 7 51 56 3433 3349 3 MP
PP
c8
3433 3349 mt 3484 3405 L
3484 3405 mt 3388 3412 L
1 sg
51 56 -96 7 3484 3405 3 MP
PP
c8
3484 3405 mt 3388 3412 L
3388 3412 mt 3439 3468 L
1 sg
51 56 -95 12 3477 3281 3 MP
PP
c8
3477 3281 mt 3382 3293 L
3382 3293 mt 3433 3349 L
1 sg
-95 12 51 55 3426 3226 3 MP
PP
c8
3426 3226 mt 3477 3281 L
3477 3281 mt 3382 3293 L
1 sg
-96 22 51 57 3420 3092 3 MP
PP
c8
3420 3092 mt 3471 3149 L
3471 3149 mt 3375 3171 L
1 sg
51 55 -96 22 3471 3149 3 MP
PP
c8
3471 3149 mt 3375 3171 L
3375 3171 mt 3426 3226 L
1 sg
51 56 -96 38 3465 2998 3 MP
PP
c9
3465 2998 mt 3369 3036 L
c8
3369 3036 mt 3420 3092 L
1 sg
-96 38 51 62 3414 2936 3 MP
PP
c9
3414 2936 mt 3465 2998 L
3465 2998 mt 3369 3036 L
1 sg
52 64 -96 56 3458 2816 3 MP
PP
c11
3458 2816 mt 3362 2872 L
c9
3362 2872 mt 3414 2936 L
1 sg
-96 56 51 76 3407 2740 3 MP
PP
c12
3407 2740 mt 3458 2816 L
c11
3458 2816 mt 3362 2872 L
1 sg
-96 78 51 117 3401 2460 3 MP
PP
c16
3401 2460 mt 3452 2577 L
c15
3452 2577 mt 3356 2655 L
1 sg
51 85 -96 78 3452 2577 3 MP
PP
c15
3452 2577 mt 3356 2655 L
c13
3356 2655 mt 3407 2740 L
1 sg
51 58 -96 5 3452 3707 3 MP
PP
c9
3452 3707 mt 3356 3712 L
3356 3712 mt 3407 3770 L
1 sg
-96 5 51 57 3401 3650 3 MP
PP
c9
3401 3650 mt 3452 3707 L
3452 3707 mt 3356 3712 L
1 sg
-95 122 51 322 3394 1855 3 MP
PP
/c20 { 0.437500 1.000000 0.562500 sr} bdef
c20
3394 1855 mt 3445 2177 L
c19
3445 2177 mt 3350 2299 L
1 sg
51 161 -95 122 3445 2177 3 MP
PP
c19
3445 2177 mt 3350 2299 L
/c21 { 0.000000 0.500000 1.000000 sr} bdef
c21
3350 2299 mt 3401 2460 L
1 sg
-95 5 51 57 3394 3530 3 MP
PP
c8
3394 3530 mt 3445 3587 L
3445 3587 mt 3350 3592 L
1 sg
51 58 -95 5 3445 3587 3 MP
PP
c8
3445 3587 mt 3350 3592 L
c9
3350 3592 mt 3401 3650 L
1 sg
-96 5 51 56 3388 3412 3 MP
PP
c8
3388 3412 mt 3439 3468 L
3439 3468 mt 3343 3473 L
1 sg
51 57 -96 5 3439 3468 3 MP
PP
c8
3439 3468 mt 3343 3473 L
3343 3473 mt 3394 3530 L
1 sg
51 57 -96 6 3433 3349 3 MP
PP
c8
3433 3349 mt 3337 3355 L
3337 3355 mt 3388 3412 L
1 sg
-96 6 51 56 3382 3293 3 MP
PP
c8
3382 3293 mt 3433 3349 L
3433 3349 mt 3337 3355 L
1 sg
51 55 -95 12 3426 3226 3 MP
PP
c8
3426 3226 mt 3331 3238 L
3331 3238 mt 3382 3293 L
1 sg
-95 12 51 55 3375 3171 3 MP
PP
c8
3375 3171 mt 3426 3226 L
3426 3226 mt 3331 3238 L
1 sg
-96 24 51 56 3369 3036 3 MP
PP
c8
3369 3036 mt 3420 3092 L
3420 3092 mt 3324 3116 L
1 sg
51 55 -96 24 3420 3092 3 MP
PP
c8
3420 3092 mt 3324 3116 L
3324 3116 mt 3375 3171 L
1 sg
-96 43 52 64 3362 2872 3 MP
PP
c9
3362 2872 mt 3414 2936 L
3414 2936 mt 3318 2979 L
1 sg
51 57 -96 43 3414 2936 3 MP
PP
c9
3414 2936 mt 3318 2979 L
c8
3318 2979 mt 3369 3036 L
1 sg
-96 64 51 85 3356 2655 3 MP
PP
c13
3356 2655 mt 3407 2740 L
c12
3407 2740 mt 3311 2804 L
1 sg
51 68 -96 64 3407 2740 3 MP
PP
c12
3407 2740 mt 3311 2804 L
c10
3311 2804 mt 3362 2872 L
1 sg
51 101 -96 94 3401 2460 3 MP
PP
c16
3401 2460 mt 3305 2554 L
c14
3305 2554 mt 3356 2655 L
1 sg
-96 94 51 161 3350 2299 3 MP
PP
c21
3350 2299 mt 3401 2460 L
c16
3401 2460 mt 3305 2554 L
1 sg
-96 4 51 58 3350 3592 3 MP
PP
c9
3350 3592 mt 3401 3650 L
3401 3650 mt 3305 3654 L
1 sg
51 58 -96 4 3401 3650 3 MP
PP
c9
3401 3650 mt 3305 3654 L
3305 3654 mt 3356 3712 L
1 sg
51 267 -95 177 3394 1855 3 MP
PP
c20
3394 1855 mt 3299 2032 L
/c22 { 0.062500 1.000000 0.937500 sr} bdef
c22
3299 2032 mt 3350 2299 L
1 sg
-95 177 51 857 3343 998 3 MP
PP
/c23 { 0.500000 0.000000 0.000000 sr} bdef
c23
3343  998 mt 3394 1855 L
c20
3394 1855 mt 3299 2032 L
1 sg
51 58 -95 4 3394 3530 3 MP
PP
c8
3394 3530 mt 3299 3534 L
c9
3299 3534 mt 3350 3592 L
1 sg
-95 4 51 57 3343 3473 3 MP
PP
c8
3343 3473 mt 3394 3530 L
3394 3530 mt 3299 3534 L
1 sg
51 58 -96 3 3388 3412 3 MP
PP
c8
3388 3412 mt 3292 3415 L
c9
3292 3415 mt 3343 3473 L
1 sg
-96 3 51 57 3337 3355 3 MP
PP
c8
3337 3355 mt 3388 3412 L
3388 3412 mt 3292 3415 L
1 sg
-96 5 51 55 3331 3238 3 MP
PP
c8
3331 3238 mt 3382 3293 L
3382 3293 mt 3286 3298 L
1 sg
51 57 -96 5 3382 3293 3 MP
PP
c8
3382 3293 mt 3286 3298 L
3286 3298 mt 3337 3355 L
1 sg
-96 11 51 55 3324 3116 3 MP
PP
c8
3324 3116 mt 3375 3171 L
3375 3171 mt 3279 3182 L
1 sg
52 56 -96 11 3375 3171 3 MP
PP
c8
3375 3171 mt 3279 3182 L
3279 3182 mt 3331 3238 L
1 sg
-96 25 51 57 3318 2979 3 MP
PP
c8
3318 2979 mt 3369 3036 L
3369 3036 mt 3273 3061 L
1 sg
51 55 -96 25 3369 3036 3 MP
PP
c8
3369 3036 mt 3273 3061 L
3273 3061 mt 3324 3116 L
1 sg
-95 48 51 68 3311 2804 3 MP
PP
c10
3311 2804 mt 3362 2872 L
c9
3362 2872 mt 3267 2920 L
1 sg
51 59 -95 48 3362 2872 3 MP
PP
c9
3362 2872 mt 3267 2920 L
c8
3267 2920 mt 3318 2979 L
1 sg
-96 76 51 101 3305 2554 3 MP
PP
c14
3305 2554 mt 3356 2655 L
c13
3356 2655 mt 3260 2731 L
1 sg
51 73 -96 76 3356 2655 3 MP
PP
c13
3356 2655 mt 3260 2731 L
c11
3260 2731 mt 3311 2804 L
1 sg
-96 122 51 267 3299 2032 3 MP
PP
c22
3299 2032 mt 3350 2299 L
c21
3350 2299 mt 3254 2421 L
1 sg
51 133 -96 122 3350 2299 3 MP
PP
c21
3350 2299 mt 3254 2421 L
c16
3254 2421 mt 3305 2554 L
1 sg
51 59 -96 3 3350 3592 3 MP
PP
c9
3350 3592 mt 3254 3595 L
3254 3595 mt 3305 3654 L
1 sg
-96 3 51 58 3299 3534 3 MP
PP
c9
3299 3534 mt 3350 3592 L
3350 3592 mt 3254 3595 L
1 sg
-95 2 51 58 3292 3415 3 MP
PP
c9
3292 3415 mt 3343 3473 L
c8
3343 3473 mt 3248 3475 L
1 sg
51 59 -95 2 3343 3473 3 MP
PP
c8
3343 3473 mt 3248 3475 L
c9
3248 3475 mt 3299 3534 L
1 sg
51 696 -95 338 3343 998 3 MP
PP
c23
3343  998 mt 3248 1336 L
/c24 { 1.000000 0.312500 0.000000 sr} bdef
c24
3248 1336 mt 3299 2032 L
1 sg
51 58 -96 2 3337 3355 3 MP
PP
c8
3337 3355 mt 3241 3357 L
c9
3241 3357 mt 3292 3415 L
1 sg
-96 2 51 57 3286 3298 3 MP
PP
c8
3286 3298 mt 3337 3355 L
3337 3355 mt 3241 3357 L
1 sg
51 57 -96 3 3331 3238 3 MP
PP
c8
3331 3238 mt 3235 3241 L
3235 3241 mt 3286 3298 L
1 sg
-96 3 52 56 3279 3182 3 MP
PP
c8
3279 3182 mt 3331 3238 L
3331 3238 mt 3235 3241 L
1 sg
51 57 -96 9 3324 3116 3 MP
PP
c8
3324 3116 mt 3228 3125 L
3228 3125 mt 3279 3182 L
1 sg
-96 9 51 55 3273 3061 3 MP
PP
c8
3273 3061 mt 3324 3116 L
3324 3116 mt 3228 3125 L
1 sg
51 55 -96 27 3318 2979 3 MP
PP
c8
3318 2979 mt 3222 3006 L
3222 3006 mt 3273 3061 L
1 sg
-96 27 51 59 3267 2920 3 MP
PP
c8
3267 2920 mt 3318 2979 L
3318 2979 mt 3222 3006 L
1 sg
-95 57 51 73 3260 2731 3 MP
PP
c11
3260 2731 mt 3311 2804 L
c10
3311 2804 mt 3216 2861 L
1 sg
51 59 -95 57 3311 2804 3 MP
PP
c10
3311 2804 mt 3216 2861 L
c8
3216 2861 mt 3267 2920 L
1 sg
-96 93 51 133 3254 2421 3 MP
PP
c16
3254 2421 mt 3305 2554 L
c14
3305 2554 mt 3209 2647 L
1 sg
51 84 -96 93 3305 2554 3 MP
PP
c14
3305 2554 mt 3209 2647 L
c12
3209 2647 mt 3260 2731 L
1 sg
-96 176 51 696 3248 1336 3 MP
PP
c24
3248 1336 mt 3299 2032 L
c22
3299 2032 mt 3203 2208 L
1 sg
51 213 -96 176 3299 2032 3 MP
PP
c22
3299 2032 mt 3203 2208 L
/c25 { 0.000000 0.625000 1.000000 sr} bdef
c25
3203 2208 mt 3254 2421 L
1 sg
-96 2 51 59 3248 3475 3 MP
PP
c9
3248 3475 mt 3299 3534 L
3299 3534 mt 3203 3536 L
1 sg
51 59 -96 2 3299 3534 3 MP
PP
c9
3299 3534 mt 3203 3536 L
c10
3203 3536 mt 3254 3595 L
1 sg
51 59 -95 1 3292 3415 3 MP
PP
c9
3292 3415 mt 3197 3416 L
3197 3416 mt 3248 3475 L
1 sg
-95 1 51 58 3241 3357 3 MP
PP
c9
3241 3357 mt 3292 3415 L
3292 3415 mt 3197 3416 L
1 sg
-96 0 51 57 3235 3241 3 MP
PP
c8
3235 3241 mt 3286 3298 L
3286 3298 mt 3190 3298 L
1 sg
51 59 -96 0 3286 3298 3 MP
PP
c8
3286 3298 mt 3190 3298 L
c9
3190 3298 mt 3241 3357 L
1 sg
-95 1 51 57 3228 3125 3 MP
PP
c8
3228 3125 mt 3279 3182 L
3279 3182 mt 3184 3183 L
1 sg
51 58 -95 1 3279 3182 3 MP
PP
c8
3279 3182 mt 3184 3183 L
3184 3183 mt 3235 3241 L
1 sg
51 56 -96 8 3273 3061 3 MP
PP
c8
3273 3061 mt 3177 3069 L
3177 3069 mt 3228 3125 L
1 sg
-96 8 51 55 3222 3006 3 MP
PP
c8
3222 3006 mt 3273 3061 L
3273 3061 mt 3177 3069 L
1 sg
51 55 -96 31 3267 2920 3 MP
PP
c8
3267 2920 mt 3171 2951 L
3171 2951 mt 3222 3006 L
1 sg
-96 31 51 59 3216 2861 3 MP
PP
c8
3216 2861 mt 3267 2920 L
3267 2920 mt 3171 2951 L
1 sg
-95 68 51 84 3209 2647 3 MP
PP
c12
3209 2647 mt 3260 2731 L
c11
3260 2731 mt 3165 2799 L
1 sg
51 62 -95 68 3260 2731 3 MP
PP
c11
3260 2731 mt 3165 2799 L
c9
3165 2799 mt 3216 2861 L
1 sg
-96 120 51 213 3203 2208 3 MP
PP
c25
3203 2208 mt 3254 2421 L
c16
3254 2421 mt 3158 2541 L
1 sg
51 106 -96 120 3254 2421 3 MP
PP
c16
3254 2421 mt 3158 2541 L
c17
3158 2541 mt 3209 2647 L
1 sg
51 535 -96 337 3248 1336 3 MP
PP
c24
3248 1336 mt 3152 1673 L
/c26 { 0.875000 1.000000 0.125000 sr} bdef
c26
3152 1673 mt 3203 2208 L
1 sg
-96 1 51 59 3197 3416 3 MP
PP
c9
3197 3416 mt 3248 3475 L
3248 3475 mt 3152 3476 L
1 sg
51 60 -96 1 3248 3475 3 MP
PP
c9
3248 3475 mt 3152 3476 L
c10
3152 3476 mt 3203 3536 L
1 sg
52 60 -96 -1 3241 3357 3 MP
PP
c9
3241 3357 mt 3145 3356 L
3145 3356 mt 3197 3416 L
1 sg
-96 -1 51 59 3190 3298 3 MP
PP
c9
3190 3298 mt 3241 3357 L
3241 3357 mt 3145 3356 L
1 sg
-96 -2 51 58 3184 3183 3 MP
PP
c8
3184 3183 mt 3235 3241 L
3235 3241 mt 3139 3239 L
1 sg
51 59 -96 -2 3235 3241 3 MP
PP
c8
3235 3241 mt 3139 3239 L
c9
3139 3239 mt 3190 3298 L
1 sg
51 59 -95 -1 3228 3125 3 MP
PP
c8
3228 3125 mt 3133 3124 L
c9
3133 3124 mt 3184 3183 L
1 sg
-95 -1 51 56 3177 3069 3 MP
PP
c8
3177 3069 mt 3228 3125 L
3228 3125 mt 3133 3124 L
1 sg
-96 6 51 55 3171 2951 3 MP
PP
c8
3171 2951 mt 3222 3006 L
3222 3006 mt 3126 3012 L
1 sg
51 57 -96 6 3222 3006 3 MP
PP
c8
3222 3006 mt 3126 3012 L
3126 3012 mt 3177 3069 L
1 sg
-96 35 51 62 3165 2799 3 MP
PP
c9
3165 2799 mt 3216 2861 L
c8
3216 2861 mt 3120 2896 L
1 sg
51 55 -96 35 3216 2861 3 MP
PP
c8
3216 2861 mt 3120 2896 L
3120 2896 mt 3171 2951 L
1 sg
-95 85 51 106 3158 2541 3 MP
PP
c17
3158 2541 mt 3209 2647 L
c12
3209 2647 mt 3114 2732 L
1 sg
51 67 -95 85 3209 2647 3 MP
PP
c12
3209 2647 mt 3114 2732 L
c9
3114 2732 mt 3165 2799 L
1 sg
-96 175 51 535 3152 1673 3 MP
PP
c26
3152 1673 mt 3203 2208 L
c25
3203 2208 mt 3107 2383 L
1 sg
51 158 -96 175 3203 2208 3 MP
PP
c25
3203 2208 mt 3107 2383 L
c16
3107 2383 mt 3158 2541 L
1 sg
-96 -1 52 60 3145 3356 3 MP
PP
c9
3145 3356 mt 3197 3416 L
3197 3416 mt 3101 3415 L
1 sg
51 61 -96 -1 3197 3416 3 MP
PP
c9
3197 3416 mt 3101 3415 L
c10
3101 3415 mt 3152 3476 L
1 sg
-96 -3 51 59 3139 3239 3 MP
PP
c9
3139 3239 mt 3190 3298 L
3190 3298 mt 3094 3295 L
1 sg
51 61 -96 -3 3190 3298 3 MP
PP
c9
3190 3298 mt 3094 3295 L
c10
3094 3295 mt 3145 3356 L
1 sg
-96 -5 51 59 3133 3124 3 MP
PP
c9
3133 3124 mt 3184 3183 L
c8
3184 3183 mt 3088 3178 L
1 sg
51 61 -96 -5 3184 3183 3 MP
PP
c8
3184 3183 mt 3088 3178 L
c9
3088 3178 mt 3139 3239 L
1 sg
-95 -5 51 57 3126 3012 3 MP
PP
c8
3126 3012 mt 3177 3069 L
3177 3069 mt 3082 3064 L
1 sg
51 60 -95 -5 3177 3069 3 MP
PP
c8
3177 3069 mt 3082 3064 L
c9
3082 3064 mt 3133 3124 L
1 sg
-96 2 51 55 3120 2896 3 MP
PP
c8
3120 2896 mt 3171 2951 L
3171 2951 mt 3075 2953 L
1 sg
51 59 -96 2 3171 2951 3 MP
PP
c8
3171 2951 mt 3075 2953 L
3075 2953 mt 3126 3012 L
1 sg
51 55 -96 42 3165 2799 3 MP
PP
c9
3165 2799 mt 3069 2841 L
c8
3069 2841 mt 3120 2896 L
1 sg
-96 42 51 67 3114 2732 3 MP
PP
c9
3114 2732 mt 3165 2799 L
3165 2799 mt 3069 2841 L
1 sg
-96 115 51 158 3107 2383 3 MP
PP
c16
3107 2383 mt 3158 2541 L
c17
3158 2541 mt 3062 2656 L
1 sg
52 76 -96 115 3158 2541 3 MP
PP
c17
3158 2541 mt 3062 2656 L
c10
3062 2656 mt 3114 2732 L
1 sg
51 373 -96 337 3152 1673 3 MP
PP
c26
3152 1673 mt 3056 2010 L
c22
3056 2010 mt 3107 2383 L
1 sg
51 61 -95 -2 3145 3356 3 MP
PP
c9
3145 3356 mt 3050 3354 L
c10
3050 3354 mt 3101 3415 L
1 sg
-95 -2 51 61 3094 3295 3 MP
PP
c10
3094 3295 mt 3145 3356 L
c9
3145 3356 mt 3050 3354 L
1 sg
51 62 -96 -6 3139 3239 3 MP
PP
c9
3139 3239 mt 3043 3233 L
c10
3043 3233 mt 3094 3295 L
1 sg
-96 -6 51 61 3088 3178 3 MP
PP
c9
3088 3178 mt 3139 3239 L
3139 3239 mt 3043 3233 L
1 sg
-96 -8 51 60 3082 3064 3 MP
PP
c9
3082 3064 mt 3133 3124 L
3133 3124 mt 3037 3116 L
1 sg
51 62 -96 -8 3133 3124 3 MP
PP
c9
3133 3124 mt 3037 3116 L
c10
3037 3116 mt 3088 3178 L
1 sg
-95 -10 51 59 3075 2953 3 MP
PP
c8
3075 2953 mt 3126 3012 L
3126 3012 mt 3031 3002 L
1 sg
51 62 -95 -10 3126 3012 3 MP
PP
c8
3126 3012 mt 3031 3002 L
c9
3031 3002 mt 3082 3064 L
1 sg
-96 -2 51 55 3069 2841 3 MP
PP
c8
3069 2841 mt 3120 2896 L
3120 2896 mt 3024 2894 L
1 sg
51 59 -96 -2 3120 2896 3 MP
PP
c8
3120 2896 mt 3024 2894 L
3024 2894 mt 3075 2953 L
1 sg
51 55 -96 54 3114 2732 3 MP
PP
c9
3114 2732 mt 3018 2786 L
c8
3018 2786 mt 3069 2841 L
1 sg
-96 54 52 76 3062 2656 3 MP
PP
c10
3062 2656 mt 3114 2732 L
c9
3114 2732 mt 3018 2786 L
1 sg
51 103 -96 170 3107 2383 3 MP
PP
c16
3107 2383 mt 3011 2553 L
c12
3011 2553 mt 3062 2656 L
1 sg
-96 170 51 373 3056 2010 3 MP
PP
c22
3056 2010 mt 3107 2383 L
c16
3107 2383 mt 3011 2553 L
1 sg
51 63 -95 -4 3094 3295 3 MP
PP
c10
3094 3295 mt 2999 3291 L
c11
2999 3291 mt 3050 3354 L
1 sg
-95 -4 51 62 3043 3233 3 MP
PP
c10
3043 3233 mt 3094 3295 L
3094 3295 mt 2999 3291 L
1 sg
-96 -8 51 62 3037 3116 3 MP
PP
c10
3037 3116 mt 3088 3178 L
c9
3088 3178 mt 2992 3170 L
1 sg
51 63 -96 -8 3088 3178 3 MP
PP
c9
3088 3178 mt 2992 3170 L
c10
2992 3170 mt 3043 3233 L
1 sg
-96 -12 51 62 3031 3002 3 MP
PP
c9
3031 3002 mt 3082 3064 L
3082 3064 mt 2986 3052 L
1 sg
51 64 -96 -12 3082 3064 3 MP
PP
c9
3082 3064 mt 2986 3052 L
c10
2986 3052 mt 3037 3116 L
1 sg
52 64 -96 -15 3075 2953 3 MP
PP
c8
3075 2953 mt 2979 2938 L
c9
2979 2938 mt 3031 3002 L
1 sg
-96 -15 51 59 3024 2894 3 MP
PP
c8
3024 2894 mt 3075 2953 L
3075 2953 mt 2979 2938 L
1 sg
51 62 -96 -9 3069 2841 3 MP
PP
c8
3069 2841 mt 2973 2832 L
c9
2973 2832 mt 3024 2894 L
1 sg
-96 -9 51 55 3018 2786 3 MP
PP
c8
3018 2786 mt 3069 2841 L
3069 2841 mt 2973 2832 L
1 sg
-95 75 51 103 3011 2553 3 MP
PP
c12
3011 2553 mt 3062 2656 L
c10
3062 2656 mt 2967 2731 L
1 sg
51 55 -95 75 3062 2656 3 MP
PP
c10
3062 2656 mt 2967 2731 L
c8
2967 2731 mt 3018 2786 L
1 sg
51 209 -96 334 3056 2010 3 MP
PP
c22
3056 2010 mt 2960 2344 L
c16
2960 2344 mt 3011 2553 L
1 sg
51 64 -95 -6 3043 3233 3 MP
PP
c10
3043 3233 mt 2948 3227 L
c11
2948 3227 mt 2999 3291 L
1 sg
-95 -6 51 63 2992 3170 3 MP
PP
c10
2992 3170 mt 3043 3233 L
3043 3233 mt 2948 3227 L
1 sg
-96 -11 51 64 2986 3052 3 MP
PP
c10
2986 3052 mt 3037 3116 L
3037 3116 mt 2941 3105 L
1 sg
51 65 -96 -11 3037 3116 3 MP
PP
c10
3037 3116 mt 2941 3105 L
c11
2941 3105 mt 2992 3170 L
1 sg
-96 -17 52 64 2979 2938 3 MP
PP
c9
2979 2938 mt 3031 3002 L
3031 3002 mt 2935 2985 L
1 sg
51 67 -96 -17 3031 3002 3 MP
PP
c9
3031 3002 mt 2935 2985 L
c10
2935 2985 mt 2986 3052 L
1 sg
51 68 -96 -24 3024 2894 3 MP
PP
c8
3024 2894 mt 2928 2870 L
c10
2928 2870 mt 2979 2938 L
1 sg
-96 -24 51 62 2973 2832 3 MP
PP
c9
2973 2832 mt 3024 2894 L
c8
3024 2894 mt 2928 2870 L
1 sg
-96 -21 51 55 2967 2731 3 MP
PP
c8
2967 2731 mt 3018 2786 L
3018 2786 mt 2922 2765 L
1 sg
51 67 -96 -21 3018 2786 3 MP
PP
c8
3018 2786 mt 2922 2765 L
c9
2922 2765 mt 2973 2832 L
1 sg
-95 123 51 209 2960 2344 3 MP
PP
c16
2960 2344 mt 3011 2553 L
c12
3011 2553 mt 2916 2676 L
1 sg
51 55 -95 123 3011 2553 3 MP
PP
c12
3011 2553 mt 2916 2676 L
c8
2916 2676 mt 2967 2731 L
1 sg
52 66 -96 -9 2992 3170 3 MP
PP
c10
2992 3170 mt 2896 3161 L
c11
2896 3161 mt 2948 3227 L
1 sg
-96 -9 51 65 2941 3105 3 MP
PP
c11
2941 3105 mt 2992 3170 L
c10
2992 3170 mt 2896 3161 L
1 sg
51 68 -96 -15 2986 3052 3 MP
PP
c10
2986 3052 mt 2890 3037 L
c11
2890 3037 mt 2941 3105 L
1 sg
-96 -15 51 67 2935 2985 3 MP
PP
c10
2935 2985 mt 2986 3052 L
2986 3052 mt 2890 3037 L
1 sg
-95 -23 51 68 2928 2870 3 MP
PP
c10
2928 2870 mt 2979 2938 L
c9
2979 2938 mt 2884 2915 L
1 sg
51 70 -95 -23 2979 2938 3 MP
PP
c9
2979 2938 mt 2884 2915 L
c11
2884 2915 mt 2935 2985 L
1 sg
-96 -35 51 67 2922 2765 3 MP
PP
c9
2922 2765 mt 2973 2832 L
2973 2832 mt 2877 2797 L
1 sg
51 73 -96 -35 2973 2832 3 MP
PP
c9
2973 2832 mt 2877 2797 L
c11
2877 2797 mt 2928 2870 L
1 sg
51 76 -96 -42 2967 2731 3 MP
PP
c8
2967 2731 mt 2871 2689 L
c10
2871 2689 mt 2922 2765 L
1 sg
-96 -42 51 55 2916 2676 3 MP
PP
c8
2916 2676 mt 2967 2731 L
2967 2731 mt 2871 2689 L
1 sg
51 55 -95 277 2960 2344 3 MP
PP
c16
2960 2344 mt 2865 2621 L
c8
2865 2621 mt 2916 2676 L
1 sg
-96 -13 51 68 2890 3037 3 MP
PP
c11
2890 3037 mt 2941 3105 L
2941 3105 mt 2845 3092 L
1 sg
51 69 -96 -13 2941 3105 3 MP
PP
c11
2941 3105 mt 2845 3092 L
c12
2845 3092 mt 2896 3161 L
1 sg
-96 -19 51 70 2884 2915 3 MP
PP
c11
2884 2915 mt 2935 2985 L
c10
2935 2985 mt 2839 2966 L
1 sg
51 71 -96 -19 2935 2985 3 MP
PP
c10
2935 2985 mt 2839 2966 L
c12
2839 2966 mt 2890 3037 L
1 sg
-95 -31 51 73 2877 2797 3 MP
PP
c11
2877 2797 mt 2928 2870 L
c10
2928 2870 mt 2833 2839 L
1 sg
51 76 -95 -31 2928 2870 3 MP
PP
c10
2928 2870 mt 2833 2839 L
c12
2833 2839 mt 2884 2915 L
1 sg
-96 -52 51 76 2871 2689 3 MP
PP
c10
2871 2689 mt 2922 2765 L
c9
2922 2765 mt 2826 2713 L
1 sg
51 84 -96 -52 2922 2765 3 MP
PP
c9
2922 2765 mt 2826 2713 L
c12
2826 2713 mt 2877 2797 L
1 sg
-96 -90 51 55 2865 2621 3 MP
PP
c8
2865 2621 mt 2916 2676 L
2916 2676 mt 2820 2586 L
1 sg
51 103 -96 -90 2916 2676 3 MP
PP
c8
2916 2676 mt 2820 2586 L
c12
2820 2586 mt 2871 2689 L
1 sg
51 71 -96 -16 2890 3037 3 MP
PP
c11
2890 3037 mt 2794 3021 L
c13
2794 3021 mt 2845 3092 L
1 sg
-96 -16 51 71 2839 2966 3 MP
PP
c12
2839 2966 mt 2890 3037 L
c11
2890 3037 mt 2794 3021 L
1 sg
51 77 -96 -26 2884 2915 3 MP
PP
c11
2884 2915 mt 2788 2889 L
c13
2788 2889 mt 2839 2966 L
1 sg
-96 -26 51 76 2833 2839 3 MP
PP
c12
2833 2839 mt 2884 2915 L
c11
2884 2915 mt 2788 2889 L
1 sg
51 85 -95 -43 2877 2797 3 MP
PP
c11
2877 2797 mt 2782 2754 L
c13
2782 2754 mt 2833 2839 L
1 sg
-95 -43 51 84 2826 2713 3 MP
PP
c12
2826 2713 mt 2877 2797 L
c11
2877 2797 mt 2782 2754 L
1 sg
51 106 -96 -82 2871 2689 3 MP
PP
c10
2871 2689 mt 2775 2607 L
c17
2775 2607 mt 2826 2713 L
1 sg
-96 -82 51 103 2820 2586 3 MP
PP
c12
2820 2586 mt 2871 2689 L
c10
2871 2689 mt 2775 2607 L
1 sg
51 209 -96 -244 2865 2621 3 MP
PP
c8
2865 2621 mt 2769 2377 L
c16
2769 2377 mt 2820 2586 L
1 sg
-96 -21 51 77 2788 2889 3 MP
PP
c13
2788 2889 mt 2839 2966 L
c12
2839 2966 mt 2743 2945 L
1 sg
51 76 -96 -21 2839 2966 3 MP
PP
c12
2839 2966 mt 2743 2945 L
c13
2743 2945 mt 2794 3021 L
1 sg
-96 -34 51 85 2782 2754 3 MP
PP
c13
2782 2754 mt 2833 2839 L
c12
2833 2839 mt 2737 2805 L
1 sg
51 84 -96 -34 2833 2839 3 MP
PP
c12
2833 2839 mt 2737 2805 L
c17
2737 2805 mt 2788 2889 L
1 sg
51 101 -95 -60 2826 2713 3 MP
PP
c12
2826 2713 mt 2731 2653 L
c14
2731 2653 mt 2782 2754 L
1 sg
-95 -60 51 106 2775 2607 3 MP
PP
c17
2775 2607 mt 2826 2713 L
c12
2826 2713 mt 2731 2653 L
1 sg
-96 -137 51 209 2769 2377 3 MP
PP
c16
2769 2377 mt 2820 2586 L
c12
2820 2586 mt 2724 2449 L
1 sg
51 158 -96 -137 2820 2586 3 MP
PP
c12
2820 2586 mt 2724 2449 L
c16
2724 2449 mt 2775 2607 L
1 sg
-96 -27 51 84 2737 2805 3 MP
PP
c17
2737 2805 mt 2788 2889 L
c13
2788 2889 mt 2692 2862 L
1 sg
51 83 -96 -27 2788 2889 3 MP
PP
c13
2788 2889 mt 2692 2862 L
c14
2692 2862 mt 2743 2945 L
1 sg
51 96 -96 -45 2782 2754 3 MP
PP
c13
2782 2754 mt 2686 2709 L
c15
2686 2709 mt 2737 2805 L
1 sg
-96 -45 51 101 2731 2653 3 MP
PP
c14
2731 2653 mt 2782 2754 L
c13
2782 2754 mt 2686 2709 L
1 sg
52 133 -96 -87 2775 2607 3 MP
PP
c17
2775 2607 mt 2679 2520 L
c16
2679 2520 mt 2731 2653 L
1 sg
-96 -87 51 158 2724 2449 3 MP
PP
c16
2724 2449 mt 2775 2607 L
c17
2775 2607 mt 2679 2520 L
1 sg
51 373 -96 -301 2769 2377 3 MP
PP
c16
2769 2377 mt 2673 2076 L
c22
2673 2076 mt 2724 2449 L
1 sg
51 92 -96 -35 2737 2805 3 MP
PP
c17
2737 2805 mt 2641 2770 L
c15
2641 2770 mt 2692 2862 L
1 sg
-96 -35 51 96 2686 2709 3 MP
PP
c15
2686 2709 mt 2737 2805 L
c17
2737 2805 mt 2641 2770 L
1 sg
-96 -61 52 133 2679 2520 3 MP
PP
c16
2679 2520 mt 2731 2653 L
c14
2731 2653 mt 2635 2592 L
1 sg
51 117 -96 -61 2731 2653 3 MP
PP
c14
2731 2653 mt 2635 2592 L
c16
2635 2592 mt 2686 2709 L
1 sg
-96 -142 51 373 2673 2076 3 MP
PP
c22
2673 2076 mt 2724 2449 L
c16
2724 2449 mt 2628 2307 L
1 sg
51 213 -96 -142 2724 2449 3 MP
PP
c16
2724 2449 mt 2628 2307 L
c25
2628 2307 mt 2679 2520 L
1 sg
51 107 -96 -46 2686 2709 3 MP
PP
c15
2686 2709 mt 2590 2663 L
c16
2590 2663 mt 2641 2770 L
1 sg
-96 -46 51 117 2635 2592 3 MP
PP
c16
2635 2592 mt 2686 2709 L
c15
2686 2709 mt 2590 2663 L
1 sg
51 161 -95 -89 2679 2520 3 MP
PP
c16
2679 2520 mt 2584 2431 L
c21
2584 2431 mt 2635 2592 L
1 sg
-95 -89 51 213 2628 2307 3 MP
PP
c25
2628 2307 mt 2679 2520 L
c16
2679 2520 mt 2584 2431 L
1 sg
51 535 -96 -304 2673 2076 3 MP
PP
c22
2673 2076 mt 2577 1772 L
c26
2577 1772 mt 2628 2307 L
1 sg
-96 -63 51 161 2584 2431 3 MP
PP
c21
2584 2431 mt 2635 2592 L
c16
2635 2592 mt 2539 2529 L
1 sg
51 134 -96 -63 2635 2592 3 MP
PP
c16
2635 2592 mt 2539 2529 L
c18
2539 2529 mt 2590 2663 L
1 sg
-95 -143 51 535 2577 1772 3 MP
PP
c26
2577 1772 mt 2628 2307 L
c25
2628 2307 mt 2533 2164 L
1 sg
51 267 -95 -143 2628 2307 3 MP
PP
c25
2628 2307 mt 2533 2164 L
c22
2533 2164 mt 2584 2431 L
1 sg
-96 -89 51 267 2533 2164 3 MP
PP
c22
2533 2164 mt 2584 2431 L
c21
2584 2431 mt 2488 2342 L
1 sg
51 187 -96 -89 2584 2431 3 MP
PP
c21
2584 2431 mt 2488 2342 L
c19
2488 2342 mt 2539 2529 L
1 sg
51 696 -95 -304 2577 1772 3 MP
PP
c26
2577 1772 mt 2482 1468 L
c24
2482 1468 mt 2533 2164 L
1 sg
51 322 -96 -144 2533 2164 3 MP
PP
c22
2533 2164 mt 2437 2020 L
c20
2437 2020 mt 2488 2342 L
1 sg
-96 -144 51 696 2482 1468 3 MP
PP
c24
2482 1468 mt 2533 2164 L
c22
2533 2164 mt 2437 2020 L
1 sg
51 857 -96 -305 2482 1468 3 MP
PP
c24
2482 1468 mt 2386 1163 L
c23
2386 1163 mt 2437 2020 L
gr

c23
0 sg
1020 4937 mt 
(b [mm]) s
%%IncludeResource: font Symbol
/Symbol /WindowsLatin1Encoding 240 FMSR

 391 2426 mt  -90 rotate
(s) s
90 rotate
%%IncludeResource: font Helvetica
/Helvetica /WindowsLatin1Encoding 192 FMSR

 511 2282 mt  -90 rotate
(x) s
90 rotate
%%IncludeResource: font Helvetica
/Helvetica /WindowsLatin1Encoding 240 FMSR

 391 2186 mt  -90 rotate
( [mm]) s
90 rotate
gs 899 389 5363 4228 MR c np
gr


end %%Color Dict

eplot
%%EndObject

epage
end

showpage

%%Trailer
%%EOF
