%!PS-Adobe-2.0 EPSF-1.2
%%Creator: MATLAB, The Mathworks, Inc. Version 7.5.0.342 (R2007b). Operating System: Microsoft Windows Vista.
%%Title: .\SigmaY_2.eps
%%CreationDate: 03/13/2013  11:39:09
%%DocumentNeededFonts: Helvetica
%%DocumentProcessColors: Cyan Magenta Yellow Black
%%Pages: 1
%%BoundingBox:    28   186   593   583
%%EndComments

%%BeginProlog
% MathWorks dictionary
/MathWorks 160 dict begin
% definition operators
/bdef {bind def} bind def
/ldef {load def} bind def
/xdef {exch def} bdef
/xstore {exch store} bdef
% operator abbreviations
/c  /clip ldef
/cc /concat ldef
/cp /closepath ldef
/gr /grestore ldef
/gs /gsave ldef
/mt /moveto ldef
/np /newpath ldef
/cm /currentmatrix ldef
/sm /setmatrix ldef
/rm /rmoveto ldef
/rl /rlineto ldef
/s {show newpath} bdef
/sc {setcmykcolor} bdef
/sr /setrgbcolor ldef
/sg /setgray ldef
/w /setlinewidth ldef
/j /setlinejoin ldef
/cap /setlinecap ldef
/rc {rectclip} bdef
/rf {rectfill} bdef
% page state control
/pgsv () def
/bpage {/pgsv save def} bdef
/epage {pgsv restore} bdef
/bplot /gsave ldef
/eplot {stroke grestore} bdef
% orientation switch
/portraitMode 0 def /landscapeMode 1 def /rotateMode 2 def
% coordinate system mappings
/dpi2point 0 def
% font control
/FontSize 0 def
/FMS {/FontSize xstore findfont [FontSize 0 0 FontSize neg 0 0]
  makefont setfont} bdef
/ISOLatin1Encoding where {pop /WindowsLatin1Encoding 256 array bdef
ISOLatin1Encoding WindowsLatin1Encoding copy pop
/.notdef/.notdef/quotesinglbase/florin/quotedblbase/ellipsis/dagger
/daggerdbl/circumflex/perthousand/Scaron/guilsinglleft/OE/.notdef/.notdef
/.notdef/.notdef/quoteleft/quoteright/quotedblleft/quotedblright/bullet
/endash/emdash/tilde/trademark/scaron/guilsinglright/oe/.notdef/.notdef
/Ydieresis WindowsLatin1Encoding 128 32 getinterval astore pop}
{/WindowsLatin1Encoding StandardEncoding bdef} ifelse
/reencode {exch dup where {pop load} {pop StandardEncoding} ifelse
  exch dup 3 1 roll findfont dup length dict begin
  { 1 index /FID ne {def}{pop pop} ifelse } forall
  /Encoding exch def currentdict end definefont pop} bdef
/isroman {findfont /CharStrings get /Agrave known} bdef
/FMSR {3 1 roll 1 index dup isroman {reencode} {pop pop} ifelse
  exch FMS} bdef
/csm {1 dpi2point div -1 dpi2point div scale neg translate
 dup landscapeMode eq {pop -90 rotate}
  {rotateMode eq {90 rotate} if} ifelse} bdef
% line types: solid, dotted, dashed, dotdash
/SO { [] 0 setdash } bdef
/DO { [.5 dpi2point mul 4 dpi2point mul] 0 setdash } bdef
/DA { [6 dpi2point mul] 0 setdash } bdef
/DD { [.5 dpi2point mul 4 dpi2point mul 6 dpi2point mul 4
  dpi2point mul] 0 setdash } bdef
% macros for lines and objects
/L {lineto stroke} bdef
/MP {3 1 roll moveto 1 sub {rlineto} repeat} bdef
/AP {{rlineto} repeat} bdef
/PDlw -1 def
/W {/PDlw currentlinewidth def setlinewidth} def
/PP {closepath eofill} bdef
/DP {closepath stroke} bdef
/MR {4 -2 roll moveto dup  0 exch rlineto exch 0 rlineto
  neg 0 exch rlineto closepath} bdef
/FR {MR stroke} bdef
/PR {MR fill} bdef
/L1i {{currentfile picstr readhexstring pop} image} bdef
/tMatrix matrix def
/MakeOval {newpath tMatrix currentmatrix pop translate scale
0 0 1 0 360 arc tMatrix setmatrix} bdef
/FO {MakeOval stroke} bdef
/PO {MakeOval fill} bdef
/PD {currentlinewidth 2 div 0 360 arc fill
   PDlw -1 eq not {PDlw w /PDlw -1 def} if} def
/FA {newpath tMatrix currentmatrix pop translate scale
  0 0 1 5 -2 roll arc tMatrix setmatrix stroke} bdef
/PA {newpath tMatrix currentmatrix pop	translate 0 0 moveto scale
  0 0 1 5 -2 roll arc closepath tMatrix setmatrix fill} bdef
/FAn {newpath tMatrix currentmatrix pop translate scale
  0 0 1 5 -2 roll arcn tMatrix setmatrix stroke} bdef
/PAn {newpath tMatrix currentmatrix pop translate 0 0 moveto scale
  0 0 1 5 -2 roll arcn closepath tMatrix setmatrix fill} bdef
/vradius 0 def /hradius 0 def /lry 0 def
/lrx 0 def /uly 0 def /ulx 0 def /rad 0 def
/MRR {/vradius xdef /hradius xdef /lry xdef /lrx xdef /uly xdef
  /ulx xdef newpath tMatrix currentmatrix pop ulx hradius add uly
  vradius add translate hradius vradius scale 0 0 1 180 270 arc 
  tMatrix setmatrix lrx hradius sub uly vradius add translate
  hradius vradius scale 0 0 1 270 360 arc tMatrix setmatrix
  lrx hradius sub lry vradius sub translate hradius vradius scale
  0 0 1 0 90 arc tMatrix setmatrix ulx hradius add lry vradius sub
  translate hradius vradius scale 0 0 1 90 180 arc tMatrix setmatrix
  closepath} bdef
/FRR {MRR stroke } bdef
/PRR {MRR fill } bdef
/MlrRR {/lry xdef /lrx xdef /uly xdef /ulx xdef /rad lry uly sub 2 div def
  newpath tMatrix currentmatrix pop ulx rad add uly rad add translate
  rad rad scale 0 0 1 90 270 arc tMatrix setmatrix lrx rad sub lry rad
  sub translate rad rad scale 0 0 1 270 90 arc tMatrix setmatrix
  closepath} bdef
/FlrRR {MlrRR stroke } bdef
/PlrRR {MlrRR fill } bdef
/MtbRR {/lry xdef /lrx xdef /uly xdef /ulx xdef /rad lrx ulx sub 2 div def
  newpath tMatrix currentmatrix pop ulx rad add uly rad add translate
  rad rad scale 0 0 1 180 360 arc tMatrix setmatrix lrx rad sub lry rad
  sub translate rad rad scale 0 0 1 0 180 arc tMatrix setmatrix
  closepath} bdef
/FtbRR {MtbRR stroke } bdef
/PtbRR {MtbRR fill } bdef
/stri 6 array def /dtri 6 array def
/smat 6 array def /dmat 6 array def
/tmat1 6 array def /tmat2 6 array def /dif 3 array def
/asub {/ind2 exch def /ind1 exch def dup dup
  ind1 get exch ind2 get sub exch } bdef
/tri_to_matrix {
  2 0 asub 3 1 asub 4 0 asub 5 1 asub
  dup 0 get exch 1 get 7 -1 roll astore } bdef
/compute_transform {
  dmat dtri tri_to_matrix tmat1 invertmatrix 
  smat stri tri_to_matrix tmat2 concatmatrix } bdef
/ds {stri astore pop} bdef
/dt {dtri astore pop} bdef
/db {2 copy /cols xdef /rows xdef mul dup string
  currentfile exch readhexstring pop
  /bmap xdef pop pop} bdef
/it {gs np dtri aload pop moveto lineto lineto cp c
  cols rows 8 compute_transform 
  {bmap} image gr}bdef
/il {newpath moveto lineto stroke}bdef
currentdict end def
%%EndProlog

%%BeginSetup
MathWorks begin

0 cap

end
%%EndSetup

%%Page: 1 1
%%BeginPageSetup
%%PageBoundingBox:    28   186   593   583
MathWorks begin
bpage
%%EndPageSetup

%%BeginObject: obj1
bplot

/dpi2point 12 def
portraitMode 0216 7344 csm

  124   341  6780  4770 MR c np
85 dict begin %Colortable dictionary
/c0 { 0.000000 0.000000 0.000000 sr} bdef
/c1 { 1.000000 1.000000 1.000000 sr} bdef
/c2 { 0.900000 0.000000 0.000000 sr} bdef
/c3 { 0.000000 0.820000 0.000000 sr} bdef
/c4 { 0.000000 0.000000 0.800000 sr} bdef
/c5 { 0.910000 0.820000 0.320000 sr} bdef
/c6 { 1.000000 0.260000 0.820000 sr} bdef
/c7 { 0.000000 0.820000 0.820000 sr} bdef
c0
1 j
1 sg
   0    0 6919 5187 PR
6 w
-1532 -1652 -3830 661 1532 1651 4729 2304 4 MP
PP
3830 -660 -1532 -1652 -3830 661 1532 1651 4729 2304 5 MP stroke
0 1915 1532 1651 0 -1915 4729 2304 4 MP
PP
-1532 -1651 0 1915 1532 1651 0 -1915 4729 2304 5 MP stroke
0 1915 -3830 660 0 -1915 4729 2304 4 MP
PP
3830 -660 0 1915 -3830 660 0 -1915 4729 2304 5 MP stroke
4 w
DO
0 sg
6261 3955 mt 4729 2304 L
4729 2304 mt 4729  389 L
5303 4120 mt 3771 2469 L
3771 2469 mt 3771  554 L
4346 4285 mt 2814 2634 L
2814 2634 mt 2814  719 L
3388 4450 mt 1856 2799 L
1856 2799 mt 1856  884 L
2431 4616 mt  899 2964 L
 899 2964 mt  899 1049 L
 899 2964 mt 4729 2304 L
4729 2304 mt 4729  389 L
1409 3515 mt 5239 2854 L
5239 2854 mt 5239  939 L
1920 4065 mt 5750 3405 L
5750 3405 mt 5750 1489 L
2431 4616 mt 6261 3955 L
6261 3955 mt 6261 2040 L
 899 2964 mt 4729 2304 L
4729 2304 mt 6261 3955 L
 899 2485 mt 4729 1825 L
4729 1825 mt 6261 3476 L
 899 2007 mt 4729 1346 L
4729 1346 mt 6261 2997 L
 899 1528 mt 4729  867 L
4729  867 mt 6261 2519 L
 899 1049 mt 4729  389 L
4729  389 mt 6261 2040 L
SO
6 w
6261 3955 mt 2431 4616 L
 899 2964 mt 2431 4616 L
 899 2964 mt  899 1049 L
6261 3955 mt 6327 4026 L
%%IncludeResource: font Helvetica
/Helvetica /WindowsLatin1Encoding 180 FMSR

6350 4219 mt 
(-1000) s
5303 4120 mt 5369 4191 L
5393 4384 mt 
(-500) s
4346 4285 mt 4412 4356 L
4435 4549 mt 
(0) s
3388 4450 mt 3454 4522 L
3478 4714 mt 
(500) s
2431 4616 mt 2497 4687 L
2520 4879 mt 
(1000) s
 899 2964 mt  803 2981 L
 669 3154 mt 
(0) s
1409 3515 mt 1313 3531 L
 979 3704 mt 
(100) s
1920 4065 mt 1824 4082 L
1490 4254 mt 
(200) s
2431 4616 mt 2335 4632 L
2001 4805 mt 
(300) s
 899 2964 mt  832 2893 L
 709 2934 mt 
(0) s
 899 2485 mt  832 2414 L
 709 2455 mt 
(5) s
 899 2007 mt  832 1935 L
 609 1976 mt 
(10) s
 899 1528 mt  832 1457 L
 609 1497 mt 
(15) s
 899 1049 mt  832  978 L
 609 1018 mt 
(20) s
gs 899 389 5363 4228 MR c np
1 sg
-95 16 51 57 4773 4097 3 MP
PP
/c8 { 0.000000 0.000000 0.562500 sr} bdef
c8
4773 4097 mt 4824 4154 L
4824 4154 mt 4729 4170 L
1 sg
-96 17 51 57 4722 4040 3 MP
PP
c8
4722 4040 mt 4773 4097 L
4773 4097 mt 4677 4114 L
1 sg
52 56 -96 17 4773 4097 3 MP
PP
c8
4773 4097 mt 4677 4114 L
4677 4114 mt 4729 4170 L
1 sg
-96 17 52 56 4677 4114 3 MP
PP
c8
4677 4114 mt 4729 4170 L
4729 4170 mt 4633 4187 L
1 sg
-96 17 51 57 4671 3983 3 MP
PP
c8
4671 3983 mt 4722 4040 L
4722 4040 mt 4626 4057 L
1 sg
51 57 -96 17 4722 4040 3 MP
PP
c8
4722 4040 mt 4626 4057 L
4626 4057 mt 4677 4114 L
1 sg
-95 16 51 57 4626 4057 3 MP
PP
c8
4626 4057 mt 4677 4114 L
4677 4114 mt 4582 4130 L
1 sg
51 57 -95 16 4677 4114 3 MP
PP
c8
4677 4114 mt 4582 4130 L
4582 4130 mt 4633 4187 L
1 sg
51 57 -96 17 4671 3983 3 MP
PP
c8
4671 3983 mt 4575 4000 L
4575 4000 mt 4626 4057 L
1 sg
-96 17 51 57 4620 3926 3 MP
PP
c8
4620 3926 mt 4671 3983 L
4671 3983 mt 4575 4000 L
1 sg
-96 17 51 57 4582 4130 3 MP
PP
c8
4582 4130 mt 4633 4187 L
4633 4187 mt 4537 4204 L
1 sg
-95 16 51 57 4575 4000 3 MP
PP
c8
4575 4000 mt 4626 4057 L
4626 4057 mt 4531 4073 L
1 sg
51 57 -95 16 4626 4057 3 MP
PP
c8
4626 4057 mt 4531 4073 L
4531 4073 mt 4582 4130 L
1 sg
-96 17 51 57 4569 3869 3 MP
PP
c8
4569 3869 mt 4620 3926 L
4620 3926 mt 4524 3943 L
1 sg
51 57 -96 17 4620 3926 3 MP
PP
c8
4620 3926 mt 4524 3943 L
4524 3943 mt 4575 4000 L
1 sg
-96 17 51 57 4531 4073 3 MP
PP
c8
4531 4073 mt 4582 4130 L
4582 4130 mt 4486 4147 L
1 sg
51 57 -96 17 4582 4130 3 MP
PP
c8
4582 4130 mt 4486 4147 L
4486 4147 mt 4537 4204 L
1 sg
-95 16 51 57 4524 3943 3 MP
PP
c8
4524 3943 mt 4575 4000 L
4575 4000 mt 4480 4016 L
1 sg
51 57 -95 16 4575 4000 3 MP
PP
c8
4575 4000 mt 4480 4016 L
4480 4016 mt 4531 4073 L
1 sg
51 57 -96 17 4569 3869 3 MP
PP
c8
4569 3869 mt 4473 3886 L
4473 3886 mt 4524 3943 L
1 sg
-96 17 51 57 4518 3812 3 MP
PP
c8
4518 3812 mt 4569 3869 L
4569 3869 mt 4473 3886 L
1 sg
-96 16 51 57 4486 4147 3 MP
PP
c8
4486 4147 mt 4537 4204 L
4537 4204 mt 4441 4220 L
1 sg
51 57 -96 17 4531 4073 3 MP
PP
c8
4531 4073 mt 4435 4090 L
4435 4090 mt 4486 4147 L
1 sg
-96 17 51 57 4480 4016 3 MP
PP
c8
4480 4016 mt 4531 4073 L
4531 4073 mt 4435 4090 L
1 sg
52 57 -96 16 4524 3943 3 MP
PP
c8
4524 3943 mt 4428 3959 L
4428 3959 mt 4480 4016 L
1 sg
-96 16 51 57 4473 3886 3 MP
PP
c8
4473 3886 mt 4524 3943 L
4524 3943 mt 4428 3959 L
1 sg
51 58 -96 16 4518 3812 3 MP
PP
c8
4518 3812 mt 4422 3828 L
4422 3828 mt 4473 3886 L
1 sg
-96 16 51 58 4467 3754 3 MP
PP
c8
4467 3754 mt 4518 3812 L
4518 3812 mt 4422 3828 L
1 sg
51 57 -96 16 4486 4147 3 MP
PP
c8
4486 4147 mt 4390 4163 L
4390 4163 mt 4441 4220 L
1 sg
-96 16 51 57 4435 4090 3 MP
PP
c8
4435 4090 mt 4486 4147 L
4486 4147 mt 4390 4163 L
1 sg
-96 17 52 57 4428 3959 3 MP
PP
c8
4428 3959 mt 4480 4016 L
4480 4016 mt 4384 4033 L
1 sg
51 57 -96 17 4480 4016 3 MP
PP
c8
4480 4016 mt 4384 4033 L
4384 4033 mt 4435 4090 L
1 sg
51 57 -96 16 4473 3886 3 MP
PP
c8
4473 3886 mt 4377 3902 L
4377 3902 mt 4428 3959 L
1 sg
-96 16 51 58 4422 3828 3 MP
PP
c8
4422 3828 mt 4473 3886 L
4473 3886 mt 4377 3902 L
1 sg
-96 16 51 58 4416 3696 3 MP
PP
c8
4416 3696 mt 4467 3754 L
4467 3754 mt 4371 3770 L
1 sg
51 58 -96 16 4467 3754 3 MP
PP
c8
4467 3754 mt 4371 3770 L
4371 3770 mt 4422 3828 L
1 sg
-95 17 51 57 4390 4163 3 MP
PP
c8
4390 4163 mt 4441 4220 L
4441 4220 mt 4346 4237 L
1 sg
-96 16 51 57 4384 4033 3 MP
PP
c8
4384 4033 mt 4435 4090 L
4435 4090 mt 4339 4106 L
1 sg
51 57 -96 16 4435 4090 3 MP
PP
c8
4435 4090 mt 4339 4106 L
4339 4106 mt 4390 4163 L
1 sg
51 57 -95 17 4428 3959 3 MP
PP
c8
4428 3959 mt 4333 3976 L
4333 3976 mt 4384 4033 L
1 sg
-95 17 51 57 4377 3902 3 MP
PP
c8
4377 3902 mt 4428 3959 L
4428 3959 mt 4333 3976 L
1 sg
51 57 -96 17 4422 3828 3 MP
PP
c8
4422 3828 mt 4326 3845 L
4326 3845 mt 4377 3902 L
1 sg
-96 17 51 58 4371 3770 3 MP
PP
c8
4371 3770 mt 4422 3828 L
4422 3828 mt 4326 3845 L
1 sg
-96 16 51 58 4365 3638 3 MP
PP
c8
4365 3638 mt 4416 3696 L
4416 3696 mt 4320 3712 L
1 sg
51 58 -96 16 4416 3696 3 MP
PP
c8
4416 3696 mt 4320 3712 L
4320 3712 mt 4371 3770 L
1 sg
52 57 -96 17 4390 4163 3 MP
PP
c8
4390 4163 mt 4294 4180 L
4294 4180 mt 4346 4237 L
1 sg
-96 17 51 57 4339 4106 3 MP
PP
c8
4339 4106 mt 4390 4163 L
4390 4163 mt 4294 4180 L
1 sg
-96 16 51 57 4333 3976 3 MP
PP
c8
4333 3976 mt 4384 4033 L
4384 4033 mt 4288 4049 L
1 sg
51 57 -96 16 4384 4033 3 MP
PP
c8
4384 4033 mt 4288 4049 L
4288 4049 mt 4339 4106 L
1 sg
-95 17 51 57 4326 3845 3 MP
PP
c8
4326 3845 mt 4377 3902 L
4377 3902 mt 4282 3919 L
1 sg
51 57 -95 17 4377 3902 3 MP
PP
c8
4377 3902 mt 4282 3919 L
4282 3919 mt 4333 3976 L
1 sg
51 58 -96 17 4371 3770 3 MP
PP
c8
4371 3770 mt 4275 3787 L
4275 3787 mt 4326 3845 L
1 sg
-96 17 51 58 4320 3712 3 MP
PP
c8
4320 3712 mt 4371 3770 L
4371 3770 mt 4275 3787 L
1 sg
-96 16 51 59 4314 3579 3 MP
PP
/c9 { 0.000000 0.000000 0.625000 sr} bdef
c9
4314 3579 mt 4365 3638 L
c8
4365 3638 mt 4269 3654 L
1 sg
51 58 -96 16 4365 3638 3 MP
PP
c8
4365 3638 mt 4269 3654 L
4269 3654 mt 4320 3712 L
1 sg
-96 16 52 57 4294 4180 3 MP
PP
c8
4294 4180 mt 4346 4237 L
4346 4237 mt 4250 4253 L
1 sg
-96 17 51 57 4288 4049 3 MP
PP
c8
4288 4049 mt 4339 4106 L
4339 4106 mt 4243 4123 L
1 sg
51 57 -96 17 4339 4106 3 MP
PP
c8
4339 4106 mt 4243 4123 L
4243 4123 mt 4294 4180 L
1 sg
51 57 -96 16 4333 3976 3 MP
PP
c8
4333 3976 mt 4237 3992 L
4237 3992 mt 4288 4049 L
1 sg
-96 16 51 57 4282 3919 3 MP
PP
c8
4282 3919 mt 4333 3976 L
4333 3976 mt 4237 3992 L
1 sg
-95 16 51 58 4275 3787 3 MP
PP
c8
4275 3787 mt 4326 3845 L
4326 3845 mt 4231 3861 L
1 sg
51 58 -95 16 4326 3845 3 MP
PP
c8
4326 3845 mt 4231 3861 L
4231 3861 mt 4282 3919 L
1 sg
-96 17 51 58 4269 3654 3 MP
PP
c8
4269 3654 mt 4320 3712 L
4320 3712 mt 4224 3729 L
1 sg
51 58 -96 17 4320 3712 3 MP
PP
c8
4320 3712 mt 4224 3729 L
4224 3729 mt 4275 3787 L
1 sg
-96 17 51 59 4263 3520 3 MP
PP
c9
4263 3520 mt 4314 3579 L
4314 3579 mt 4218 3596 L
1 sg
51 58 -96 17 4314 3579 3 MP
PP
c9
4314 3579 mt 4218 3596 L
4218 3596 mt 4269 3654 L
1 sg
51 57 -95 16 4294 4180 3 MP
PP
c8
4294 4180 mt 4199 4196 L
4199 4196 mt 4250 4253 L
1 sg
-95 16 51 57 4243 4123 3 MP
PP
c8
4243 4123 mt 4294 4180 L
4294 4180 mt 4199 4196 L
1 sg
51 57 -96 17 4288 4049 3 MP
PP
c8
4288 4049 mt 4192 4066 L
4192 4066 mt 4243 4123 L
1 sg
-96 17 51 57 4237 3992 3 MP
PP
c8
4237 3992 mt 4288 4049 L
4288 4049 mt 4192 4066 L
1 sg
51 57 -96 16 4282 3919 3 MP
PP
c8
4282 3919 mt 4186 3935 L
4186 3935 mt 4237 3992 L
1 sg
-96 16 51 58 4231 3861 3 MP
PP
c8
4231 3861 mt 4282 3919 L
4282 3919 mt 4186 3935 L
1 sg
51 58 -95 16 4275 3787 3 MP
PP
c8
4275 3787 mt 4180 3803 L
4180 3803 mt 4231 3861 L
1 sg
-95 16 51 58 4224 3729 3 MP
PP
c8
4224 3729 mt 4275 3787 L
4275 3787 mt 4180 3803 L
1 sg
51 58 -96 17 4269 3654 3 MP
PP
c8
4269 3654 mt 4173 3671 L
4173 3671 mt 4224 3729 L
1 sg
-96 17 51 58 4218 3596 3 MP
PP
c9
4218 3596 mt 4269 3654 L
c8
4269 3654 mt 4173 3671 L
1 sg
51 59 -96 17 4263 3520 3 MP
PP
c9
4263 3520 mt 4167 3537 L
4167 3537 mt 4218 3596 L
1 sg
-96 17 52 59 4211 3461 3 MP
PP
c9
4211 3461 mt 4263 3520 L
4263 3520 mt 4167 3537 L
1 sg
-96 17 51 57 4199 4196 3 MP
PP
c8
4199 4196 mt 4250 4253 L
4250 4253 mt 4154 4270 L
1 sg
-95 16 51 57 4192 4066 3 MP
PP
c8
4192 4066 mt 4243 4123 L
4243 4123 mt 4148 4139 L
1 sg
51 57 -95 16 4243 4123 3 MP
PP
c8
4243 4123 mt 4148 4139 L
4148 4139 mt 4199 4196 L
1 sg
-96 17 51 57 4186 3935 3 MP
PP
c8
4186 3935 mt 4237 3992 L
4237 3992 mt 4141 4009 L
1 sg
51 57 -96 17 4237 3992 3 MP
PP
c8
4237 3992 mt 4141 4009 L
4141 4009 mt 4192 4066 L
1 sg
-96 17 51 58 4180 3803 3 MP
PP
c8
4180 3803 mt 4231 3861 L
4231 3861 mt 4135 3878 L
1 sg
51 57 -96 17 4231 3861 3 MP
PP
c8
4231 3861 mt 4135 3878 L
4135 3878 mt 4186 3935 L
1 sg
-96 16 51 58 4173 3671 3 MP
PP
c8
4173 3671 mt 4224 3729 L
4224 3729 mt 4128 3745 L
1 sg
52 58 -96 16 4224 3729 3 MP
PP
c8
4224 3729 mt 4128 3745 L
4128 3745 mt 4180 3803 L
1 sg
51 59 -96 16 4218 3596 3 MP
PP
c9
4218 3596 mt 4122 3612 L
4122 3612 mt 4173 3671 L
1 sg
-96 16 51 59 4167 3537 3 MP
PP
c9
4167 3537 mt 4218 3596 L
4218 3596 mt 4122 3612 L
1 sg
51 59 -95 17 4211 3461 3 MP
PP
c9
4211 3461 mt 4116 3478 L
4116 3478 mt 4167 3537 L
1 sg
-95 17 51 60 4160 3401 3 MP
PP
c9
4160 3401 mt 4211 3461 L
4211 3461 mt 4116 3478 L
1 sg
-96 17 51 57 4148 4139 3 MP
PP
c8
4148 4139 mt 4199 4196 L
4199 4196 mt 4103 4213 L
1 sg
51 57 -96 17 4199 4196 3 MP
PP
c8
4199 4196 mt 4103 4213 L
4103 4213 mt 4154 4270 L
1 sg
-95 17 51 57 4141 4009 3 MP
PP
c8
4141 4009 mt 4192 4066 L
4192 4066 mt 4097 4083 L
1 sg
51 56 -95 17 4192 4066 3 MP
PP
c8
4192 4066 mt 4097 4083 L
4097 4083 mt 4148 4139 L
1 sg
51 57 -96 17 4186 3935 3 MP
PP
c8
4186 3935 mt 4090 3952 L
4090 3952 mt 4141 4009 L
1 sg
-96 17 51 57 4135 3878 3 MP
PP
c8
4135 3878 mt 4186 3935 L
4186 3935 mt 4090 3952 L
1 sg
51 58 -96 17 4180 3803 3 MP
PP
c8
4180 3803 mt 4084 3820 L
4084 3820 mt 4135 3878 L
1 sg
-96 17 52 58 4128 3745 3 MP
PP
c8
4128 3745 mt 4180 3803 L
4180 3803 mt 4084 3820 L
1 sg
51 58 -96 16 4173 3671 3 MP
PP
c8
4173 3671 mt 4077 3687 L
4077 3687 mt 4128 3745 L
1 sg
-96 16 51 59 4122 3612 3 MP
PP
c9
4122 3612 mt 4173 3671 L
c8
4173 3671 mt 4077 3687 L
1 sg
-96 16 51 59 4116 3478 3 MP
PP
c9
4116 3478 mt 4167 3537 L
4167 3537 mt 4071 3553 L
1 sg
51 59 -96 16 4167 3537 3 MP
PP
c9
4167 3537 mt 4071 3553 L
4071 3553 mt 4122 3612 L
1 sg
51 60 -95 17 4160 3401 3 MP
PP
c9
4160 3401 mt 4065 3418 L
4065 3418 mt 4116 3478 L
1 sg
-95 17 51 60 4109 3341 3 MP
PP
c9
4109 3341 mt 4160 3401 L
4160 3401 mt 4065 3418 L
1 sg
-96 16 51 57 4103 4213 3 MP
PP
c8
4103 4213 mt 4154 4270 L
4154 4270 mt 4058 4286 L
1 sg
-96 17 51 56 4097 4083 3 MP
PP
c8
4097 4083 mt 4148 4139 L
4148 4139 mt 4052 4156 L
1 sg
51 57 -96 17 4148 4139 3 MP
PP
c8
4148 4139 mt 4052 4156 L
4052 4156 mt 4103 4213 L
1 sg
52 58 -96 16 4141 4009 3 MP
PP
c8
4141 4009 mt 4045 4025 L
4045 4025 mt 4097 4083 L
1 sg
-96 16 51 57 4090 3952 3 MP
PP
c8
4090 3952 mt 4141 4009 L
4141 4009 mt 4045 4025 L
1 sg
51 58 -96 16 4135 3878 3 MP
PP
c8
4135 3878 mt 4039 3894 L
4039 3894 mt 4090 3952 L
1 sg
-96 16 51 58 4084 3820 3 MP
PP
c8
4084 3820 mt 4135 3878 L
4135 3878 mt 4039 3894 L
1 sg
51 58 -95 17 4128 3745 3 MP
PP
c8
4128 3745 mt 4033 3762 L
4033 3762 mt 4084 3820 L
1 sg
-95 17 51 58 4077 3687 3 MP
PP
c8
4077 3687 mt 4128 3745 L
4128 3745 mt 4033 3762 L
1 sg
-96 17 51 59 4071 3553 3 MP
PP
c9
4071 3553 mt 4122 3612 L
4122 3612 mt 4026 3629 L
1 sg
51 58 -96 17 4122 3612 3 MP
PP
c9
4122 3612 mt 4026 3629 L
4026 3629 mt 4077 3687 L
1 sg
-96 16 51 60 4065 3418 3 MP
PP
c9
4065 3418 mt 4116 3478 L
4116 3478 mt 4020 3494 L
1 sg
51 59 -96 16 4116 3478 3 MP
PP
c9
4116 3478 mt 4020 3494 L
4020 3494 mt 4071 3553 L
1 sg
-95 16 51 61 4058 3280 3 MP
PP
/c10 { 0.000000 0.000000 0.687500 sr} bdef
c10
4058 3280 mt 4109 3341 L
c9
4109 3341 mt 4014 3357 L
1 sg
51 61 -95 16 4109 3341 3 MP
PP
c9
4109 3341 mt 4014 3357 L
4014 3357 mt 4065 3418 L
1 sg
-96 16 51 57 4052 4156 3 MP
PP
c8
4052 4156 mt 4103 4213 L
4103 4213 mt 4007 4229 L
1 sg
51 57 -96 16 4103 4213 3 MP
PP
c8
4103 4213 mt 4007 4229 L
4007 4229 mt 4058 4286 L
1 sg
-96 16 52 58 4045 4025 3 MP
PP
c8
4045 4025 mt 4097 4083 L
4097 4083 mt 4001 4099 L
1 sg
51 57 -96 16 4097 4083 3 MP
PP
c8
4097 4083 mt 4001 4099 L
4001 4099 mt 4052 4156 L
1 sg
51 57 -96 16 4090 3952 3 MP
PP
c8
4090 3952 mt 3994 3968 L
3994 3968 mt 4045 4025 L
1 sg
-96 16 51 58 4039 3894 3 MP
PP
c8
4039 3894 mt 4090 3952 L
4090 3952 mt 3994 3968 L
1 sg
51 58 -96 16 4084 3820 3 MP
PP
c8
4084 3820 mt 3988 3836 L
3988 3836 mt 4039 3894 L
1 sg
-96 16 51 58 4033 3762 3 MP
PP
c8
4033 3762 mt 4084 3820 L
4084 3820 mt 3988 3836 L
1 sg
51 58 -95 17 4077 3687 3 MP
PP
c8
4077 3687 mt 3982 3704 L
3982 3704 mt 4033 3762 L
1 sg
-95 17 51 58 4026 3629 3 MP
PP
c9
4026 3629 mt 4077 3687 L
c8
4077 3687 mt 3982 3704 L
1 sg
-96 17 51 59 4020 3494 3 MP
PP
c9
4020 3494 mt 4071 3553 L
4071 3553 mt 3975 3570 L
1 sg
51 59 -96 17 4071 3553 3 MP
PP
c9
4071 3553 mt 3975 3570 L
3975 3570 mt 4026 3629 L
1 sg
-96 16 51 61 4014 3357 3 MP
PP
c9
4014 3357 mt 4065 3418 L
4065 3418 mt 3969 3434 L
1 sg
51 60 -96 16 4065 3418 3 MP
PP
c9
4065 3418 mt 3969 3434 L
3969 3434 mt 4020 3494 L
1 sg
-95 17 51 57 4007 4229 3 MP
PP
c8
4007 4229 mt 4058 4286 L
4058 4286 mt 3963 4303 L
1 sg
51 61 -95 16 4058 3280 3 MP
PP
c10
4058 3280 mt 3963 3296 L
3963 3296 mt 4014 3357 L
1 sg
-95 16 51 62 4007 3218 3 MP
PP
c10
4007 3218 mt 4058 3280 L
4058 3280 mt 3963 3296 L
1 sg
51 57 -96 16 4052 4156 3 MP
PP
c8
4052 4156 mt 3956 4172 L
3956 4172 mt 4007 4229 L
1 sg
-96 16 51 57 4001 4099 3 MP
PP
c8
4001 4099 mt 4052 4156 L
4052 4156 mt 3956 4172 L
1 sg
51 57 -95 17 4045 4025 3 MP
PP
c8
4045 4025 mt 3950 4042 L
3950 4042 mt 4001 4099 L
1 sg
-95 17 51 57 3994 3968 3 MP
PP
c8
3994 3968 mt 4045 4025 L
4045 4025 mt 3950 4042 L
1 sg
-96 17 51 58 3988 3836 3 MP
PP
c8
3988 3836 mt 4039 3894 L
4039 3894 mt 3943 3911 L
1 sg
51 57 -96 17 4039 3894 3 MP
PP
c8
4039 3894 mt 3943 3911 L
3943 3911 mt 3994 3968 L
1 sg
-96 16 51 58 3982 3704 3 MP
PP
c8
3982 3704 mt 4033 3762 L
4033 3762 mt 3937 3778 L
1 sg
51 58 -96 16 4033 3762 3 MP
PP
c8
4033 3762 mt 3937 3778 L
3937 3778 mt 3988 3836 L
1 sg
-95 16 51 59 3975 3570 3 MP
PP
c9
3975 3570 mt 4026 3629 L
4026 3629 mt 3931 3645 L
1 sg
51 59 -95 16 4026 3629 3 MP
PP
c9
4026 3629 mt 3931 3645 L
3931 3645 mt 3982 3704 L
1 sg
51 59 -96 17 4020 3494 3 MP
PP
c9
4020 3494 mt 3924 3511 L
3924 3511 mt 3975 3570 L
1 sg
-96 17 51 60 3969 3434 3 MP
PP
c9
3969 3434 mt 4020 3494 L
4020 3494 mt 3924 3511 L
1 sg
51 60 -96 17 4014 3357 3 MP
PP
c9
4014 3357 mt 3918 3374 L
3918 3374 mt 3969 3434 L
1 sg
-96 17 51 61 3963 3296 3 MP
PP
c10
3963 3296 mt 4014 3357 L
c9
4014 3357 mt 3918 3374 L
1 sg
-96 17 51 57 3956 4172 3 MP
PP
c8
3956 4172 mt 4007 4229 L
4007 4229 mt 3911 4246 L
1 sg
52 57 -96 17 4007 4229 3 MP
PP
c8
4007 4229 mt 3911 4246 L
3911 4246 mt 3963 4303 L
1 sg
-96 16 51 63 3956 3155 3 MP
PP
c10
3956 3155 mt 4007 3218 L
4007 3218 mt 3911 3234 L
1 sg
52 62 -96 16 4007 3218 3 MP
PP
c10
4007 3218 mt 3911 3234 L
3911 3234 mt 3963 3296 L
gr

c10
0 sg
%%IncludeResource: font Helvetica
/Helvetica /WindowsLatin1Encoding 240 FMSR

4006 5032 mt 
(x [mm]) s
gs 899 389 5363 4228 MR c np
1 sg
-96 17 51 57 3950 4042 3 MP
PP
c8
3950 4042 mt 4001 4099 L
4001 4099 mt 3905 4116 L
1 sg
51 56 -96 17 4001 4099 3 MP
PP
c8
4001 4099 mt 3905 4116 L
3905 4116 mt 3956 4172 L
1 sg
51 57 -95 17 3994 3968 3 MP
PP
c8
3994 3968 mt 3899 3985 L
3899 3985 mt 3950 4042 L
1 sg
-95 17 51 57 3943 3911 3 MP
PP
c8
3943 3911 mt 3994 3968 L
3994 3968 mt 3899 3985 L
1 sg
-96 17 51 58 3937 3778 3 MP
PP
c8
3937 3778 mt 3988 3836 L
3988 3836 mt 3892 3853 L
1 sg
51 58 -96 17 3988 3836 3 MP
PP
c8
3988 3836 mt 3892 3853 L
3892 3853 mt 3943 3911 L
1 sg
-96 16 51 59 3931 3645 3 MP
PP
c9
3931 3645 mt 3982 3704 L
c8
3982 3704 mt 3886 3720 L
1 sg
51 58 -96 16 3982 3704 3 MP
PP
c8
3982 3704 mt 3886 3720 L
3886 3720 mt 3937 3778 L
1 sg
51 59 -95 16 3975 3570 3 MP
PP
c9
3975 3570 mt 3880 3586 L
3880 3586 mt 3931 3645 L
1 sg
-95 16 51 59 3924 3511 3 MP
PP
c9
3924 3511 mt 3975 3570 L
3975 3570 mt 3880 3586 L
1 sg
51 60 -96 17 3969 3434 3 MP
PP
c9
3969 3434 mt 3873 3451 L
3873 3451 mt 3924 3511 L
1 sg
-96 17 51 60 3918 3374 3 MP
PP
c9
3918 3374 mt 3969 3434 L
3969 3434 mt 3873 3451 L
1 sg
-96 17 52 62 3911 3234 3 MP
PP
c10
3911 3234 mt 3963 3296 L
3963 3296 mt 3867 3313 L
1 sg
-96 16 52 57 3911 4246 3 MP
PP
c8
3911 4246 mt 3963 4303 L
3963 4303 mt 3867 4319 L
1 sg
51 61 -96 17 3963 3296 3 MP
PP
c10
3963 3296 mt 3867 3313 L
3867 3313 mt 3918 3374 L
1 sg
-96 17 51 56 3905 4116 3 MP
PP
c8
3905 4116 mt 3956 4172 L
3956 4172 mt 3860 4189 L
1 sg
51 63 -96 16 3956 3155 3 MP
PP
c10
3956 3155 mt 3860 3171 L
3860 3171 mt 3911 3234 L
1 sg
-96 16 51 65 3905 3090 3 MP
PP
/c11 { 0.000000 0.000000 0.750000 sr} bdef
c11
3905 3090 mt 3956 3155 L
c10
3956 3155 mt 3860 3171 L
1 sg
51 57 -96 17 3956 4172 3 MP
PP
c8
3956 4172 mt 3860 4189 L
3860 4189 mt 3911 4246 L
1 sg
-96 16 51 57 3899 3985 3 MP
PP
c8
3899 3985 mt 3950 4042 L
3950 4042 mt 3854 4058 L
1 sg
51 58 -96 16 3950 4042 3 MP
PP
c8
3950 4042 mt 3854 4058 L
3854 4058 mt 3905 4116 L
1 sg
-95 16 51 58 3892 3853 3 MP
PP
c8
3892 3853 mt 3943 3911 L
3943 3911 mt 3848 3927 L
1 sg
51 58 -95 16 3943 3911 3 MP
PP
c8
3943 3911 mt 3848 3927 L
3848 3927 mt 3899 3985 L
1 sg
51 58 -96 17 3937 3778 3 MP
PP
c8
3937 3778 mt 3841 3795 L
3841 3795 mt 3892 3853 L
1 sg
-96 17 51 58 3886 3720 3 MP
PP
c8
3886 3720 mt 3937 3778 L
3937 3778 mt 3841 3795 L
1 sg
51 58 -96 17 3931 3645 3 MP
PP
c9
3931 3645 mt 3835 3662 L
3835 3662 mt 3886 3720 L
1 sg
-96 17 51 59 3880 3586 3 MP
PP
c9
3880 3586 mt 3931 3645 L
3931 3645 mt 3835 3662 L
1 sg
-96 16 51 60 3873 3451 3 MP
PP
c9
3873 3451 mt 3924 3511 L
3924 3511 mt 3828 3527 L
1 sg
52 59 -96 16 3924 3511 3 MP
PP
c9
3924 3511 mt 3828 3527 L
3828 3527 mt 3880 3586 L
1 sg
-96 16 51 61 3867 3313 3 MP
PP
c10
3867 3313 mt 3918 3374 L
c9
3918 3374 mt 3822 3390 L
1 sg
51 61 -96 16 3918 3374 3 MP
PP
c9
3918 3374 mt 3822 3390 L
3822 3390 mt 3873 3451 L
1 sg
-95 16 51 57 3860 4189 3 MP
PP
c8
3860 4189 mt 3911 4246 L
3911 4246 mt 3816 4262 L
1 sg
-95 17 51 63 3860 3171 3 MP
PP
c10
3860 3171 mt 3911 3234 L
3911 3234 mt 3816 3251 L
1 sg
51 62 -95 17 3911 3234 3 MP
PP
c10
3911 3234 mt 3816 3251 L
3816 3251 mt 3867 3313 L
1 sg
51 57 -95 16 3911 4246 3 MP
PP
c8
3911 4246 mt 3816 4262 L
3816 4262 mt 3867 4319 L
1 sg
51 57 -96 16 3905 4116 3 MP
PP
c8
3905 4116 mt 3809 4132 L
3809 4132 mt 3860 4189 L
1 sg
-96 17 51 66 3854 3024 3 MP
PP
c11
3854 3024 mt 3905 3090 L
3905 3090 mt 3809 3107 L
1 sg
-96 16 51 58 3854 4058 3 MP
PP
c8
3854 4058 mt 3905 4116 L
3905 4116 mt 3809 4132 L
1 sg
51 64 -96 17 3905 3090 3 MP
PP
c11
3905 3090 mt 3809 3107 L
3809 3107 mt 3860 3171 L
1 sg
51 57 -96 16 3899 3985 3 MP
PP
c8
3899 3985 mt 3803 4001 L
3803 4001 mt 3854 4058 L
1 sg
-96 16 51 58 3848 3927 3 MP
PP
c8
3848 3927 mt 3899 3985 L
3899 3985 mt 3803 4001 L
1 sg
51 58 -95 16 3892 3853 3 MP
PP
c8
3892 3853 mt 3797 3869 L
3797 3869 mt 3848 3927 L
1 sg
-95 16 51 58 3841 3795 3 MP
PP
c8
3841 3795 mt 3892 3853 L
3892 3853 mt 3797 3869 L
1 sg
51 58 -96 17 3886 3720 3 MP
PP
c8
3886 3720 mt 3790 3737 L
3790 3737 mt 3841 3795 L
1 sg
-96 17 51 58 3835 3662 3 MP
PP
c9
3835 3662 mt 3886 3720 L
c8
3886 3720 mt 3790 3737 L
1 sg
-96 17 52 59 3828 3527 3 MP
PP
c9
3828 3527 mt 3880 3586 L
3880 3586 mt 3784 3603 L
1 sg
51 59 -96 17 3880 3586 3 MP
PP
c9
3880 3586 mt 3784 3603 L
3784 3603 mt 3835 3662 L
1 sg
51 60 -96 16 3873 3451 3 MP
PP
c9
3873 3451 mt 3777 3467 L
3777 3467 mt 3828 3527 L
1 sg
-96 16 51 61 3822 3390 3 MP
PP
c9
3822 3390 mt 3873 3451 L
3873 3451 mt 3777 3467 L
1 sg
-96 16 51 62 3816 3251 3 MP
PP
c10
3816 3251 mt 3867 3313 L
3867 3313 mt 3771 3329 L
1 sg
51 61 -96 16 3867 3313 3 MP
PP
c10
3867 3313 mt 3771 3329 L
3771 3329 mt 3822 3390 L
1 sg
-95 17 51 57 3809 4132 3 MP
PP
c8
3809 4132 mt 3860 4189 L
3860 4189 mt 3765 4206 L
1 sg
51 56 -95 17 3860 4189 3 MP
PP
c8
3860 4189 mt 3765 4206 L
3765 4206 mt 3816 4262 L
1 sg
-95 17 51 64 3809 3107 3 MP
PP
c11
3809 3107 mt 3860 3171 L
c10
3860 3171 mt 3765 3188 L
1 sg
51 63 -95 17 3860 3171 3 MP
PP
c10
3860 3171 mt 3765 3188 L
3765 3188 mt 3816 3251 L
1 sg
-96 17 51 57 3803 4001 3 MP
PP
c8
3803 4001 mt 3854 4058 L
3854 4058 mt 3758 4075 L
1 sg
51 57 -96 17 3854 4058 3 MP
PP
c8
3854 4058 mt 3758 4075 L
3758 4075 mt 3809 4132 L
1 sg
51 66 -96 17 3854 3024 3 MP
PP
c11
3854 3024 mt 3758 3041 L
3758 3041 mt 3809 3107 L
1 sg
-96 17 51 68 3803 2956 3 MP
PP
/c12 { 0.000000 0.000000 0.812500 sr} bdef
c12
3803 2956 mt 3854 3024 L
c11
3854 3024 mt 3758 3041 L
1 sg
-96 17 51 58 3797 3869 3 MP
PP
c8
3797 3869 mt 3848 3927 L
3848 3927 mt 3752 3944 L
1 sg
51 57 -96 17 3848 3927 3 MP
PP
c8
3848 3927 mt 3752 3944 L
3752 3944 mt 3803 4001 L
1 sg
-96 17 51 58 3790 3737 3 MP
PP
c8
3790 3737 mt 3841 3795 L
3841 3795 mt 3745 3812 L
1 sg
52 57 -96 17 3841 3795 3 MP
PP
c8
3841 3795 mt 3745 3812 L
3745 3812 mt 3797 3869 L
1 sg
51 59 -96 16 3835 3662 3 MP
PP
c9
3835 3662 mt 3739 3678 L
3739 3678 mt 3790 3737 L
1 sg
-96 16 51 59 3784 3603 3 MP
PP
c9
3784 3603 mt 3835 3662 L
3835 3662 mt 3739 3678 L
1 sg
51 59 -95 17 3828 3527 3 MP
PP
c9
3828 3527 mt 3733 3544 L
3733 3544 mt 3784 3603 L
1 sg
-95 17 51 60 3777 3467 3 MP
PP
c9
3777 3467 mt 3828 3527 L
3828 3527 mt 3733 3544 L
1 sg
-96 17 51 61 3771 3329 3 MP
PP
c10
3771 3329 mt 3822 3390 L
c9
3822 3390 mt 3726 3407 L
1 sg
51 60 -96 17 3822 3390 3 MP
PP
c9
3822 3390 mt 3726 3407 L
3726 3407 mt 3777 3467 L
1 sg
-96 16 51 63 3765 3188 3 MP
PP
c10
3765 3188 mt 3816 3251 L
3816 3251 mt 3720 3267 L
1 sg
51 62 -96 16 3816 3251 3 MP
PP
c10
3816 3251 mt 3720 3267 L
3720 3267 mt 3771 3329 L
1 sg
51 65 -95 16 3809 3107 3 MP
PP
c11
3809 3107 mt 3714 3123 L
3714 3123 mt 3765 3188 L
1 sg
-95 16 51 66 3758 3041 3 MP
PP
c11
3758 3041 mt 3809 3107 L
3809 3107 mt 3714 3123 L
1 sg
51 57 -95 17 3809 4132 3 MP
PP
c8
3809 4132 mt 3714 4149 L
3714 4149 mt 3765 4206 L
1 sg
-95 17 51 57 3758 4075 3 MP
PP
c8
3758 4075 mt 3809 4132 L
3809 4132 mt 3714 4149 L
1 sg
51 69 -96 16 3803 2956 3 MP
PP
c12
3803 2956 mt 3707 2972 L
3707 2972 mt 3758 3041 L
1 sg
51 57 -96 17 3803 4001 3 MP
PP
c8
3803 4001 mt 3707 4018 L
3707 4018 mt 3758 4075 L
1 sg
-96 17 51 57 3752 3944 3 MP
PP
c8
3752 3944 mt 3803 4001 L
3803 4001 mt 3707 4018 L
1 sg
-96 16 51 72 3752 2884 3 MP
PP
/c13 { 0.000000 0.000000 0.875000 sr} bdef
c13
3752 2884 mt 3803 2956 L
c12
3803 2956 mt 3707 2972 L
1 sg
51 58 -96 17 3797 3869 3 MP
PP
c8
3797 3869 mt 3701 3886 L
3701 3886 mt 3752 3944 L
1 sg
-96 17 52 57 3745 3812 3 MP
PP
c8
3745 3812 mt 3797 3869 L
3797 3869 mt 3701 3886 L
1 sg
-96 16 51 59 3739 3678 3 MP
PP
c9
3739 3678 mt 3790 3737 L
c8
3790 3737 mt 3694 3753 L
1 sg
51 59 -96 16 3790 3737 3 MP
PP
c8
3790 3737 mt 3694 3753 L
3694 3753 mt 3745 3812 L
1 sg
-96 16 51 59 3733 3544 3 MP
PP
c9
3733 3544 mt 3784 3603 L
3784 3603 mt 3688 3619 L
1 sg
51 59 -96 16 3784 3603 3 MP
PP
c9
3784 3603 mt 3688 3619 L
3688 3619 mt 3739 3678 L
1 sg
-95 17 51 60 3726 3407 3 MP
PP
c9
3726 3407 mt 3777 3467 L
3777 3467 mt 3682 3484 L
1 sg
51 60 -95 17 3777 3467 3 MP
PP
c9
3777 3467 mt 3682 3484 L
3682 3484 mt 3733 3544 L
1 sg
51 61 -96 17 3771 3329 3 MP
PP
c10
3771 3329 mt 3675 3346 L
3675 3346 mt 3726 3407 L
1 sg
-96 17 51 62 3720 3267 3 MP
PP
c10
3720 3267 mt 3771 3329 L
3771 3329 mt 3675 3346 L
1 sg
-96 16 51 65 3714 3123 3 MP
PP
c11
3714 3123 mt 3765 3188 L
c10
3765 3188 mt 3669 3204 L
1 sg
51 63 -96 16 3765 3188 3 MP
PP
c10
3765 3188 mt 3669 3204 L
3669 3204 mt 3720 3267 L
1 sg
52 58 -96 16 3758 4075 3 MP
PP
c8
3758 4075 mt 3662 4091 L
3662 4091 mt 3714 4149 L
1 sg
-96 16 51 57 3707 4018 3 MP
PP
c8
3707 4018 mt 3758 4075 L
3758 4075 mt 3662 4091 L
1 sg
52 66 -96 16 3758 3041 3 MP
PP
c11
3758 3041 mt 3662 3057 L
3662 3057 mt 3714 3123 L
1 sg
-96 16 51 69 3707 2972 3 MP
PP
c12
3707 2972 mt 3758 3041 L
c11
3758 3041 mt 3662 3057 L
1 sg
51 58 -96 16 3752 3944 3 MP
PP
c8
3752 3944 mt 3656 3960 L
3656 3960 mt 3707 4018 L
1 sg
-96 16 51 58 3701 3886 3 MP
PP
c8
3701 3886 mt 3752 3944 L
3752 3944 mt 3656 3960 L
1 sg
51 71 -96 17 3752 2884 3 MP
PP
c13
3752 2884 mt 3656 2901 L
3656 2901 mt 3707 2972 L
1 sg
-96 17 51 75 3701 2809 3 MP
PP
/c14 { 0.000000 0.000000 0.937500 sr} bdef
c14
3701 2809 mt 3752 2884 L
c13
3752 2884 mt 3656 2901 L
1 sg
-95 16 51 59 3694 3753 3 MP
PP
c8
3694 3753 mt 3745 3812 L
3745 3812 mt 3650 3828 L
1 sg
51 58 -95 16 3745 3812 3 MP
PP
c8
3745 3812 mt 3650 3828 L
3650 3828 mt 3701 3886 L
1 sg
51 58 -96 17 3739 3678 3 MP
PP
c9
3739 3678 mt 3643 3695 L
3643 3695 mt 3694 3753 L
1 sg
-96 17 51 59 3688 3619 3 MP
PP
c9
3688 3619 mt 3739 3678 L
3739 3678 mt 3643 3695 L
1 sg
51 59 -96 16 3733 3544 3 MP
PP
c9
3733 3544 mt 3637 3560 L
3637 3560 mt 3688 3619 L
1 sg
-96 16 51 60 3682 3484 3 MP
PP
c9
3682 3484 mt 3733 3544 L
3733 3544 mt 3637 3560 L
1 sg
-95 16 51 61 3675 3346 3 MP
PP
c10
3675 3346 mt 3726 3407 L
c9
3726 3407 mt 3631 3423 L
1 sg
51 61 -95 16 3726 3407 3 MP
PP
c9
3726 3407 mt 3631 3423 L
3631 3423 mt 3682 3484 L
1 sg
-96 17 51 63 3669 3204 3 MP
PP
c10
3669 3204 mt 3720 3267 L
3720 3267 mt 3624 3284 L
1 sg
51 62 -96 17 3720 3267 3 MP
PP
c10
3720 3267 mt 3624 3284 L
3624 3284 mt 3675 3346 L
1 sg
-96 17 52 66 3662 3057 3 MP
PP
c11
3662 3057 mt 3714 3123 L
3714 3123 mt 3618 3140 L
1 sg
51 64 -96 17 3714 3123 3 MP
PP
c11
3714 3123 mt 3618 3140 L
3618 3140 mt 3669 3204 L
1 sg
-96 16 51 58 3656 3960 3 MP
PP
c8
3656 3960 mt 3707 4018 L
3707 4018 mt 3611 4034 L
1 sg
-96 17 51 71 3656 2901 3 MP
PP
c13
3656 2901 mt 3707 2972 L
c12
3707 2972 mt 3611 2989 L
1 sg
51 68 -96 17 3707 2972 3 MP
PP
c12
3707 2972 mt 3611 2989 L
3611 2989 mt 3662 3057 L
1 sg
51 57 -96 16 3707 4018 3 MP
PP
c8
3707 4018 mt 3611 4034 L
3611 4034 mt 3662 4091 L
1 sg
-96 16 51 58 3650 3828 3 MP
PP
c8
3650 3828 mt 3701 3886 L
3701 3886 mt 3605 3902 L
1 sg
51 58 -96 16 3701 3886 3 MP
PP
c8
3701 3886 mt 3605 3902 L
3605 3902 mt 3656 3960 L
1 sg
51 75 -96 17 3701 2809 3 MP
PP
c14
3701 2809 mt 3605 2826 L
3605 2826 mt 3656 2901 L
1 sg
-96 17 51 81 3650 2728 3 MP
PP
/c15 { 0.000000 0.000000 1.000000 sr} bdef
c15
3650 2728 mt 3701 2809 L
c14
3701 2809 mt 3605 2826 L
1 sg
51 58 -95 17 3694 3753 3 MP
PP
c8
3694 3753 mt 3599 3770 L
3599 3770 mt 3650 3828 L
1 sg
-95 17 51 58 3643 3695 3 MP
PP
c9
3643 3695 mt 3694 3753 L
c8
3694 3753 mt 3599 3770 L
1 sg
51 59 -96 17 3688 3619 3 MP
PP
c9
3688 3619 mt 3592 3636 L
3592 3636 mt 3643 3695 L
1 sg
-96 17 51 59 3637 3560 3 MP
PP
c9
3637 3560 mt 3688 3619 L
3688 3619 mt 3592 3636 L
1 sg
51 60 -96 16 3682 3484 3 MP
PP
c9
3682 3484 mt 3586 3500 L
3586 3500 mt 3637 3560 L
1 sg
-96 16 51 61 3631 3423 3 MP
PP
c9
3631 3423 mt 3682 3484 L
3682 3484 mt 3586 3500 L
1 sg
-95 16 51 62 3624 3284 3 MP
PP
c10
3624 3284 mt 3675 3346 L
3675 3346 mt 3580 3362 L
1 sg
51 61 -95 16 3675 3346 3 MP
PP
c10
3675 3346 mt 3580 3362 L
3580 3362 mt 3631 3423 L
1 sg
51 63 -96 17 3669 3204 3 MP
PP
c10
3669 3204 mt 3573 3221 L
3573 3221 mt 3624 3284 L
1 sg
-96 17 51 64 3618 3140 3 MP
PP
c11
3618 3140 mt 3669 3204 L
c10
3669 3204 mt 3573 3221 L
1 sg
51 66 -95 17 3662 3057 3 MP
PP
c11
3662 3057 mt 3567 3074 L
3567 3074 mt 3618 3140 L
1 sg
-95 17 51 68 3611 2989 3 MP
PP
c12
3611 2989 mt 3662 3057 L
c11
3662 3057 mt 3567 3074 L
1 sg
-96 17 51 58 3605 3902 3 MP
PP
c8
3605 3902 mt 3656 3960 L
3656 3960 mt 3560 3977 L
1 sg
51 57 -96 17 3656 3960 3 MP
PP
c8
3656 3960 mt 3560 3977 L
3560 3977 mt 3611 4034 L
1 sg
51 72 -96 16 3656 2901 3 MP
PP
c13
3656 2901 mt 3560 2917 L
3560 2917 mt 3611 2989 L
1 sg
-96 16 51 75 3605 2826 3 MP
PP
c14
3605 2826 mt 3656 2901 L
c13
3656 2901 mt 3560 2917 L
1 sg
-96 17 51 58 3599 3770 3 MP
PP
c8
3599 3770 mt 3650 3828 L
3650 3828 mt 3554 3845 L
1 sg
51 82 -96 16 3650 2728 3 MP
PP
c15
3650 2728 mt 3554 2744 L
3554 2744 mt 3605 2826 L
1 sg
51 57 -96 17 3650 3828 3 MP
PP
c8
3650 3828 mt 3554 3845 L
3554 3845 mt 3605 3902 L
1 sg
-96 16 51 90 3599 2638 3 MP
PP
/c16 { 0.000000 0.062500 1.000000 sr} bdef
c16
3599 2638 mt 3650 2728 L
c15
3650 2728 mt 3554 2744 L
1 sg
51 59 -95 16 3643 3695 3 MP
PP
c9
3643 3695 mt 3548 3711 L
3548 3711 mt 3599 3770 L
1 sg
-95 16 51 59 3592 3636 3 MP
PP
c9
3592 3636 mt 3643 3695 L
3643 3695 mt 3548 3711 L
1 sg
-96 17 51 60 3586 3500 3 MP
PP
c9
3586 3500 mt 3637 3560 L
3637 3560 mt 3541 3577 L
1 sg
51 59 -96 17 3637 3560 3 MP
PP
c9
3637 3560 mt 3541 3577 L
3541 3577 mt 3592 3636 L
1 sg
51 60 -96 17 3631 3423 3 MP
PP
c9
3631 3423 mt 3535 3440 L
3535 3440 mt 3586 3500 L
1 sg
-96 17 51 61 3580 3362 3 MP
PP
c10
3580 3362 mt 3631 3423 L
c9
3631 3423 mt 3535 3440 L
1 sg
52 62 -96 16 3624 3284 3 MP
PP
c10
3624 3284 mt 3528 3300 L
3528 3300 mt 3580 3362 L
1 sg
-96 16 51 63 3573 3221 3 MP
PP
c10
3573 3221 mt 3624 3284 L
3624 3284 mt 3528 3300 L
1 sg
-96 16 51 66 3567 3074 3 MP
PP
c11
3567 3074 mt 3618 3140 L
3618 3140 mt 3522 3156 L
1 sg
51 65 -96 16 3618 3140 3 MP
PP
c11
3618 3140 mt 3522 3156 L
3522 3156 mt 3573 3221 L
1 sg
-95 16 51 72 3560 2917 3 MP
PP
c13
3560 2917 mt 3611 2989 L
c12
3611 2989 mt 3516 3005 L
1 sg
51 69 -95 16 3611 2989 3 MP
PP
c12
3611 2989 mt 3516 3005 L
3516 3005 mt 3567 3074 L
1 sg
51 58 -96 17 3605 3902 3 MP
PP
c8
3605 3902 mt 3509 3919 L
3509 3919 mt 3560 3977 L
1 sg
-96 17 51 57 3554 3845 3 MP
PP
c8
3554 3845 mt 3605 3902 L
3605 3902 mt 3509 3919 L
1 sg
-96 16 51 82 3554 2744 3 MP
PP
c15
3554 2744 mt 3605 2826 L
c14
3605 2826 mt 3509 2842 L
1 sg
51 75 -96 16 3605 2826 3 MP
PP
c14
3605 2826 mt 3509 2842 L
3509 2842 mt 3560 2917 L
1 sg
-96 17 51 104 3548 2534 3 MP
PP
/c17 { 0.000000 0.250000 1.000000 sr} bdef
c17
3548 2534 mt 3599 2638 L
c16
3599 2638 mt 3503 2655 L
1 sg
51 59 -96 16 3599 3770 3 MP
PP
c8
3599 3770 mt 3503 3786 L
3503 3786 mt 3554 3845 L
1 sg
-96 16 51 59 3548 3711 3 MP
PP
c9
3548 3711 mt 3599 3770 L
c8
3599 3770 mt 3503 3786 L
1 sg
51 89 -96 17 3599 2638 3 MP
PP
c16
3599 2638 mt 3503 2655 L
3503 2655 mt 3554 2744 L
1 sg
-95 16 51 59 3541 3577 3 MP
PP
c9
3541 3577 mt 3592 3636 L
3592 3636 mt 3497 3652 L
1 sg
51 59 -95 16 3592 3636 3 MP
PP
c9
3592 3636 mt 3497 3652 L
3497 3652 mt 3548 3711 L
1 sg
-96 17 51 60 3535 3440 3 MP
PP
c9
3535 3440 mt 3586 3500 L
3586 3500 mt 3490 3517 L
1 sg
51 60 -96 17 3586 3500 3 MP
PP
c9
3586 3500 mt 3490 3517 L
3490 3517 mt 3541 3577 L
1 sg
-96 17 52 62 3528 3300 3 MP
PP
c10
3528 3300 mt 3580 3362 L
3580 3362 mt 3484 3379 L
1 sg
51 61 -96 17 3580 3362 3 MP
PP
c10
3580 3362 mt 3484 3379 L
3484 3379 mt 3535 3440 L
1 sg
51 63 -96 16 3573 3221 3 MP
PP
c10
3573 3221 mt 3477 3237 L
3477 3237 mt 3528 3300 L
1 sg
-96 16 51 65 3522 3156 3 MP
PP
c11
3522 3156 mt 3573 3221 L
c10
3573 3221 mt 3477 3237 L
1 sg
51 66 -96 16 3567 3074 3 MP
PP
c11
3567 3074 mt 3471 3090 L
3471 3090 mt 3522 3156 L
1 sg
-96 16 51 69 3516 3005 3 MP
PP
c12
3516 3005 mt 3567 3074 L
c11
3567 3074 mt 3471 3090 L
1 sg
51 71 -95 17 3560 2917 3 MP
PP
c13
3560 2917 mt 3465 2934 L
3465 2934 mt 3516 3005 L
1 sg
-95 17 51 75 3509 2842 3 MP
PP
c14
3509 2842 mt 3560 2917 L
c13
3560 2917 mt 3465 2934 L
1 sg
-96 16 51 59 3503 3786 3 MP
PP
c8
3503 3786 mt 3554 3845 L
3554 3845 mt 3458 3861 L
1 sg
-96 17 51 89 3503 2655 3 MP
PP
c16
3503 2655 mt 3554 2744 L
c15
3554 2744 mt 3458 2761 L
1 sg
51 81 -96 17 3554 2744 3 MP
PP
c15
3554 2744 mt 3458 2761 L
3458 2761 mt 3509 2842 L
1 sg
51 58 -96 16 3554 3845 3 MP
PP
c8
3554 3845 mt 3458 3861 L
3458 3861 mt 3509 3919 L
1 sg
51 58 -96 17 3548 3711 3 MP
PP
c9
3548 3711 mt 3452 3728 L
3452 3728 mt 3503 3786 L
1 sg
51 104 -96 17 3548 2534 3 MP
PP
c17
3548 2534 mt 3452 2551 L
3452 2551 mt 3503 2655 L
1 sg
-96 17 51 128 3497 2406 3 MP
PP
/c18 { 0.000000 0.437500 1.000000 sr} bdef
c18
3497 2406 mt 3548 2534 L
c17
3548 2534 mt 3452 2551 L
1 sg
-96 17 51 59 3497 3652 3 MP
PP
c9
3497 3652 mt 3548 3711 L
3548 3711 mt 3452 3728 L
1 sg
52 59 -96 16 3541 3577 3 MP
PP
c9
3541 3577 mt 3445 3593 L
3445 3593 mt 3497 3652 L
1 sg
-96 16 51 60 3490 3517 3 MP
PP
c9
3490 3517 mt 3541 3577 L
3541 3577 mt 3445 3593 L
1 sg
-96 16 51 61 3484 3379 3 MP
PP
c10
3484 3379 mt 3535 3440 L
c9
3535 3440 mt 3439 3456 L
1 sg
51 61 -96 16 3535 3440 3 MP
PP
c9
3535 3440 mt 3439 3456 L
3439 3456 mt 3490 3517 L
1 sg
51 62 -95 17 3528 3300 3 MP
PP
c10
3528 3300 mt 3433 3317 L
3433 3317 mt 3484 3379 L
1 sg
-95 17 51 63 3477 3237 3 MP
PP
c10
3477 3237 mt 3528 3300 L
3528 3300 mt 3433 3317 L
1 sg
51 64 -96 17 3522 3156 3 MP
PP
c11
3522 3156 mt 3426 3173 L
3426 3173 mt 3477 3237 L
1 sg
-96 17 51 66 3471 3090 3 MP
PP
c11
3471 3090 mt 3522 3156 L
3522 3156 mt 3426 3173 L
1 sg
-96 17 51 71 3465 2934 3 MP
PP
c13
3465 2934 mt 3516 3005 L
c12
3516 3005 mt 3420 3022 L
1 sg
51 68 -96 17 3516 3005 3 MP
PP
c12
3516 3005 mt 3420 3022 L
3420 3022 mt 3471 3090 L
1 sg
-95 17 51 81 3458 2761 3 MP
PP
c15
3458 2761 mt 3509 2842 L
c14
3509 2842 mt 3414 2859 L
1 sg
51 75 -95 17 3509 2842 3 MP
PP
c14
3509 2842 mt 3414 2859 L
3414 2859 mt 3465 2934 L
1 sg
-96 16 51 104 3452 2551 3 MP
PP
c17
3452 2551 mt 3503 2655 L
c16
3503 2655 mt 3407 2671 L
1 sg
51 90 -96 16 3503 2655 3 MP
PP
c16
3503 2655 mt 3407 2671 L
3407 2671 mt 3458 2761 L
1 sg
51 58 -96 17 3503 3786 3 MP
PP
c8
3503 3786 mt 3407 3803 L
3407 3803 mt 3458 3861 L
1 sg
-96 17 51 58 3452 3728 3 MP
PP
c9
3452 3728 mt 3503 3786 L
c8
3503 3786 mt 3407 3803 L
1 sg
51 128 -96 17 3497 2406 3 MP
PP
c18
3497 2406 mt 3401 2423 L
3401 2423 mt 3452 2551 L
1 sg
51 59 -96 17 3497 3652 3 MP
PP
c9
3497 3652 mt 3401 3669 L
3401 3669 mt 3452 3728 L
1 sg
-96 17 52 59 3445 3593 3 MP
PP
c9
3445 3593 mt 3497 3652 L
3497 3652 mt 3401 3669 L
1 sg
-96 17 52 177 3445 2229 3 MP
PP
/c19 { 0.000000 0.750000 1.000000 sr} bdef
c19
3445 2229 mt 3497 2406 L
c18
3497 2406 mt 3401 2423 L
1 sg
-96 16 51 61 3439 3456 3 MP
PP
c9
3439 3456 mt 3490 3517 L
3490 3517 mt 3394 3533 L
1 sg
51 60 -96 16 3490 3517 3 MP
PP
c9
3490 3517 mt 3394 3533 L
3394 3533 mt 3445 3593 L
1 sg
-96 16 51 62 3433 3317 3 MP
PP
c10
3433 3317 mt 3484 3379 L
3484 3379 mt 3388 3395 L
1 sg
51 61 -96 16 3484 3379 3 MP
PP
c10
3484 3379 mt 3388 3395 L
3388 3395 mt 3439 3456 L
1 sg
51 63 -95 17 3477 3237 3 MP
PP
c10
3477 3237 mt 3382 3254 L
3382 3254 mt 3433 3317 L
1 sg
-95 17 51 64 3426 3173 3 MP
PP
c11
3426 3173 mt 3477 3237 L
c10
3477 3237 mt 3382 3254 L
1 sg
-96 17 51 68 3420 3022 3 MP
PP
c12
3420 3022 mt 3471 3090 L
c11
3471 3090 mt 3375 3107 L
1 sg
51 66 -96 17 3471 3090 3 MP
PP
c11
3471 3090 mt 3375 3107 L
3375 3107 mt 3426 3173 L
1 sg
51 72 -96 16 3465 2934 3 MP
PP
c13
3465 2934 mt 3369 2950 L
3369 2950 mt 3420 3022 L
1 sg
-96 16 51 75 3414 2859 3 MP
PP
c14
3414 2859 mt 3465 2934 L
c13
3465 2934 mt 3369 2950 L
1 sg
52 82 -96 16 3458 2761 3 MP
PP
c15
3458 2761 mt 3362 2777 L
3362 2777 mt 3414 2859 L
1 sg
-96 16 51 90 3407 2671 3 MP
PP
c16
3407 2671 mt 3458 2761 L
c15
3458 2761 mt 3362 2777 L
1 sg
-96 16 51 128 3401 2423 3 MP
PP
c18
3401 2423 mt 3452 2551 L
c17
3452 2551 mt 3356 2567 L
1 sg
-96 16 51 59 3401 3669 3 MP
PP
c9
3401 3669 mt 3452 3728 L
3452 3728 mt 3356 3744 L
1 sg
51 104 -96 16 3452 2551 3 MP
PP
c17
3452 2551 mt 3356 2567 L
3356 2567 mt 3407 2671 L
1 sg
51 59 -96 16 3452 3728 3 MP
PP
c9
3452 3728 mt 3356 3744 L
3356 3744 mt 3407 3803 L
1 sg
51 177 -95 17 3445 2229 3 MP
PP
c19
3445 2229 mt 3350 2246 L
3350 2246 mt 3401 2423 L
1 sg
-95 17 51 299 3394 1930 3 MP
PP
/c20 { 0.437500 1.000000 0.562500 sr} bdef
c20
3394 1930 mt 3445 2229 L
c19
3445 2229 mt 3350 2246 L
1 sg
51 59 -95 17 3445 3593 3 MP
PP
c9
3445 3593 mt 3350 3610 L
3350 3610 mt 3401 3669 L
1 sg
-95 17 51 60 3394 3533 3 MP
PP
c9
3394 3533 mt 3445 3593 L
3445 3593 mt 3350 3610 L
1 sg
51 60 -96 17 3439 3456 3 MP
PP
c9
3439 3456 mt 3343 3473 L
3343 3473 mt 3394 3533 L
1 sg
-96 17 51 61 3388 3395 3 MP
PP
c10
3388 3395 mt 3439 3456 L
c9
3439 3456 mt 3343 3473 L
1 sg
-96 16 51 63 3382 3254 3 MP
PP
c10
3382 3254 mt 3433 3317 L
3433 3317 mt 3337 3333 L
1 sg
51 62 -96 16 3433 3317 3 MP
PP
c10
3433 3317 mt 3337 3333 L
3337 3333 mt 3388 3395 L
1 sg
-95 16 51 66 3375 3107 3 MP
PP
c11
3375 3107 mt 3426 3173 L
3426 3173 mt 3331 3189 L
1 sg
51 65 -95 16 3426 3173 3 MP
PP
c11
3426 3173 mt 3331 3189 L
3331 3189 mt 3382 3254 L
1 sg
-96 16 51 72 3369 2950 3 MP
PP
c13
3369 2950 mt 3420 3022 L
c12
3420 3022 mt 3324 3038 L
1 sg
51 69 -96 16 3420 3022 3 MP
PP
c12
3420 3022 mt 3324 3038 L
3324 3038 mt 3375 3107 L
1 sg
51 75 -96 16 3414 2859 3 MP
PP
c14
3414 2859 mt 3318 2875 L
3318 2875 mt 3369 2950 L
1 sg
-96 16 52 82 3362 2777 3 MP
PP
c15
3362 2777 mt 3414 2859 L
c14
3414 2859 mt 3318 2875 L
1 sg
-96 17 51 104 3356 2567 3 MP
PP
c17
3356 2567 mt 3407 2671 L
c16
3407 2671 mt 3311 2688 L
1 sg
51 89 -96 17 3407 2671 3 MP
PP
c16
3407 2671 mt 3311 2688 L
3311 2688 mt 3362 2777 L
1 sg
51 128 -96 16 3401 2423 3 MP
PP
c18
3401 2423 mt 3305 2439 L
3305 2439 mt 3356 2567 L
1 sg
51 59 -96 16 3401 3669 3 MP
PP
c9
3401 3669 mt 3305 3685 L
3305 3685 mt 3356 3744 L
1 sg
-96 16 51 177 3350 2246 3 MP
PP
c19
3350 2246 mt 3401 2423 L
c18
3401 2423 mt 3305 2439 L
1 sg
-96 16 51 59 3350 3610 3 MP
PP
c9
3350 3610 mt 3401 3669 L
3401 3669 mt 3305 3685 L
1 sg
-95 17 51 786 3343 1144 3 MP
PP
/c21 { 0.500000 0.000000 0.000000 sr} bdef
c21
3343 1144 mt 3394 1930 L
c20
3394 1930 mt 3299 1947 L
1 sg
51 60 -95 17 3394 3533 3 MP
PP
c9
3394 3533 mt 3299 3550 L
3299 3550 mt 3350 3610 L
1 sg
-95 17 51 60 3343 3473 3 MP
PP
c9
3343 3473 mt 3394 3533 L
3394 3533 mt 3299 3550 L
1 sg
51 299 -95 17 3394 1930 3 MP
PP
c20
3394 1930 mt 3299 1947 L
3299 1947 mt 3350 2246 L
1 sg
51 61 -96 17 3388 3395 3 MP
PP
c10
3388 3395 mt 3292 3412 L
3292 3412 mt 3343 3473 L
1 sg
-96 17 51 62 3337 3333 3 MP
PP
c10
3337 3333 mt 3388 3395 L
3388 3395 mt 3292 3412 L
1 sg
-96 16 51 65 3331 3189 3 MP
PP
c11
3331 3189 mt 3382 3254 L
c10
3382 3254 mt 3286 3270 L
1 sg
51 63 -96 16 3382 3254 3 MP
PP
c10
3382 3254 mt 3286 3270 L
3286 3270 mt 3337 3333 L
1 sg
-96 16 51 69 3324 3038 3 MP
PP
c12
3324 3038 mt 3375 3107 L
c11
3375 3107 mt 3279 3123 L
1 sg
52 66 -96 16 3375 3107 3 MP
PP
c11
3375 3107 mt 3279 3123 L
3279 3123 mt 3331 3189 L
1 sg
-96 17 51 75 3318 2875 3 MP
PP
c14
3318 2875 mt 3369 2950 L
c13
3369 2950 mt 3273 2967 L
1 sg
51 71 -96 17 3369 2950 3 MP
PP
c13
3369 2950 mt 3273 2967 L
3273 2967 mt 3324 3038 L
1 sg
-95 17 51 89 3311 2688 3 MP
PP
c16
3311 2688 mt 3362 2777 L
c15
3362 2777 mt 3267 2794 L
1 sg
51 81 -95 17 3362 2777 3 MP
PP
c15
3362 2777 mt 3267 2794 L
3267 2794 mt 3318 2875 L
1 sg
-96 17 51 128 3305 2439 3 MP
PP
c18
3305 2439 mt 3356 2567 L
c17
3356 2567 mt 3260 2584 L
1 sg
51 104 -96 17 3356 2567 3 MP
PP
c17
3356 2567 mt 3260 2584 L
3260 2584 mt 3311 2688 L
1 sg
51 59 -96 16 3350 3610 3 MP
PP
c9
3350 3610 mt 3254 3626 L
3254 3626 mt 3305 3685 L
1 sg
-96 16 51 299 3299 1947 3 MP
PP
c20
3299 1947 mt 3350 2246 L
c19
3350 2246 mt 3254 2262 L
1 sg
51 177 -96 16 3350 2246 3 MP
PP
c19
3350 2246 mt 3254 2262 L
3254 2262 mt 3305 2439 L
1 sg
-96 16 51 60 3299 3550 3 MP
PP
c9
3299 3550 mt 3350 3610 L
3350 3610 mt 3254 3626 L
1 sg
-95 16 51 61 3292 3412 3 MP
PP
c10
3292 3412 mt 3343 3473 L
c9
3343 3473 mt 3248 3489 L
1 sg
51 61 -95 16 3343 3473 3 MP
PP
c9
3343 3473 mt 3248 3489 L
3248 3489 mt 3299 3550 L
1 sg
51 786 -95 17 3343 1144 3 MP
PP
c21
3343 1144 mt 3248 1161 L
3248 1161 mt 3299 1947 L
1 sg
51 62 -96 17 3337 3333 3 MP
PP
c10
3337 3333 mt 3241 3350 L
3241 3350 mt 3292 3412 L
1 sg
-96 17 51 63 3286 3270 3 MP
PP
c10
3286 3270 mt 3337 3333 L
3337 3333 mt 3241 3350 L
1 sg
-96 17 52 66 3279 3123 3 MP
PP
c11
3279 3123 mt 3331 3189 L
3331 3189 mt 3235 3206 L
1 sg
51 64 -96 17 3331 3189 3 MP
PP
c11
3331 3189 mt 3235 3206 L
3235 3206 mt 3286 3270 L
1 sg
-96 17 51 71 3273 2967 3 MP
PP
c13
3273 2967 mt 3324 3038 L
c12
3324 3038 mt 3228 3055 L
1 sg
51 68 -96 17 3324 3038 3 MP
PP
c12
3324 3038 mt 3228 3055 L
3228 3055 mt 3279 3123 L
1 sg
-96 17 51 81 3267 2794 3 MP
PP
c15
3267 2794 mt 3318 2875 L
c14
3318 2875 mt 3222 2892 L
1 sg
51 75 -96 17 3318 2875 3 MP
PP
c14
3318 2875 mt 3222 2892 L
3222 2892 mt 3273 2967 L
1 sg
-95 16 51 104 3260 2584 3 MP
PP
c17
3260 2584 mt 3311 2688 L
c16
3311 2688 mt 3216 2704 L
1 sg
51 90 -95 16 3311 2688 3 MP
PP
c16
3311 2688 mt 3216 2704 L
3216 2704 mt 3267 2794 L
1 sg
51 128 -96 17 3305 2439 3 MP
PP
c18
3305 2439 mt 3209 2456 L
3209 2456 mt 3260 2584 L
1 sg
-96 17 51 177 3254 2262 3 MP
PP
c19
3254 2262 mt 3305 2439 L
c18
3305 2439 mt 3209 2456 L
1 sg
-96 17 51 786 3248 1161 3 MP
PP
c21
3248 1161 mt 3299 1947 L
c20
3299 1947 mt 3203 1964 L
1 sg
51 298 -96 17 3299 1947 3 MP
PP
c20
3299 1947 mt 3203 1964 L
3203 1964 mt 3254 2262 L
1 sg
-96 16 51 61 3248 3489 3 MP
PP
c9
3248 3489 mt 3299 3550 L
3299 3550 mt 3203 3566 L
1 sg
51 60 -96 16 3299 3550 3 MP
PP
c9
3299 3550 mt 3203 3566 L
3203 3566 mt 3254 3626 L
1 sg
-95 16 51 62 3241 3350 3 MP
PP
c10
3241 3350 mt 3292 3412 L
3292 3412 mt 3197 3428 L
1 sg
51 61 -95 16 3292 3412 3 MP
PP
c10
3292 3412 mt 3197 3428 L
3197 3428 mt 3248 3489 L
1 sg
-96 17 51 64 3235 3206 3 MP
PP
c11
3235 3206 mt 3286 3270 L
c10
3286 3270 mt 3190 3287 L
1 sg
51 63 -96 17 3286 3270 3 MP
PP
c10
3286 3270 mt 3190 3287 L
3190 3287 mt 3241 3350 L
1 sg
-95 17 51 68 3228 3055 3 MP
PP
c12
3228 3055 mt 3279 3123 L
c11
3279 3123 mt 3184 3140 L
1 sg
51 66 -95 17 3279 3123 3 MP
PP
c11
3279 3123 mt 3184 3140 L
3184 3140 mt 3235 3206 L
1 sg
51 72 -96 16 3273 2967 3 MP
PP
c13
3273 2967 mt 3177 2983 L
3177 2983 mt 3228 3055 L
1 sg
-96 16 51 75 3222 2892 3 MP
PP
c14
3222 2892 mt 3273 2967 L
c13
3273 2967 mt 3177 2983 L
1 sg
51 82 -96 16 3267 2794 3 MP
PP
c15
3267 2794 mt 3171 2810 L
3171 2810 mt 3222 2892 L
1 sg
-96 16 51 90 3216 2704 3 MP
PP
c16
3216 2704 mt 3267 2794 L
c15
3267 2794 mt 3171 2810 L
1 sg
51 104 -95 16 3260 2584 3 MP
PP
c17
3260 2584 mt 3165 2600 L
3165 2600 mt 3216 2704 L
1 sg
-95 16 51 128 3209 2456 3 MP
PP
c18
3209 2456 mt 3260 2584 L
c17
3260 2584 mt 3165 2600 L
1 sg
-96 17 51 298 3203 1964 3 MP
PP
c20
3203 1964 mt 3254 2262 L
c19
3254 2262 mt 3158 2279 L
1 sg
51 177 -96 17 3254 2262 3 MP
PP
c19
3254 2262 mt 3158 2279 L
3158 2279 mt 3209 2456 L
1 sg
-96 17 51 61 3197 3428 3 MP
PP
c10
3197 3428 mt 3248 3489 L
c9
3248 3489 mt 3152 3506 L
1 sg
51 60 -96 17 3248 3489 3 MP
PP
c9
3248 3489 mt 3152 3506 L
3152 3506 mt 3203 3566 L
1 sg
51 787 -96 16 3248 1161 3 MP
PP
c21
3248 1161 mt 3152 1177 L
3152 1177 mt 3203 1964 L
1 sg
52 62 -96 16 3241 3350 3 MP
PP
c10
3241 3350 mt 3145 3366 L
3145 3366 mt 3197 3428 L
1 sg
-96 16 51 63 3190 3287 3 MP
PP
c10
3190 3287 mt 3241 3350 L
3241 3350 mt 3145 3366 L
1 sg
51 65 -96 16 3235 3206 3 MP
PP
c11
3235 3206 mt 3139 3222 L
3139 3222 mt 3190 3287 L
1 sg
-96 16 51 66 3184 3140 3 MP
PP
c11
3184 3140 mt 3235 3206 L
3235 3206 mt 3139 3222 L
1 sg
-95 16 51 72 3177 2983 3 MP
PP
c13
3177 2983 mt 3228 3055 L
c12
3228 3055 mt 3133 3071 L
1 sg
51 69 -95 16 3228 3055 3 MP
PP
c12
3228 3055 mt 3133 3071 L
3133 3071 mt 3184 3140 L
1 sg
-96 16 51 82 3171 2810 3 MP
PP
c15
3171 2810 mt 3222 2892 L
c14
3222 2892 mt 3126 2908 L
1 sg
51 75 -96 16 3222 2892 3 MP
PP
c14
3222 2892 mt 3126 2908 L
3126 2908 mt 3177 2983 L
1 sg
-96 17 51 104 3165 2600 3 MP
PP
c17
3165 2600 mt 3216 2704 L
c16
3216 2704 mt 3120 2721 L
1 sg
51 89 -96 17 3216 2704 3 MP
PP
c16
3216 2704 mt 3120 2721 L
3120 2721 mt 3171 2810 L
1 sg
-95 16 51 177 3158 2279 3 MP
PP
c19
3158 2279 mt 3209 2456 L
c18
3209 2456 mt 3114 2472 L
1 sg
51 128 -95 16 3209 2456 3 MP
PP
c18
3209 2456 mt 3114 2472 L
3114 2472 mt 3165 2600 L
1 sg
51 299 -96 16 3203 1964 3 MP
PP
c20
3203 1964 mt 3107 1980 L
3107 1980 mt 3158 2279 L
1 sg
-96 16 51 787 3152 1177 3 MP
PP
c21
3152 1177 mt 3203 1964 L
c20
3203 1964 mt 3107 1980 L
1 sg
51 61 -96 17 3197 3428 3 MP
PP
c10
3197 3428 mt 3101 3445 L
3101 3445 mt 3152 3506 L
1 sg
-96 17 52 62 3145 3366 3 MP
PP
c10
3145 3366 mt 3197 3428 L
3197 3428 mt 3101 3445 L
1 sg
51 63 -96 16 3190 3287 3 MP
PP
c10
3190 3287 mt 3094 3303 L
3094 3303 mt 3145 3366 L
1 sg
-96 16 51 65 3139 3222 3 MP
PP
c11
3139 3222 mt 3190 3287 L
c10
3190 3287 mt 3094 3303 L
1 sg
-96 16 51 69 3133 3071 3 MP
PP
c12
3133 3071 mt 3184 3140 L
c11
3184 3140 mt 3088 3156 L
1 sg
51 66 -96 16 3184 3140 3 MP
PP
c11
3184 3140 mt 3088 3156 L
3088 3156 mt 3139 3222 L
1 sg
-95 17 51 75 3126 2908 3 MP
PP
c14
3126 2908 mt 3177 2983 L
c13
3177 2983 mt 3082 3000 L
1 sg
51 71 -95 17 3177 2983 3 MP
PP
c13
3177 2983 mt 3082 3000 L
3082 3000 mt 3133 3071 L
1 sg
-96 17 51 89 3120 2721 3 MP
PP
c16
3120 2721 mt 3171 2810 L
c15
3171 2810 mt 3075 2827 L
1 sg
51 81 -96 17 3171 2810 3 MP
PP
c15
3171 2810 mt 3075 2827 L
3075 2827 mt 3126 2908 L
1 sg
51 104 -96 17 3165 2600 3 MP
PP
c17
3165 2600 mt 3069 2617 L
3069 2617 mt 3120 2721 L
1 sg
-96 17 51 128 3114 2472 3 MP
PP
c18
3114 2472 mt 3165 2600 L
c17
3165 2600 mt 3069 2617 L
1 sg
-96 16 51 299 3107 1980 3 MP
PP
c20
3107 1980 mt 3158 2279 L
c19
3158 2279 mt 3062 2295 L
1 sg
52 177 -96 16 3158 2279 3 MP
PP
c19
3158 2279 mt 3062 2295 L
3062 2295 mt 3114 2472 L
1 sg
51 786 -96 17 3152 1177 3 MP
PP
c21
3152 1177 mt 3056 1194 L
3056 1194 mt 3107 1980 L
1 sg
51 62 -95 17 3145 3366 3 MP
PP
c10
3145 3366 mt 3050 3383 L
3050 3383 mt 3101 3445 L
1 sg
-95 17 51 63 3094 3303 3 MP
PP
c10
3094 3303 mt 3145 3366 L
3145 3366 mt 3050 3383 L
1 sg
51 64 -96 17 3139 3222 3 MP
PP
c11
3139 3222 mt 3043 3239 L
3043 3239 mt 3094 3303 L
1 sg
-96 17 51 66 3088 3156 3 MP
PP
c11
3088 3156 mt 3139 3222 L
3139 3222 mt 3043 3239 L
1 sg
-96 17 51 71 3082 3000 3 MP
PP
c13
3082 3000 mt 3133 3071 L
c12
3133 3071 mt 3037 3088 L
1 sg
51 68 -96 17 3133 3071 3 MP
PP
c12
3133 3071 mt 3037 3088 L
3037 3088 mt 3088 3156 L
1 sg
-95 17 51 81 3075 2827 3 MP
PP
c15
3075 2827 mt 3126 2908 L
c14
3126 2908 mt 3031 2925 L
1 sg
51 75 -95 17 3126 2908 3 MP
PP
c14
3126 2908 mt 3031 2925 L
3031 2925 mt 3082 3000 L
1 sg
-96 16 51 104 3069 2617 3 MP
PP
c17
3069 2617 mt 3120 2721 L
c16
3120 2721 mt 3024 2737 L
1 sg
51 90 -96 16 3120 2721 3 MP
PP
c16
3120 2721 mt 3024 2737 L
3024 2737 mt 3075 2827 L
1 sg
51 128 -96 17 3114 2472 3 MP
PP
c18
3114 2472 mt 3018 2489 L
3018 2489 mt 3069 2617 L
1 sg
-96 17 52 177 3062 2295 3 MP
PP
c19
3062 2295 mt 3114 2472 L
c18
3114 2472 mt 3018 2489 L
1 sg
51 298 -96 17 3107 1980 3 MP
PP
c20
3107 1980 mt 3011 1997 L
3011 1997 mt 3062 2295 L
1 sg
-96 17 51 786 3056 1194 3 MP
PP
c21
3056 1194 mt 3107 1980 L
c20
3107 1980 mt 3011 1997 L
1 sg
51 63 -95 17 3094 3303 3 MP
PP
c10
3094 3303 mt 2999 3320 L
2999 3320 mt 3050 3383 L
1 sg
-95 17 51 64 3043 3239 3 MP
PP
c11
3043 3239 mt 3094 3303 L
c10
3094 3303 mt 2999 3320 L
1 sg
-96 17 51 68 3037 3088 3 MP
PP
c12
3037 3088 mt 3088 3156 L
c11
3088 3156 mt 2992 3173 L
1 sg
51 66 -96 17 3088 3156 3 MP
PP
c11
3088 3156 mt 2992 3173 L
2992 3173 mt 3043 3239 L
1 sg
-96 17 51 75 3031 2925 3 MP
PP
c14
3031 2925 mt 3082 3000 L
c13
3082 3000 mt 2986 3017 L
1 sg
51 71 -96 17 3082 3000 3 MP
PP
c13
3082 3000 mt 2986 3017 L
2986 3017 mt 3037 3088 L
1 sg
52 82 -96 16 3075 2827 3 MP
PP
c15
3075 2827 mt 2979 2843 L
2979 2843 mt 3031 2925 L
1 sg
-96 16 51 90 3024 2737 3 MP
PP
c16
3024 2737 mt 3075 2827 L
c15
3075 2827 mt 2979 2843 L
1 sg
51 104 -96 16 3069 2617 3 MP
PP
c17
3069 2617 mt 2973 2633 L
2973 2633 mt 3024 2737 L
1 sg
-96 16 51 128 3018 2489 3 MP
PP
c18
3018 2489 mt 3069 2617 L
c17
3069 2617 mt 2973 2633 L
1 sg
-95 17 51 298 3011 1997 3 MP
PP
c20
3011 1997 mt 3062 2295 L
c19
3062 2295 mt 2967 2312 L
1 sg
51 177 -95 17 3062 2295 3 MP
PP
c19
3062 2295 mt 2967 2312 L
2967 2312 mt 3018 2489 L
1 sg
51 787 -96 16 3056 1194 3 MP
PP
c21
3056 1194 mt 2960 1210 L
2960 1210 mt 3011 1997 L
1 sg
51 65 -95 16 3043 3239 3 MP
PP
c11
3043 3239 mt 2948 3255 L
2948 3255 mt 2999 3320 L
1 sg
-95 16 51 66 2992 3173 3 MP
PP
c11
2992 3173 mt 3043 3239 L
3043 3239 mt 2948 3255 L
1 sg
-96 16 51 71 2986 3017 3 MP
PP
c13
2986 3017 mt 3037 3088 L
c12
3037 3088 mt 2941 3104 L
1 sg
51 69 -96 16 3037 3088 3 MP
PP
c12
3037 3088 mt 2941 3104 L
2941 3104 mt 2992 3173 L
1 sg
-96 16 52 82 2979 2843 3 MP
PP
c15
2979 2843 mt 3031 2925 L
c14
3031 2925 mt 2935 2941 L
1 sg
51 76 -96 16 3031 2925 3 MP
PP
c14
3031 2925 mt 2935 2941 L
2935 2941 mt 2986 3017 L
1 sg
51 89 -96 17 3024 2737 3 MP
PP
c16
3024 2737 mt 2928 2754 L
2928 2754 mt 2979 2843 L
1 sg
-96 17 51 104 2973 2633 3 MP
PP
c17
2973 2633 mt 3024 2737 L
c16
3024 2737 mt 2928 2754 L
1 sg
-96 16 51 177 2967 2312 3 MP
PP
c19
2967 2312 mt 3018 2489 L
c18
3018 2489 mt 2922 2505 L
1 sg
51 128 -96 16 3018 2489 3 MP
PP
c18
3018 2489 mt 2922 2505 L
2922 2505 mt 2973 2633 L
1 sg
-95 16 51 787 2960 1210 3 MP
PP
c21
2960 1210 mt 3011 1997 L
c20
3011 1997 mt 2916 2013 L
1 sg
51 299 -95 16 3011 1997 3 MP
PP
c20
3011 1997 mt 2916 2013 L
2916 2013 mt 2967 2312 L
1 sg
52 66 -96 16 2992 3173 3 MP
PP
c11
2992 3173 mt 2896 3189 L
2896 3189 mt 2948 3255 L
1 sg
-96 16 51 69 2941 3104 3 MP
PP
c12
2941 3104 mt 2992 3173 L
c11
2992 3173 mt 2896 3189 L
1 sg
51 71 -96 16 2986 3017 3 MP
PP
c13
2986 3017 mt 2890 3033 L
2890 3033 mt 2941 3104 L
1 sg
-96 16 51 76 2935 2941 3 MP
PP
c14
2935 2941 mt 2986 3017 L
c13
2986 3017 mt 2890 3033 L
1 sg
-95 17 51 89 2928 2754 3 MP
PP
c16
2928 2754 mt 2979 2843 L
c15
2979 2843 mt 2884 2860 L
1 sg
51 81 -95 17 2979 2843 3 MP
PP
c15
2979 2843 mt 2884 2860 L
2884 2860 mt 2935 2941 L
1 sg
-96 17 51 128 2922 2505 3 MP
PP
c18
2922 2505 mt 2973 2633 L
c17
2973 2633 mt 2877 2650 L
1 sg
51 104 -96 17 2973 2633 3 MP
PP
c17
2973 2633 mt 2877 2650 L
2877 2650 mt 2928 2754 L
1 sg
51 177 -96 16 2967 2312 3 MP
PP
c19
2967 2312 mt 2871 2328 L
2871 2328 mt 2922 2505 L
1 sg
-96 16 51 299 2916 2013 3 MP
PP
c20
2916 2013 mt 2967 2312 L
c19
2967 2312 mt 2871 2328 L
1 sg
51 786 -95 17 2960 1210 3 MP
PP
c21
2960 1210 mt 2865 1227 L
2865 1227 mt 2916 2013 L
1 sg
-96 17 51 71 2890 3033 3 MP
PP
c13
2890 3033 mt 2941 3104 L
c12
2941 3104 mt 2845 3121 L
1 sg
51 68 -96 17 2941 3104 3 MP
PP
c12
2941 3104 mt 2845 3121 L
2845 3121 mt 2896 3189 L
1 sg
-96 17 51 81 2884 2860 3 MP
PP
c15
2884 2860 mt 2935 2941 L
c14
2935 2941 mt 2839 2958 L
1 sg
51 75 -96 17 2935 2941 3 MP
PP
c14
2935 2941 mt 2839 2958 L
2839 2958 mt 2890 3033 L
1 sg
-95 16 51 104 2877 2650 3 MP
PP
c17
2877 2650 mt 2928 2754 L
c16
2928 2754 mt 2833 2770 L
1 sg
51 90 -95 16 2928 2754 3 MP
PP
c16
2928 2754 mt 2833 2770 L
2833 2770 mt 2884 2860 L
1 sg
-96 17 51 177 2871 2328 3 MP
PP
c19
2871 2328 mt 2922 2505 L
c18
2922 2505 mt 2826 2522 L
1 sg
51 128 -96 17 2922 2505 3 MP
PP
c18
2922 2505 mt 2826 2522 L
2826 2522 mt 2877 2650 L
1 sg
-96 17 51 786 2865 1227 3 MP
PP
c21
2865 1227 mt 2916 2013 L
c20
2916 2013 mt 2820 2030 L
1 sg
51 298 -96 17 2916 2013 3 MP
PP
c20
2916 2013 mt 2820 2030 L
2820 2030 mt 2871 2328 L
1 sg
51 71 -96 17 2890 3033 3 MP
PP
c13
2890 3033 mt 2794 3050 L
2794 3050 mt 2845 3121 L
1 sg
-96 17 51 75 2839 2958 3 MP
PP
c14
2839 2958 mt 2890 3033 L
c13
2890 3033 mt 2794 3050 L
1 sg
51 81 -96 17 2884 2860 3 MP
PP
c15
2884 2860 mt 2788 2877 L
2788 2877 mt 2839 2958 L
1 sg
-96 17 51 90 2833 2770 3 MP
PP
c16
2833 2770 mt 2884 2860 L
c15
2884 2860 mt 2788 2877 L
1 sg
51 104 -95 16 2877 2650 3 MP
PP
c17
2877 2650 mt 2782 2666 L
2782 2666 mt 2833 2770 L
1 sg
-95 16 51 128 2826 2522 3 MP
PP
c18
2826 2522 mt 2877 2650 L
c17
2877 2650 mt 2782 2666 L
1 sg
51 177 -96 17 2871 2328 3 MP
PP
c19
2871 2328 mt 2775 2345 L
2775 2345 mt 2826 2522 L
1 sg
-96 17 51 298 2820 2030 3 MP
PP
c20
2820 2030 mt 2871 2328 L
c19
2871 2328 mt 2775 2345 L
1 sg
51 787 -96 16 2865 1227 3 MP
PP
c21
2865 1227 mt 2769 1243 L
2769 1243 mt 2820 2030 L
1 sg
-96 16 51 81 2788 2877 3 MP
PP
c15
2788 2877 mt 2839 2958 L
c14
2839 2958 mt 2743 2974 L
1 sg
51 76 -96 16 2839 2958 3 MP
PP
c14
2839 2958 mt 2743 2974 L
2743 2974 mt 2794 3050 L
1 sg
-96 17 51 104 2782 2666 3 MP
PP
c17
2782 2666 mt 2833 2770 L
c16
2833 2770 mt 2737 2787 L
1 sg
51 90 -96 17 2833 2770 3 MP
PP
c16
2833 2770 mt 2737 2787 L
2737 2787 mt 2788 2877 L
1 sg
51 128 -95 16 2826 2522 3 MP
PP
c18
2826 2522 mt 2731 2538 L
2731 2538 mt 2782 2666 L
1 sg
-95 16 51 177 2775 2345 3 MP
PP
c19
2775 2345 mt 2826 2522 L
c18
2826 2522 mt 2731 2538 L
1 sg
-96 16 51 787 2769 1243 3 MP
PP
c21
2769 1243 mt 2820 2030 L
c20
2820 2030 mt 2724 2046 L
1 sg
51 299 -96 16 2820 2030 3 MP
PP
c20
2820 2030 mt 2724 2046 L
2724 2046 mt 2775 2345 L
1 sg
-96 16 51 90 2737 2787 3 MP
PP
c16
2737 2787 mt 2788 2877 L
c15
2788 2877 mt 2692 2893 L
1 sg
51 81 -96 16 2788 2877 3 MP
PP
c15
2788 2877 mt 2692 2893 L
2692 2893 mt 2743 2974 L
1 sg
51 104 -96 17 2782 2666 3 MP
PP
c17
2782 2666 mt 2686 2683 L
2686 2683 mt 2737 2787 L
1 sg
-96 17 51 128 2731 2538 3 MP
PP
c18
2731 2538 mt 2782 2666 L
c17
2782 2666 mt 2686 2683 L
1 sg
52 177 -96 16 2775 2345 3 MP
PP
c19
2775 2345 mt 2679 2361 L
2679 2361 mt 2731 2538 L
1 sg
-96 16 51 299 2724 2046 3 MP
PP
c20
2724 2046 mt 2775 2345 L
c19
2775 2345 mt 2679 2361 L
1 sg
51 786 -96 17 2769 1243 3 MP
PP
c21
2769 1243 mt 2673 1260 L
2673 1260 mt 2724 2046 L
1 sg
51 90 -96 16 2737 2787 3 MP
PP
c16
2737 2787 mt 2641 2803 L
2641 2803 mt 2692 2893 L
1 sg
-96 16 51 104 2686 2683 3 MP
PP
c17
2686 2683 mt 2737 2787 L
c16
2737 2787 mt 2641 2803 L
1 sg
-96 17 52 177 2679 2361 3 MP
PP
c19
2679 2361 mt 2731 2538 L
c18
2731 2538 mt 2635 2555 L
1 sg
51 128 -96 17 2731 2538 3 MP
PP
c18
2731 2538 mt 2635 2555 L
2635 2555 mt 2686 2683 L
1 sg
-96 17 51 786 2673 1260 3 MP
PP
c21
2673 1260 mt 2724 2046 L
c20
2724 2046 mt 2628 2063 L
1 sg
51 298 -96 17 2724 2046 3 MP
PP
c20
2724 2046 mt 2628 2063 L
2628 2063 mt 2679 2361 L
1 sg
51 104 -96 16 2686 2683 3 MP
PP
c17
2686 2683 mt 2590 2699 L
2590 2699 mt 2641 2803 L
1 sg
-96 16 51 128 2635 2555 3 MP
PP
c18
2635 2555 mt 2686 2683 L
c17
2686 2683 mt 2590 2699 L
1 sg
51 177 -95 17 2679 2361 3 MP
PP
c19
2679 2361 mt 2584 2378 L
2584 2378 mt 2635 2555 L
1 sg
-95 17 51 298 2628 2063 3 MP
PP
c20
2628 2063 mt 2679 2361 L
c19
2679 2361 mt 2584 2378 L
1 sg
51 787 -96 16 2673 1260 3 MP
PP
c21
2673 1260 mt 2577 1276 L
2577 1276 mt 2628 2063 L
1 sg
-96 16 51 177 2584 2378 3 MP
PP
c19
2584 2378 mt 2635 2555 L
c18
2635 2555 mt 2539 2571 L
1 sg
51 128 -96 16 2635 2555 3 MP
PP
c18
2635 2555 mt 2539 2571 L
2539 2571 mt 2590 2699 L
1 sg
-95 16 51 787 2577 1276 3 MP
PP
c21
2577 1276 mt 2628 2063 L
c20
2628 2063 mt 2533 2079 L
1 sg
51 299 -95 16 2628 2063 3 MP
PP
c20
2628 2063 mt 2533 2079 L
2533 2079 mt 2584 2378 L
1 sg
-96 16 51 299 2533 2079 3 MP
PP
c20
2533 2079 mt 2584 2378 L
c19
2584 2378 mt 2488 2394 L
1 sg
51 177 -96 16 2584 2378 3 MP
PP
c19
2584 2378 mt 2488 2394 L
2488 2394 mt 2539 2571 L
1 sg
51 786 -95 17 2577 1276 3 MP
PP
c21
2577 1276 mt 2482 1293 L
2482 1293 mt 2533 2079 L
1 sg
51 298 -96 17 2533 2079 3 MP
PP
c20
2533 2079 mt 2437 2096 L
2437 2096 mt 2488 2394 L
1 sg
-96 17 51 786 2482 1293 3 MP
PP
c21
2482 1293 mt 2533 2079 L
c20
2533 2079 mt 2437 2096 L
1 sg
51 787 -96 16 2482 1293 3 MP
PP
c21
2482 1293 mt 2386 1309 L
2386 1309 mt 2437 2096 L
gr

c21
0 sg
1020 4937 mt 
(b [mm]) s
%%IncludeResource: font Symbol
/Symbol /WindowsLatin1Encoding 240 FMSR

 391 2426 mt  -90 rotate
(s) s
90 rotate
%%IncludeResource: font Helvetica
/Helvetica /WindowsLatin1Encoding 192 FMSR

 511 2282 mt  -90 rotate
(y) s
90 rotate
%%IncludeResource: font Helvetica
/Helvetica /WindowsLatin1Encoding 240 FMSR

 391 2186 mt  -90 rotate
( [mm]) s
90 rotate
gs 899 389 5363 4228 MR c np
gr


end %%Color Dict

eplot
%%EndObject

epage
end

showpage

%%Trailer
%%EOF
