%!PS-Adobe-2.0 EPSF-1.2
%%Creator: MATLAB, The Mathworks, Inc. Version 7.5.0.342 (R2007b). Operating System: Microsoft Windows Vista.
%%Title: .\SigmaZ_2.eps
%%CreationDate: 03/13/2013  11:39:09
%%DocumentNeededFonts: Helvetica
%%DocumentProcessColors: Cyan Magenta Yellow Black
%%Pages: 1
%%BoundingBox:    28   186   593   583
%%EndComments

%%BeginProlog
% MathWorks dictionary
/MathWorks 160 dict begin
% definition operators
/bdef {bind def} bind def
/ldef {load def} bind def
/xdef {exch def} bdef
/xstore {exch store} bdef
% operator abbreviations
/c  /clip ldef
/cc /concat ldef
/cp /closepath ldef
/gr /grestore ldef
/gs /gsave ldef
/mt /moveto ldef
/np /newpath ldef
/cm /currentmatrix ldef
/sm /setmatrix ldef
/rm /rmoveto ldef
/rl /rlineto ldef
/s {show newpath} bdef
/sc {setcmykcolor} bdef
/sr /setrgbcolor ldef
/sg /setgray ldef
/w /setlinewidth ldef
/j /setlinejoin ldef
/cap /setlinecap ldef
/rc {rectclip} bdef
/rf {rectfill} bdef
% page state control
/pgsv () def
/bpage {/pgsv save def} bdef
/epage {pgsv restore} bdef
/bplot /gsave ldef
/eplot {stroke grestore} bdef
% orientation switch
/portraitMode 0 def /landscapeMode 1 def /rotateMode 2 def
% coordinate system mappings
/dpi2point 0 def
% font control
/FontSize 0 def
/FMS {/FontSize xstore findfont [FontSize 0 0 FontSize neg 0 0]
  makefont setfont} bdef
/ISOLatin1Encoding where {pop /WindowsLatin1Encoding 256 array bdef
ISOLatin1Encoding WindowsLatin1Encoding copy pop
/.notdef/.notdef/quotesinglbase/florin/quotedblbase/ellipsis/dagger
/daggerdbl/circumflex/perthousand/Scaron/guilsinglleft/OE/.notdef/.notdef
/.notdef/.notdef/quoteleft/quoteright/quotedblleft/quotedblright/bullet
/endash/emdash/tilde/trademark/scaron/guilsinglright/oe/.notdef/.notdef
/Ydieresis WindowsLatin1Encoding 128 32 getinterval astore pop}
{/WindowsLatin1Encoding StandardEncoding bdef} ifelse
/reencode {exch dup where {pop load} {pop StandardEncoding} ifelse
  exch dup 3 1 roll findfont dup length dict begin
  { 1 index /FID ne {def}{pop pop} ifelse } forall
  /Encoding exch def currentdict end definefont pop} bdef
/isroman {findfont /CharStrings get /Agrave known} bdef
/FMSR {3 1 roll 1 index dup isroman {reencode} {pop pop} ifelse
  exch FMS} bdef
/csm {1 dpi2point div -1 dpi2point div scale neg translate
 dup landscapeMode eq {pop -90 rotate}
  {rotateMode eq {90 rotate} if} ifelse} bdef
% line types: solid, dotted, dashed, dotdash
/SO { [] 0 setdash } bdef
/DO { [.5 dpi2point mul 4 dpi2point mul] 0 setdash } bdef
/DA { [6 dpi2point mul] 0 setdash } bdef
/DD { [.5 dpi2point mul 4 dpi2point mul 6 dpi2point mul 4
  dpi2point mul] 0 setdash } bdef
% macros for lines and objects
/L {lineto stroke} bdef
/MP {3 1 roll moveto 1 sub {rlineto} repeat} bdef
/AP {{rlineto} repeat} bdef
/PDlw -1 def
/W {/PDlw currentlinewidth def setlinewidth} def
/PP {closepath eofill} bdef
/DP {closepath stroke} bdef
/MR {4 -2 roll moveto dup  0 exch rlineto exch 0 rlineto
  neg 0 exch rlineto closepath} bdef
/FR {MR stroke} bdef
/PR {MR fill} bdef
/L1i {{currentfile picstr readhexstring pop} image} bdef
/tMatrix matrix def
/MakeOval {newpath tMatrix currentmatrix pop translate scale
0 0 1 0 360 arc tMatrix setmatrix} bdef
/FO {MakeOval stroke} bdef
/PO {MakeOval fill} bdef
/PD {currentlinewidth 2 div 0 360 arc fill
   PDlw -1 eq not {PDlw w /PDlw -1 def} if} def
/FA {newpath tMatrix currentmatrix pop translate scale
  0 0 1 5 -2 roll arc tMatrix setmatrix stroke} bdef
/PA {newpath tMatrix currentmatrix pop	translate 0 0 moveto scale
  0 0 1 5 -2 roll arc closepath tMatrix setmatrix fill} bdef
/FAn {newpath tMatrix currentmatrix pop translate scale
  0 0 1 5 -2 roll arcn tMatrix setmatrix stroke} bdef
/PAn {newpath tMatrix currentmatrix pop translate 0 0 moveto scale
  0 0 1 5 -2 roll arcn closepath tMatrix setmatrix fill} bdef
/vradius 0 def /hradius 0 def /lry 0 def
/lrx 0 def /uly 0 def /ulx 0 def /rad 0 def
/MRR {/vradius xdef /hradius xdef /lry xdef /lrx xdef /uly xdef
  /ulx xdef newpath tMatrix currentmatrix pop ulx hradius add uly
  vradius add translate hradius vradius scale 0 0 1 180 270 arc 
  tMatrix setmatrix lrx hradius sub uly vradius add translate
  hradius vradius scale 0 0 1 270 360 arc tMatrix setmatrix
  lrx hradius sub lry vradius sub translate hradius vradius scale
  0 0 1 0 90 arc tMatrix setmatrix ulx hradius add lry vradius sub
  translate hradius vradius scale 0 0 1 90 180 arc tMatrix setmatrix
  closepath} bdef
/FRR {MRR stroke } bdef
/PRR {MRR fill } bdef
/MlrRR {/lry xdef /lrx xdef /uly xdef /ulx xdef /rad lry uly sub 2 div def
  newpath tMatrix currentmatrix pop ulx rad add uly rad add translate
  rad rad scale 0 0 1 90 270 arc tMatrix setmatrix lrx rad sub lry rad
  sub translate rad rad scale 0 0 1 270 90 arc tMatrix setmatrix
  closepath} bdef
/FlrRR {MlrRR stroke } bdef
/PlrRR {MlrRR fill } bdef
/MtbRR {/lry xdef /lrx xdef /uly xdef /ulx xdef /rad lrx ulx sub 2 div def
  newpath tMatrix currentmatrix pop ulx rad add uly rad add translate
  rad rad scale 0 0 1 180 360 arc tMatrix setmatrix lrx rad sub lry rad
  sub translate rad rad scale 0 0 1 0 180 arc tMatrix setmatrix
  closepath} bdef
/FtbRR {MtbRR stroke } bdef
/PtbRR {MtbRR fill } bdef
/stri 6 array def /dtri 6 array def
/smat 6 array def /dmat 6 array def
/tmat1 6 array def /tmat2 6 array def /dif 3 array def
/asub {/ind2 exch def /ind1 exch def dup dup
  ind1 get exch ind2 get sub exch } bdef
/tri_to_matrix {
  2 0 asub 3 1 asub 4 0 asub 5 1 asub
  dup 0 get exch 1 get 7 -1 roll astore } bdef
/compute_transform {
  dmat dtri tri_to_matrix tmat1 invertmatrix 
  smat stri tri_to_matrix tmat2 concatmatrix } bdef
/ds {stri astore pop} bdef
/dt {dtri astore pop} bdef
/db {2 copy /cols xdef /rows xdef mul dup string
  currentfile exch readhexstring pop
  /bmap xdef pop pop} bdef
/it {gs np dtri aload pop moveto lineto lineto cp c
  cols rows 8 compute_transform 
  {bmap} image gr}bdef
/il {newpath moveto lineto stroke}bdef
currentdict end def
%%EndProlog

%%BeginSetup
MathWorks begin

0 cap

end
%%EndSetup

%%Page: 1 1
%%BeginPageSetup
%%PageBoundingBox:    28   186   593   583
MathWorks begin
bpage
%%EndPageSetup

%%BeginObject: obj1
bplot

/dpi2point 12 def
portraitMode 0216 7344 csm

  124   341  6780  4770 MR c np
85 dict begin %Colortable dictionary
/c0 { 0.000000 0.000000 0.000000 sr} bdef
/c1 { 1.000000 1.000000 1.000000 sr} bdef
/c2 { 0.900000 0.000000 0.000000 sr} bdef
/c3 { 0.000000 0.820000 0.000000 sr} bdef
/c4 { 0.000000 0.000000 0.800000 sr} bdef
/c5 { 0.910000 0.820000 0.320000 sr} bdef
/c6 { 1.000000 0.260000 0.820000 sr} bdef
/c7 { 0.000000 0.820000 0.820000 sr} bdef
c0
1 j
1 sg
   0    0 6919 5187 PR
6 w
-1532 -1652 -3830 661 1532 1651 4729 2304 4 MP
PP
3830 -660 -1532 -1652 -3830 661 1532 1651 4729 2304 5 MP stroke
0 1915 1532 1651 0 -1915 4729 2304 4 MP
PP
-1532 -1651 0 1915 1532 1651 0 -1915 4729 2304 5 MP stroke
0 1915 -3830 660 0 -1915 4729 2304 4 MP
PP
3830 -660 0 1915 -3830 660 0 -1915 4729 2304 5 MP stroke
4 w
DO
0 sg
6261 3955 mt 4729 2304 L
4729 2304 mt 4729  389 L
5303 4120 mt 3771 2469 L
3771 2469 mt 3771  554 L
4346 4285 mt 2814 2634 L
2814 2634 mt 2814  719 L
3388 4450 mt 1856 2799 L
1856 2799 mt 1856  884 L
2431 4616 mt  899 2964 L
 899 2964 mt  899 1049 L
 899 2964 mt 4729 2304 L
4729 2304 mt 4729  389 L
1409 3515 mt 5239 2854 L
5239 2854 mt 5239  939 L
1920 4065 mt 5750 3405 L
5750 3405 mt 5750 1489 L
2431 4616 mt 6261 3955 L
6261 3955 mt 6261 2040 L
 899 2964 mt 4729 2304 L
4729 2304 mt 6261 3955 L
 899 2581 mt 4729 1921 L
4729 1921 mt 6261 3572 L
 899 2198 mt 4729 1538 L
4729 1538 mt 6261 3189 L
 899 1815 mt 4729 1155 L
4729 1155 mt 6261 2806 L
 899 1432 mt 4729  772 L
4729  772 mt 6261 2423 L
 899 1049 mt 4729  389 L
4729  389 mt 6261 2040 L
SO
6 w
6261 3955 mt 2431 4616 L
 899 2964 mt 2431 4616 L
 899 2964 mt  899 1049 L
6261 3955 mt 6327 4026 L
%%IncludeResource: font Helvetica
/Helvetica /WindowsLatin1Encoding 180 FMSR

6350 4219 mt 
(-1000) s
5303 4120 mt 5369 4191 L
5393 4384 mt 
(-500) s
4346 4285 mt 4412 4356 L
4435 4549 mt 
(0) s
3388 4450 mt 3454 4522 L
3478 4714 mt 
(500) s
2431 4616 mt 2497 4687 L
2520 4879 mt 
(1000) s
 899 2964 mt  803 2981 L
 669 3154 mt 
(0) s
1409 3515 mt 1313 3531 L
 979 3704 mt 
(100) s
1920 4065 mt 1824 4082 L
1490 4254 mt 
(200) s
2431 4616 mt 2335 4632 L
2001 4805 mt 
(300) s
 899 2964 mt  832 2893 L
 709 2934 mt 
(0) s
 899 2581 mt  832 2510 L
 609 2551 mt 
(10) s
 899 2198 mt  832 2127 L
 609 2168 mt 
(20) s
 899 1815 mt  832 1744 L
 609 1785 mt 
(30) s
 899 1432 mt  832 1361 L
 609 1401 mt 
(40) s
 899 1049 mt  832  978 L
 609 1018 mt 
(50) s
gs 899 389 5363 4228 MR c np
1 sg
-95 17 51 57 4773 4092 3 MP
PP
/c8 { 0.000000 0.000000 0.562500 sr} bdef
c8
4773 4092 mt 4824 4149 L
4824 4149 mt 4729 4166 L
1 sg
-96 17 51 57 4722 4035 3 MP
PP
c8
4722 4035 mt 4773 4092 L
4773 4092 mt 4677 4109 L
1 sg
52 57 -96 17 4773 4092 3 MP
PP
c8
4773 4092 mt 4677 4109 L
4677 4109 mt 4729 4166 L
1 sg
-96 16 52 57 4677 4109 3 MP
PP
c8
4677 4109 mt 4729 4166 L
4729 4166 mt 4633 4182 L
1 sg
-96 17 51 57 4671 3978 3 MP
PP
c8
4671 3978 mt 4722 4035 L
4722 4035 mt 4626 4052 L
1 sg
51 57 -96 17 4722 4035 3 MP
PP
c8
4722 4035 mt 4626 4052 L
4626 4052 mt 4677 4109 L
1 sg
-95 16 51 57 4626 4052 3 MP
PP
c8
4626 4052 mt 4677 4109 L
4677 4109 mt 4582 4125 L
1 sg
51 57 -95 16 4677 4109 3 MP
PP
c8
4677 4109 mt 4582 4125 L
4582 4125 mt 4633 4182 L
1 sg
51 57 -96 17 4671 3978 3 MP
PP
c8
4671 3978 mt 4575 3995 L
4575 3995 mt 4626 4052 L
1 sg
-96 17 51 57 4620 3921 3 MP
PP
c8
4620 3921 mt 4671 3978 L
4671 3978 mt 4575 3995 L
1 sg
-96 17 51 57 4582 4125 3 MP
PP
c8
4582 4125 mt 4633 4182 L
4633 4182 mt 4537 4199 L
1 sg
-95 16 51 57 4575 3995 3 MP
PP
c8
4575 3995 mt 4626 4052 L
4626 4052 mt 4531 4068 L
1 sg
51 57 -95 16 4626 4052 3 MP
PP
c8
4626 4052 mt 4531 4068 L
4531 4068 mt 4582 4125 L
1 sg
-96 16 51 58 4569 3863 3 MP
PP
c8
4569 3863 mt 4620 3921 L
4620 3921 mt 4524 3937 L
1 sg
51 58 -96 16 4620 3921 3 MP
PP
c8
4620 3921 mt 4524 3937 L
4524 3937 mt 4575 3995 L
1 sg
-96 17 51 57 4531 4068 3 MP
PP
c8
4531 4068 mt 4582 4125 L
4582 4125 mt 4486 4142 L
1 sg
51 57 -96 17 4582 4125 3 MP
PP
c8
4582 4125 mt 4486 4142 L
4486 4142 mt 4537 4199 L
1 sg
-95 16 51 58 4524 3937 3 MP
PP
c8
4524 3937 mt 4575 3995 L
4575 3995 mt 4480 4011 L
1 sg
51 57 -95 16 4575 3995 3 MP
PP
c8
4575 3995 mt 4480 4011 L
4480 4011 mt 4531 4068 L
1 sg
51 57 -96 17 4569 3863 3 MP
PP
c8
4569 3863 mt 4473 3880 L
4473 3880 mt 4524 3937 L
1 sg
-96 17 51 57 4518 3806 3 MP
PP
c8
4518 3806 mt 4569 3863 L
4569 3863 mt 4473 3880 L
1 sg
-96 16 51 57 4486 4142 3 MP
PP
c8
4486 4142 mt 4537 4199 L
4537 4199 mt 4441 4215 L
1 sg
51 57 -96 17 4531 4068 3 MP
PP
c8
4531 4068 mt 4435 4085 L
4435 4085 mt 4486 4142 L
1 sg
-96 17 51 57 4480 4011 3 MP
PP
c8
4480 4011 mt 4531 4068 L
4531 4068 mt 4435 4085 L
1 sg
52 57 -96 17 4524 3937 3 MP
PP
c8
4524 3937 mt 4428 3954 L
4428 3954 mt 4480 4011 L
1 sg
-96 17 51 57 4473 3880 3 MP
PP
c8
4473 3880 mt 4524 3937 L
4524 3937 mt 4428 3954 L
1 sg
51 58 -96 16 4518 3806 3 MP
PP
c8
4518 3806 mt 4422 3822 L
4422 3822 mt 4473 3880 L
1 sg
-96 16 51 58 4467 3748 3 MP
PP
c8
4467 3748 mt 4518 3806 L
4518 3806 mt 4422 3822 L
1 sg
51 57 -96 16 4486 4142 3 MP
PP
c8
4486 4142 mt 4390 4158 L
4390 4158 mt 4441 4215 L
1 sg
-96 16 51 57 4435 4085 3 MP
PP
c8
4435 4085 mt 4486 4142 L
4486 4142 mt 4390 4158 L
1 sg
-96 17 52 57 4428 3954 3 MP
PP
c8
4428 3954 mt 4480 4011 L
4480 4011 mt 4384 4028 L
1 sg
51 57 -96 17 4480 4011 3 MP
PP
c8
4480 4011 mt 4384 4028 L
4384 4028 mt 4435 4085 L
1 sg
51 58 -96 16 4473 3880 3 MP
PP
c8
4473 3880 mt 4377 3896 L
4377 3896 mt 4428 3954 L
1 sg
-96 16 51 58 4422 3822 3 MP
PP
c8
4422 3822 mt 4473 3880 L
4473 3880 mt 4377 3896 L
1 sg
-96 16 51 59 4416 3689 3 MP
PP
c8
4416 3689 mt 4467 3748 L
4467 3748 mt 4371 3764 L
1 sg
51 58 -96 16 4467 3748 3 MP
PP
c8
4467 3748 mt 4371 3764 L
4371 3764 mt 4422 3822 L
1 sg
-95 17 51 57 4390 4158 3 MP
PP
c8
4390 4158 mt 4441 4215 L
4441 4215 mt 4346 4232 L
1 sg
-96 16 51 57 4384 4028 3 MP
PP
c8
4384 4028 mt 4435 4085 L
4435 4085 mt 4339 4101 L
1 sg
51 57 -96 16 4435 4085 3 MP
PP
c8
4435 4085 mt 4339 4101 L
4339 4101 mt 4390 4158 L
1 sg
51 58 -95 16 4428 3954 3 MP
PP
c8
4428 3954 mt 4333 3970 L
4333 3970 mt 4384 4028 L
1 sg
-95 16 51 58 4377 3896 3 MP
PP
c8
4377 3896 mt 4428 3954 L
4428 3954 mt 4333 3970 L
1 sg
51 57 -96 17 4422 3822 3 MP
PP
c8
4422 3822 mt 4326 3839 L
4326 3839 mt 4377 3896 L
1 sg
-96 17 51 58 4371 3764 3 MP
PP
c8
4371 3764 mt 4422 3822 L
4422 3822 mt 4326 3839 L
1 sg
-96 17 51 58 4365 3631 3 MP
PP
c8
4365 3631 mt 4416 3689 L
4416 3689 mt 4320 3706 L
1 sg
51 58 -96 17 4416 3689 3 MP
PP
c8
4416 3689 mt 4320 3706 L
4320 3706 mt 4371 3764 L
1 sg
52 57 -96 17 4390 4158 3 MP
PP
c8
4390 4158 mt 4294 4175 L
4294 4175 mt 4346 4232 L
1 sg
-96 17 51 57 4339 4101 3 MP
PP
c8
4339 4101 mt 4390 4158 L
4390 4158 mt 4294 4175 L
1 sg
-96 16 51 58 4333 3970 3 MP
PP
c8
4333 3970 mt 4384 4028 L
4384 4028 mt 4288 4044 L
1 sg
51 57 -96 16 4384 4028 3 MP
PP
c8
4384 4028 mt 4288 4044 L
4288 4044 mt 4339 4101 L
1 sg
-95 17 51 57 4326 3839 3 MP
PP
c8
4326 3839 mt 4377 3896 L
4377 3896 mt 4282 3913 L
1 sg
51 57 -95 17 4377 3896 3 MP
PP
c8
4377 3896 mt 4282 3913 L
4282 3913 mt 4333 3970 L
1 sg
51 58 -96 17 4371 3764 3 MP
PP
c8
4371 3764 mt 4275 3781 L
4275 3781 mt 4326 3839 L
1 sg
-96 17 51 58 4320 3706 3 MP
PP
c8
4320 3706 mt 4371 3764 L
4371 3764 mt 4275 3781 L
1 sg
-96 16 51 59 4314 3572 3 MP
PP
/c9 { 0.000000 0.000000 0.625000 sr} bdef
c9
4314 3572 mt 4365 3631 L
c8
4365 3631 mt 4269 3647 L
1 sg
51 59 -96 16 4365 3631 3 MP
PP
c8
4365 3631 mt 4269 3647 L
4269 3647 mt 4320 3706 L
1 sg
-96 16 52 57 4294 4175 3 MP
PP
c8
4294 4175 mt 4346 4232 L
4346 4232 mt 4250 4248 L
1 sg
-96 17 51 57 4288 4044 3 MP
PP
c8
4288 4044 mt 4339 4101 L
4339 4101 mt 4243 4118 L
1 sg
51 57 -96 17 4339 4101 3 MP
PP
c8
4339 4101 mt 4243 4118 L
4243 4118 mt 4294 4175 L
1 sg
51 57 -96 17 4333 3970 3 MP
PP
c8
4333 3970 mt 4237 3987 L
4237 3987 mt 4288 4044 L
1 sg
-96 17 51 57 4282 3913 3 MP
PP
c8
4282 3913 mt 4333 3970 L
4333 3970 mt 4237 3987 L
1 sg
-95 16 51 58 4275 3781 3 MP
PP
c8
4275 3781 mt 4326 3839 L
4326 3839 mt 4231 3855 L
1 sg
51 58 -95 16 4326 3839 3 MP
PP
c8
4326 3839 mt 4231 3855 L
4231 3855 mt 4282 3913 L
1 sg
-96 16 51 59 4269 3647 3 MP
PP
c8
4269 3647 mt 4320 3706 L
4320 3706 mt 4224 3722 L
1 sg
51 59 -96 16 4320 3706 3 MP
PP
c8
4320 3706 mt 4224 3722 L
4224 3722 mt 4275 3781 L
1 sg
-96 16 51 59 4263 3513 3 MP
PP
c9
4263 3513 mt 4314 3572 L
4314 3572 mt 4218 3588 L
1 sg
51 59 -96 16 4314 3572 3 MP
PP
c9
4314 3572 mt 4218 3588 L
4218 3588 mt 4269 3647 L
1 sg
51 57 -95 16 4294 4175 3 MP
PP
c8
4294 4175 mt 4199 4191 L
4199 4191 mt 4250 4248 L
1 sg
-95 16 51 57 4243 4118 3 MP
PP
c8
4243 4118 mt 4294 4175 L
4294 4175 mt 4199 4191 L
1 sg
51 57 -96 17 4288 4044 3 MP
PP
c8
4288 4044 mt 4192 4061 L
4192 4061 mt 4243 4118 L
1 sg
-96 17 51 57 4237 3987 3 MP
PP
c8
4237 3987 mt 4288 4044 L
4288 4044 mt 4192 4061 L
1 sg
51 58 -96 16 4282 3913 3 MP
PP
c8
4282 3913 mt 4186 3929 L
4186 3929 mt 4237 3987 L
1 sg
-96 16 51 58 4231 3855 3 MP
PP
c8
4231 3855 mt 4282 3913 L
4282 3913 mt 4186 3929 L
1 sg
51 58 -95 16 4275 3781 3 MP
PP
c8
4275 3781 mt 4180 3797 L
4180 3797 mt 4231 3855 L
1 sg
-95 16 51 59 4224 3722 3 MP
PP
c8
4224 3722 mt 4275 3781 L
4275 3781 mt 4180 3797 L
1 sg
51 58 -96 17 4269 3647 3 MP
PP
c8
4269 3647 mt 4173 3664 L
4173 3664 mt 4224 3722 L
1 sg
-96 17 51 59 4218 3588 3 MP
PP
c9
4218 3588 mt 4269 3647 L
c8
4269 3647 mt 4173 3664 L
1 sg
51 59 -96 16 4263 3513 3 MP
PP
c9
4263 3513 mt 4167 3529 L
4167 3529 mt 4218 3588 L
1 sg
-96 16 52 60 4211 3453 3 MP
PP
c9
4211 3453 mt 4263 3513 L
4263 3513 mt 4167 3529 L
1 sg
-96 17 51 57 4199 4191 3 MP
PP
c8
4199 4191 mt 4250 4248 L
4250 4248 mt 4154 4265 L
1 sg
-95 16 51 57 4192 4061 3 MP
PP
c8
4192 4061 mt 4243 4118 L
4243 4118 mt 4148 4134 L
1 sg
51 57 -95 16 4243 4118 3 MP
PP
c8
4243 4118 mt 4148 4134 L
4148 4134 mt 4199 4191 L
1 sg
-96 16 51 58 4186 3929 3 MP
PP
c8
4186 3929 mt 4237 3987 L
4237 3987 mt 4141 4003 L
1 sg
51 58 -96 16 4237 3987 3 MP
PP
c8
4237 3987 mt 4141 4003 L
4141 4003 mt 4192 4061 L
1 sg
-96 17 51 58 4180 3797 3 MP
PP
c8
4180 3797 mt 4231 3855 L
4231 3855 mt 4135 3872 L
1 sg
51 57 -96 17 4231 3855 3 MP
PP
c8
4231 3855 mt 4135 3872 L
4135 3872 mt 4186 3929 L
1 sg
-96 17 51 58 4173 3664 3 MP
PP
c8
4173 3664 mt 4224 3722 L
4224 3722 mt 4128 3739 L
1 sg
52 58 -96 17 4224 3722 3 MP
PP
c8
4224 3722 mt 4128 3739 L
4128 3739 mt 4180 3797 L
1 sg
51 59 -96 17 4218 3588 3 MP
PP
c9
4218 3588 mt 4122 3605 L
4122 3605 mt 4173 3664 L
1 sg
-96 17 51 59 4167 3529 3 MP
PP
c9
4167 3529 mt 4218 3588 L
4218 3588 mt 4122 3605 L
1 sg
51 60 -95 16 4211 3453 3 MP
PP
c9
4211 3453 mt 4116 3469 L
4116 3469 mt 4167 3529 L
1 sg
-95 16 51 60 4160 3393 3 MP
PP
c9
4160 3393 mt 4211 3453 L
4211 3453 mt 4116 3469 L
1 sg
-96 17 51 57 4148 4134 3 MP
PP
c8
4148 4134 mt 4199 4191 L
4199 4191 mt 4103 4208 L
1 sg
51 57 -96 17 4199 4191 3 MP
PP
c8
4199 4191 mt 4103 4208 L
4103 4208 mt 4154 4265 L
1 sg
-95 16 51 58 4141 4003 3 MP
PP
c8
4141 4003 mt 4192 4061 L
4192 4061 mt 4097 4077 L
1 sg
51 57 -95 16 4192 4061 3 MP
PP
c8
4192 4061 mt 4097 4077 L
4097 4077 mt 4148 4134 L
1 sg
51 57 -96 17 4186 3929 3 MP
PP
c8
4186 3929 mt 4090 3946 L
4090 3946 mt 4141 4003 L
1 sg
-96 17 51 57 4135 3872 3 MP
PP
c8
4135 3872 mt 4186 3929 L
4186 3929 mt 4090 3946 L
1 sg
51 58 -96 17 4180 3797 3 MP
PP
c8
4180 3797 mt 4084 3814 L
4084 3814 mt 4135 3872 L
1 sg
-96 17 52 58 4128 3739 3 MP
PP
c8
4128 3739 mt 4180 3797 L
4180 3797 mt 4084 3814 L
1 sg
51 59 -96 16 4173 3664 3 MP
PP
c8
4173 3664 mt 4077 3680 L
4077 3680 mt 4128 3739 L
1 sg
-96 16 51 59 4122 3605 3 MP
PP
c9
4122 3605 mt 4173 3664 L
c8
4173 3664 mt 4077 3680 L
1 sg
-96 17 51 60 4116 3469 3 MP
PP
c9
4116 3469 mt 4167 3529 L
4167 3529 mt 4071 3546 L
1 sg
51 59 -96 17 4167 3529 3 MP
PP
c9
4167 3529 mt 4071 3546 L
4071 3546 mt 4122 3605 L
1 sg
51 60 -95 16 4160 3393 3 MP
PP
c9
4160 3393 mt 4065 3409 L
4065 3409 mt 4116 3469 L
1 sg
-95 16 51 61 4109 3332 3 MP
PP
c9
4109 3332 mt 4160 3393 L
4160 3393 mt 4065 3409 L
1 sg
-96 16 51 57 4103 4208 3 MP
PP
c8
4103 4208 mt 4154 4265 L
4154 4265 mt 4058 4281 L
1 sg
-96 17 51 57 4097 4077 3 MP
PP
c8
4097 4077 mt 4148 4134 L
4148 4134 mt 4052 4151 L
1 sg
51 57 -96 17 4148 4134 3 MP
PP
c8
4148 4134 mt 4052 4151 L
4052 4151 mt 4103 4208 L
1 sg
52 57 -96 17 4141 4003 3 MP
PP
c8
4141 4003 mt 4045 4020 L
4045 4020 mt 4097 4077 L
1 sg
-96 17 51 57 4090 3946 3 MP
PP
c8
4090 3946 mt 4141 4003 L
4141 4003 mt 4045 4020 L
1 sg
51 58 -96 16 4135 3872 3 MP
PP
c8
4135 3872 mt 4039 3888 L
4039 3888 mt 4090 3946 L
1 sg
-96 16 51 58 4084 3814 3 MP
PP
c8
4084 3814 mt 4135 3872 L
4135 3872 mt 4039 3888 L
1 sg
51 59 -95 16 4128 3739 3 MP
PP
c8
4128 3739 mt 4033 3755 L
4033 3755 mt 4084 3814 L
1 sg
-95 16 51 59 4077 3680 3 MP
PP
c8
4077 3680 mt 4128 3739 L
4128 3739 mt 4033 3755 L
1 sg
-96 17 51 59 4071 3546 3 MP
PP
c9
4071 3546 mt 4122 3605 L
4122 3605 mt 4026 3622 L
1 sg
51 58 -96 17 4122 3605 3 MP
PP
c9
4122 3605 mt 4026 3622 L
4026 3622 mt 4077 3680 L
1 sg
-96 17 51 60 4065 3409 3 MP
PP
c9
4065 3409 mt 4116 3469 L
4116 3469 mt 4020 3486 L
1 sg
51 60 -96 17 4116 3469 3 MP
PP
c9
4116 3469 mt 4020 3486 L
4020 3486 mt 4071 3546 L
1 sg
-95 16 51 62 4058 3270 3 MP
PP
/c10 { 0.000000 0.000000 0.687500 sr} bdef
c10
4058 3270 mt 4109 3332 L
c9
4109 3332 mt 4014 3348 L
1 sg
51 61 -95 16 4109 3332 3 MP
PP
c9
4109 3332 mt 4014 3348 L
4014 3348 mt 4065 3409 L
1 sg
-96 16 51 57 4052 4151 3 MP
PP
c8
4052 4151 mt 4103 4208 L
4103 4208 mt 4007 4224 L
1 sg
51 57 -96 16 4103 4208 3 MP
PP
c8
4103 4208 mt 4007 4224 L
4007 4224 mt 4058 4281 L
1 sg
-96 17 52 57 4045 4020 3 MP
PP
c8
4045 4020 mt 4097 4077 L
4097 4077 mt 4001 4094 L
1 sg
51 57 -96 17 4097 4077 3 MP
PP
c8
4097 4077 mt 4001 4094 L
4001 4094 mt 4052 4151 L
1 sg
51 58 -96 16 4090 3946 3 MP
PP
c8
4090 3946 mt 3994 3962 L
3994 3962 mt 4045 4020 L
1 sg
-96 16 51 58 4039 3888 3 MP
PP
c8
4039 3888 mt 4090 3946 L
4090 3946 mt 3994 3962 L
1 sg
51 58 -96 16 4084 3814 3 MP
PP
c8
4084 3814 mt 3988 3830 L
3988 3830 mt 4039 3888 L
1 sg
-96 16 51 59 4033 3755 3 MP
PP
c8
4033 3755 mt 4084 3814 L
4084 3814 mt 3988 3830 L
1 sg
51 58 -95 17 4077 3680 3 MP
PP
c8
4077 3680 mt 3982 3697 L
3982 3697 mt 4033 3755 L
1 sg
-95 17 51 58 4026 3622 3 MP
PP
c9
4026 3622 mt 4077 3680 L
c8
4077 3680 mt 3982 3697 L
1 sg
-96 16 51 60 4020 3486 3 MP
PP
c9
4020 3486 mt 4071 3546 L
4071 3546 mt 3975 3562 L
1 sg
51 60 -96 16 4071 3546 3 MP
PP
c9
4071 3546 mt 3975 3562 L
3975 3562 mt 4026 3622 L
1 sg
-96 17 51 61 4014 3348 3 MP
PP
c9
4014 3348 mt 4065 3409 L
4065 3409 mt 3969 3426 L
1 sg
51 60 -96 17 4065 3409 3 MP
PP
c9
4065 3409 mt 3969 3426 L
3969 3426 mt 4020 3486 L
1 sg
-95 17 51 57 4007 4224 3 MP
PP
c8
4007 4224 mt 4058 4281 L
4058 4281 mt 3963 4298 L
1 sg
51 62 -95 16 4058 3270 3 MP
PP
c10
4058 3270 mt 3963 3286 L
3963 3286 mt 4014 3348 L
1 sg
-95 16 51 63 4007 3207 3 MP
PP
c10
4007 3207 mt 4058 3270 L
4058 3270 mt 3963 3286 L
1 sg
51 57 -96 16 4052 4151 3 MP
PP
c8
4052 4151 mt 3956 4167 L
3956 4167 mt 4007 4224 L
1 sg
-96 16 51 57 4001 4094 3 MP
PP
c8
4001 4094 mt 4052 4151 L
4052 4151 mt 3956 4167 L
1 sg
51 58 -95 16 4045 4020 3 MP
PP
c8
4045 4020 mt 3950 4036 L
3950 4036 mt 4001 4094 L
1 sg
-95 16 51 58 3994 3962 3 MP
PP
c8
3994 3962 mt 4045 4020 L
4045 4020 mt 3950 4036 L
1 sg
-96 17 51 58 3988 3830 3 MP
PP
c8
3988 3830 mt 4039 3888 L
4039 3888 mt 3943 3905 L
1 sg
51 57 -96 17 4039 3888 3 MP
PP
c8
4039 3888 mt 3943 3905 L
3943 3905 mt 3994 3962 L
1 sg
-96 17 51 58 3982 3697 3 MP
PP
c8
3982 3697 mt 4033 3755 L
4033 3755 mt 3937 3772 L
1 sg
51 58 -96 17 4033 3755 3 MP
PP
c8
4033 3755 mt 3937 3772 L
3937 3772 mt 3988 3830 L
1 sg
-95 16 51 60 3975 3562 3 MP
PP
c9
3975 3562 mt 4026 3622 L
4026 3622 mt 3931 3638 L
1 sg
51 59 -95 16 4026 3622 3 MP
PP
c9
4026 3622 mt 3931 3638 L
3931 3638 mt 3982 3697 L
1 sg
51 60 -96 16 4020 3486 3 MP
PP
c9
4020 3486 mt 3924 3502 L
3924 3502 mt 3975 3562 L
1 sg
-96 16 51 60 3969 3426 3 MP
PP
c9
3969 3426 mt 4020 3486 L
4020 3486 mt 3924 3502 L
1 sg
51 61 -96 17 4014 3348 3 MP
PP
c9
4014 3348 mt 3918 3365 L
3918 3365 mt 3969 3426 L
1 sg
-96 17 51 62 3963 3286 3 MP
PP
c10
3963 3286 mt 4014 3348 L
c9
4014 3348 mt 3918 3365 L
1 sg
-96 17 51 57 3956 4167 3 MP
PP
c8
3956 4167 mt 4007 4224 L
4007 4224 mt 3911 4241 L
1 sg
52 57 -96 17 4007 4224 3 MP
PP
c8
4007 4224 mt 3911 4241 L
3911 4241 mt 3963 4298 L
1 sg
-96 17 51 64 3956 3143 3 MP
PP
c10
3956 3143 mt 4007 3207 L
4007 3207 mt 3911 3224 L
1 sg
52 62 -96 17 4007 3207 3 MP
PP
c10
4007 3207 mt 3911 3224 L
3911 3224 mt 3963 3286 L
gr

c10
0 sg
%%IncludeResource: font Helvetica
/Helvetica /WindowsLatin1Encoding 240 FMSR

4006 5032 mt 
(x [mm]) s
gs 899 389 5363 4228 MR c np
1 sg
-96 16 51 58 3950 4036 3 MP
PP
c8
3950 4036 mt 4001 4094 L
4001 4094 mt 3905 4110 L
1 sg
51 57 -96 16 4001 4094 3 MP
PP
c8
4001 4094 mt 3905 4110 L
3905 4110 mt 3956 4167 L
1 sg
51 57 -95 17 3994 3962 3 MP
PP
c8
3994 3962 mt 3899 3979 L
3899 3979 mt 3950 4036 L
1 sg
-95 17 51 57 3943 3905 3 MP
PP
c8
3943 3905 mt 3994 3962 L
3994 3962 mt 3899 3979 L
1 sg
-96 17 51 58 3937 3772 3 MP
PP
c8
3937 3772 mt 3988 3830 L
3988 3830 mt 3892 3847 L
1 sg
51 58 -96 17 3988 3830 3 MP
PP
c8
3988 3830 mt 3892 3847 L
3892 3847 mt 3943 3905 L
1 sg
-96 16 51 59 3931 3638 3 MP
PP
c9
3931 3638 mt 3982 3697 L
c8
3982 3697 mt 3886 3713 L
1 sg
51 59 -96 16 3982 3697 3 MP
PP
c8
3982 3697 mt 3886 3713 L
3886 3713 mt 3937 3772 L
1 sg
51 59 -95 17 3975 3562 3 MP
PP
c9
3975 3562 mt 3880 3579 L
3880 3579 mt 3931 3638 L
1 sg
-95 17 51 60 3924 3502 3 MP
PP
c9
3924 3502 mt 3975 3562 L
3975 3562 mt 3880 3579 L
1 sg
51 60 -96 16 3969 3426 3 MP
PP
c9
3969 3426 mt 3873 3442 L
3873 3442 mt 3924 3502 L
1 sg
-96 16 51 61 3918 3365 3 MP
PP
c9
3918 3365 mt 3969 3426 L
3969 3426 mt 3873 3442 L
1 sg
-96 17 52 62 3911 3224 3 MP
PP
c10
3911 3224 mt 3963 3286 L
3963 3286 mt 3867 3303 L
1 sg
-96 16 52 57 3911 4241 3 MP
PP
c8
3911 4241 mt 3963 4298 L
3963 4298 mt 3867 4314 L
1 sg
51 62 -96 17 3963 3286 3 MP
PP
c10
3963 3286 mt 3867 3303 L
3867 3303 mt 3918 3365 L
1 sg
-96 17 51 57 3905 4110 3 MP
PP
c8
3905 4110 mt 3956 4167 L
3956 4167 mt 3860 4184 L
1 sg
51 64 -96 17 3956 3143 3 MP
PP
c10
3956 3143 mt 3860 3160 L
3860 3160 mt 3911 3224 L
1 sg
-96 17 51 65 3905 3078 3 MP
PP
/c11 { 0.000000 0.000000 0.750000 sr} bdef
c11
3905 3078 mt 3956 3143 L
c10
3956 3143 mt 3860 3160 L
1 sg
51 57 -96 17 3956 4167 3 MP
PP
c8
3956 4167 mt 3860 4184 L
3860 4184 mt 3911 4241 L
1 sg
-96 17 51 57 3899 3979 3 MP
PP
c8
3899 3979 mt 3950 4036 L
3950 4036 mt 3854 4053 L
1 sg
51 57 -96 17 3950 4036 3 MP
PP
c8
3950 4036 mt 3854 4053 L
3854 4053 mt 3905 4110 L
1 sg
-95 16 51 58 3892 3847 3 MP
PP
c8
3892 3847 mt 3943 3905 L
3943 3905 mt 3848 3921 L
1 sg
51 58 -95 16 3943 3905 3 MP
PP
c8
3943 3905 mt 3848 3921 L
3848 3921 mt 3899 3979 L
1 sg
51 59 -96 16 3937 3772 3 MP
PP
c8
3937 3772 mt 3841 3788 L
3841 3788 mt 3892 3847 L
1 sg
-96 16 51 59 3886 3713 3 MP
PP
c8
3886 3713 mt 3937 3772 L
3937 3772 mt 3841 3788 L
1 sg
51 58 -96 17 3931 3638 3 MP
PP
c9
3931 3638 mt 3835 3655 L
3835 3655 mt 3886 3713 L
1 sg
-96 17 51 59 3880 3579 3 MP
PP
c9
3880 3579 mt 3931 3638 L
3931 3638 mt 3835 3655 L
1 sg
-96 17 51 60 3873 3442 3 MP
PP
c9
3873 3442 mt 3924 3502 L
3924 3502 mt 3828 3519 L
1 sg
52 60 -96 17 3924 3502 3 MP
PP
c9
3924 3502 mt 3828 3519 L
3828 3519 mt 3880 3579 L
1 sg
-96 16 51 62 3867 3303 3 MP
PP
c10
3867 3303 mt 3918 3365 L
c9
3918 3365 mt 3822 3381 L
1 sg
51 61 -96 16 3918 3365 3 MP
PP
c9
3918 3365 mt 3822 3381 L
3822 3381 mt 3873 3442 L
1 sg
-95 16 51 57 3860 4184 3 MP
PP
c8
3860 4184 mt 3911 4241 L
3911 4241 mt 3816 4257 L
1 sg
-95 16 51 64 3860 3160 3 MP
PP
c10
3860 3160 mt 3911 3224 L
3911 3224 mt 3816 3240 L
1 sg
51 63 -95 16 3911 3224 3 MP
PP
c10
3911 3224 mt 3816 3240 L
3816 3240 mt 3867 3303 L
1 sg
51 57 -95 16 3911 4241 3 MP
PP
c8
3911 4241 mt 3816 4257 L
3816 4257 mt 3867 4314 L
1 sg
51 57 -96 17 3905 4110 3 MP
PP
c8
3905 4110 mt 3809 4127 L
3809 4127 mt 3860 4184 L
1 sg
-96 17 51 67 3854 3011 3 MP
PP
c11
3854 3011 mt 3905 3078 L
3905 3078 mt 3809 3095 L
1 sg
-96 17 51 57 3854 4053 3 MP
PP
c8
3854 4053 mt 3905 4110 L
3905 4110 mt 3809 4127 L
1 sg
51 65 -96 17 3905 3078 3 MP
PP
c11
3905 3078 mt 3809 3095 L
3809 3095 mt 3860 3160 L
1 sg
51 58 -96 16 3899 3979 3 MP
PP
c8
3899 3979 mt 3803 3995 L
3803 3995 mt 3854 4053 L
1 sg
-96 16 51 58 3848 3921 3 MP
PP
c8
3848 3921 mt 3899 3979 L
3899 3979 mt 3803 3995 L
1 sg
51 58 -95 16 3892 3847 3 MP
PP
c8
3892 3847 mt 3797 3863 L
3797 3863 mt 3848 3921 L
1 sg
-95 16 51 59 3841 3788 3 MP
PP
c8
3841 3788 mt 3892 3847 L
3892 3847 mt 3797 3863 L
1 sg
51 58 -96 17 3886 3713 3 MP
PP
c8
3886 3713 mt 3790 3730 L
3790 3730 mt 3841 3788 L
1 sg
-96 17 51 58 3835 3655 3 MP
PP
c9
3835 3655 mt 3886 3713 L
c8
3886 3713 mt 3790 3730 L
1 sg
-96 16 52 60 3828 3519 3 MP
PP
c9
3828 3519 mt 3880 3579 L
3880 3579 mt 3784 3595 L
1 sg
51 60 -96 16 3880 3579 3 MP
PP
c9
3880 3579 mt 3784 3595 L
3784 3595 mt 3835 3655 L
1 sg
51 60 -96 17 3873 3442 3 MP
PP
c9
3873 3442 mt 3777 3459 L
3777 3459 mt 3828 3519 L
1 sg
-96 17 51 61 3822 3381 3 MP
PP
c9
3822 3381 mt 3873 3442 L
3873 3442 mt 3777 3459 L
1 sg
51 61 -96 17 3867 3303 3 MP
PP
c10
3867 3303 mt 3771 3320 L
3771 3320 mt 3822 3381 L
1 sg
-96 17 51 63 3816 3240 3 MP
PP
c10
3816 3240 mt 3867 3303 L
3867 3303 mt 3771 3320 L
1 sg
51 57 -95 16 3860 4184 3 MP
PP
c8
3860 4184 mt 3765 4200 L
3765 4200 mt 3816 4257 L
1 sg
51 64 -95 16 3860 3160 3 MP
PP
c10
3860 3160 mt 3765 3176 L
3765 3176 mt 3816 3240 L
1 sg
-95 16 51 65 3809 3095 3 MP
PP
c11
3809 3095 mt 3860 3160 L
c10
3860 3160 mt 3765 3176 L
1 sg
-95 16 51 57 3809 4127 3 MP
PP
c8
3809 4127 mt 3860 4184 L
3860 4184 mt 3765 4200 L
1 sg
-96 16 51 58 3803 3995 3 MP
PP
c8
3803 3995 mt 3854 4053 L
3854 4053 mt 3758 4069 L
1 sg
-96 16 51 70 3803 2941 3 MP
PP
/c12 { 0.000000 0.000000 0.812500 sr} bdef
c12
3803 2941 mt 3854 3011 L
c11
3854 3011 mt 3758 3027 L
1 sg
51 58 -96 16 3854 4053 3 MP
PP
c8
3854 4053 mt 3758 4069 L
3758 4069 mt 3809 4127 L
1 sg
51 68 -96 16 3854 3011 3 MP
PP
c11
3854 3011 mt 3758 3027 L
3758 3027 mt 3809 3095 L
1 sg
-96 17 51 58 3797 3863 3 MP
PP
c8
3797 3863 mt 3848 3921 L
3848 3921 mt 3752 3938 L
1 sg
51 57 -96 17 3848 3921 3 MP
PP
c8
3848 3921 mt 3752 3938 L
3752 3938 mt 3803 3995 L
1 sg
-96 17 51 58 3790 3730 3 MP
PP
c8
3790 3730 mt 3841 3788 L
3841 3788 mt 3745 3805 L
1 sg
52 58 -96 17 3841 3788 3 MP
PP
c8
3841 3788 mt 3745 3805 L
3745 3805 mt 3797 3863 L
1 sg
51 59 -96 16 3835 3655 3 MP
PP
c9
3835 3655 mt 3739 3671 L
3739 3671 mt 3790 3730 L
1 sg
-96 16 51 60 3784 3595 3 MP
PP
c9
3784 3595 mt 3835 3655 L
3835 3655 mt 3739 3671 L
1 sg
51 59 -95 17 3828 3519 3 MP
PP
c9
3828 3519 mt 3733 3536 L
3733 3536 mt 3784 3595 L
1 sg
-95 17 51 60 3777 3459 3 MP
PP
c9
3777 3459 mt 3828 3519 L
3828 3519 mt 3733 3536 L
1 sg
-96 17 51 61 3771 3320 3 MP
PP
c10
3771 3320 mt 3822 3381 L
c9
3822 3381 mt 3726 3398 L
1 sg
51 61 -96 17 3822 3381 3 MP
PP
c9
3822 3381 mt 3726 3398 L
3726 3398 mt 3777 3459 L
1 sg
-96 17 51 64 3765 3176 3 MP
PP
c10
3765 3176 mt 3816 3240 L
3816 3240 mt 3720 3257 L
1 sg
51 63 -96 17 3816 3240 3 MP
PP
c10
3816 3240 mt 3720 3257 L
3720 3257 mt 3771 3320 L
1 sg
51 65 -95 16 3809 3095 3 MP
PP
c11
3809 3095 mt 3714 3111 L
3714 3111 mt 3765 3176 L
1 sg
-95 16 51 68 3758 3027 3 MP
PP
c11
3758 3027 mt 3809 3095 L
3809 3095 mt 3714 3111 L
1 sg
51 57 -95 16 3809 4127 3 MP
PP
c8
3809 4127 mt 3714 4143 L
3714 4143 mt 3765 4200 L
1 sg
-95 16 51 58 3758 4069 3 MP
PP
c8
3758 4069 mt 3809 4127 L
3809 4127 mt 3714 4143 L
1 sg
-96 17 51 73 3752 2868 3 MP
PP
/c13 { 0.000000 0.000000 0.875000 sr} bdef
c13
3752 2868 mt 3803 2941 L
c12
3803 2941 mt 3707 2958 L
1 sg
51 69 -96 17 3803 2941 3 MP
PP
c12
3803 2941 mt 3707 2958 L
3707 2958 mt 3758 3027 L
1 sg
-96 17 51 57 3752 3938 3 MP
PP
c8
3752 3938 mt 3803 3995 L
3803 3995 mt 3707 4012 L
1 sg
51 57 -96 17 3803 3995 3 MP
PP
c8
3803 3995 mt 3707 4012 L
3707 4012 mt 3758 4069 L
1 sg
-96 17 52 58 3745 3805 3 MP
PP
c8
3745 3805 mt 3797 3863 L
3797 3863 mt 3701 3880 L
1 sg
51 58 -96 17 3797 3863 3 MP
PP
c8
3797 3863 mt 3701 3880 L
3701 3880 mt 3752 3938 L
1 sg
51 59 -96 16 3790 3730 3 MP
PP
c8
3790 3730 mt 3694 3746 L
3694 3746 mt 3745 3805 L
1 sg
-96 16 51 59 3739 3671 3 MP
PP
c9
3739 3671 mt 3790 3730 L
c8
3790 3730 mt 3694 3746 L
1 sg
-96 17 51 59 3733 3536 3 MP
PP
c9
3733 3536 mt 3784 3595 L
3784 3595 mt 3688 3612 L
1 sg
51 59 -96 17 3784 3595 3 MP
PP
c9
3784 3595 mt 3688 3612 L
3688 3612 mt 3739 3671 L
1 sg
51 61 -95 16 3777 3459 3 MP
PP
c9
3777 3459 mt 3682 3475 L
3682 3475 mt 3733 3536 L
1 sg
-95 16 51 61 3726 3398 3 MP
PP
c9
3726 3398 mt 3777 3459 L
3777 3459 mt 3682 3475 L
1 sg
-96 16 51 63 3720 3257 3 MP
PP
c10
3720 3257 mt 3771 3320 L
3771 3320 mt 3675 3336 L
1 sg
51 62 -96 16 3771 3320 3 MP
PP
c10
3771 3320 mt 3675 3336 L
3675 3336 mt 3726 3398 L
1 sg
51 64 -96 17 3765 3176 3 MP
PP
c10
3765 3176 mt 3669 3193 L
3669 3193 mt 3720 3257 L
1 sg
-96 17 51 65 3714 3111 3 MP
PP
c11
3714 3111 mt 3765 3176 L
c10
3765 3176 mt 3669 3193 L
1 sg
52 67 -96 17 3758 3027 3 MP
PP
c11
3758 3027 mt 3662 3044 L
3662 3044 mt 3714 3111 L
1 sg
52 57 -96 17 3758 4069 3 MP
PP
c8
3758 4069 mt 3662 4086 L
3662 4086 mt 3714 4143 L
1 sg
-96 17 51 69 3707 2958 3 MP
PP
c12
3707 2958 mt 3758 3027 L
c11
3758 3027 mt 3662 3044 L
1 sg
-96 17 51 57 3707 4012 3 MP
PP
c8
3707 4012 mt 3758 4069 L
3758 4069 mt 3662 4086 L
1 sg
-96 17 51 77 3701 2791 3 MP
PP
/c14 { 0.000000 0.000000 0.937500 sr} bdef
c14
3701 2791 mt 3752 2868 L
c13
3752 2868 mt 3656 2885 L
1 sg
51 73 -96 17 3752 2868 3 MP
PP
c13
3752 2868 mt 3656 2885 L
3656 2885 mt 3707 2958 L
1 sg
-96 16 51 58 3701 3880 3 MP
PP
c8
3701 3880 mt 3752 3938 L
3752 3938 mt 3656 3954 L
1 sg
51 58 -96 16 3752 3938 3 MP
PP
c8
3752 3938 mt 3656 3954 L
3656 3954 mt 3707 4012 L
1 sg
51 59 -95 16 3745 3805 3 MP
PP
c8
3745 3805 mt 3650 3821 L
3650 3821 mt 3701 3880 L
1 sg
-95 16 51 59 3694 3746 3 MP
PP
c8
3694 3746 mt 3745 3805 L
3745 3805 mt 3650 3821 L
1 sg
-96 17 51 59 3688 3612 3 MP
PP
c9
3688 3612 mt 3739 3671 L
3739 3671 mt 3643 3688 L
1 sg
51 58 -96 17 3739 3671 3 MP
PP
c9
3739 3671 mt 3643 3688 L
3643 3688 mt 3694 3746 L
1 sg
-96 16 51 61 3682 3475 3 MP
PP
c9
3682 3475 mt 3733 3536 L
3733 3536 mt 3637 3552 L
1 sg
51 60 -96 16 3733 3536 3 MP
PP
c9
3733 3536 mt 3637 3552 L
3637 3552 mt 3688 3612 L
1 sg
-95 16 51 62 3675 3336 3 MP
PP
c10
3675 3336 mt 3726 3398 L
c9
3726 3398 mt 3631 3414 L
1 sg
51 61 -95 16 3726 3398 3 MP
PP
c9
3726 3398 mt 3631 3414 L
3631 3414 mt 3682 3475 L
1 sg
-96 16 51 64 3669 3193 3 MP
PP
c10
3669 3193 mt 3720 3257 L
3720 3257 mt 3624 3273 L
1 sg
51 63 -96 16 3720 3257 3 MP
PP
c10
3720 3257 mt 3624 3273 L
3624 3273 mt 3675 3336 L
1 sg
-96 17 52 67 3662 3044 3 MP
PP
c11
3662 3044 mt 3714 3111 L
3714 3111 mt 3618 3128 L
1 sg
51 65 -96 17 3714 3111 3 MP
PP
c11
3714 3111 mt 3618 3128 L
3618 3128 mt 3669 3193 L
1 sg
51 70 -96 16 3707 2958 3 MP
PP
c12
3707 2958 mt 3611 2974 L
3611 2974 mt 3662 3044 L
1 sg
-96 16 51 73 3656 2885 3 MP
PP
c13
3656 2885 mt 3707 2958 L
c12
3707 2958 mt 3611 2974 L
1 sg
-96 16 51 58 3656 3954 3 MP
PP
c8
3656 3954 mt 3707 4012 L
3707 4012 mt 3611 4028 L
1 sg
51 58 -96 16 3707 4012 3 MP
PP
c8
3707 4012 mt 3611 4028 L
3611 4028 mt 3662 4086 L
1 sg
51 78 -96 16 3701 2791 3 MP
PP
c14
3701 2791 mt 3605 2807 L
3605 2807 mt 3656 2885 L
1 sg
-96 16 51 84 3650 2707 3 MP
PP
/c15 { 0.000000 0.000000 1.000000 sr} bdef
c15
3650 2707 mt 3701 2791 L
c14
3701 2791 mt 3605 2807 L
1 sg
51 58 -96 16 3701 3880 3 MP
PP
c8
3701 3880 mt 3605 3896 L
3605 3896 mt 3656 3954 L
1 sg
-96 16 51 59 3650 3821 3 MP
PP
c8
3650 3821 mt 3701 3880 L
3701 3880 mt 3605 3896 L
1 sg
51 58 -95 17 3694 3746 3 MP
PP
c8
3694 3746 mt 3599 3763 L
3599 3763 mt 3650 3821 L
1 sg
-95 17 51 58 3643 3688 3 MP
PP
c9
3643 3688 mt 3694 3746 L
c8
3694 3746 mt 3599 3763 L
1 sg
-96 16 51 60 3637 3552 3 MP
PP
c9
3637 3552 mt 3688 3612 L
3688 3612 mt 3592 3628 L
1 sg
51 60 -96 16 3688 3612 3 MP
PP
c9
3688 3612 mt 3592 3628 L
3592 3628 mt 3643 3688 L
1 sg
51 60 -96 17 3682 3475 3 MP
PP
c9
3682 3475 mt 3586 3492 L
3586 3492 mt 3637 3552 L
1 sg
-96 17 51 61 3631 3414 3 MP
PP
c9
3631 3414 mt 3682 3475 L
3682 3475 mt 3586 3492 L
1 sg
51 61 -95 17 3675 3336 3 MP
PP
c10
3675 3336 mt 3580 3353 L
3580 3353 mt 3631 3414 L
1 sg
-95 17 51 63 3624 3273 3 MP
PP
c10
3624 3273 mt 3675 3336 L
3675 3336 mt 3580 3353 L
1 sg
-96 16 51 65 3618 3128 3 MP
PP
c11
3618 3128 mt 3669 3193 L
c10
3669 3193 mt 3573 3209 L
1 sg
51 64 -96 16 3669 3193 3 MP
PP
c10
3669 3193 mt 3573 3209 L
3573 3209 mt 3624 3273 L
1 sg
51 68 -95 16 3662 3044 3 MP
PP
c11
3662 3044 mt 3567 3060 L
3567 3060 mt 3618 3128 L
1 sg
-95 16 51 70 3611 2974 3 MP
PP
c12
3611 2974 mt 3662 3044 L
c11
3662 3044 mt 3567 3060 L
1 sg
51 73 -96 16 3656 2885 3 MP
PP
c13
3656 2885 mt 3560 2901 L
3560 2901 mt 3611 2974 L
1 sg
-96 16 51 78 3605 2807 3 MP
PP
c14
3605 2807 mt 3656 2885 L
c13
3656 2885 mt 3560 2901 L
1 sg
-96 17 51 58 3605 3896 3 MP
PP
c8
3605 3896 mt 3656 3954 L
3656 3954 mt 3560 3971 L
1 sg
51 57 -96 17 3656 3954 3 MP
PP
c8
3656 3954 mt 3560 3971 L
3560 3971 mt 3611 4028 L
1 sg
51 83 -96 17 3650 2707 3 MP
PP
c15
3650 2707 mt 3554 2724 L
3554 2724 mt 3605 2807 L
1 sg
-96 17 51 93 3599 2614 3 MP
PP
/c16 { 0.000000 0.062500 1.000000 sr} bdef
c16
3599 2614 mt 3650 2707 L
c15
3650 2707 mt 3554 2724 L
1 sg
51 58 -96 17 3650 3821 3 MP
PP
c8
3650 3821 mt 3554 3838 L
3554 3838 mt 3605 3896 L
1 sg
-96 17 51 58 3599 3763 3 MP
PP
c8
3599 3763 mt 3650 3821 L
3650 3821 mt 3554 3838 L
1 sg
51 59 -95 16 3643 3688 3 MP
PP
c9
3643 3688 mt 3548 3704 L
3548 3704 mt 3599 3763 L
1 sg
-95 16 51 60 3592 3628 3 MP
PP
c9
3592 3628 mt 3643 3688 L
3643 3688 mt 3548 3704 L
1 sg
51 59 -96 17 3637 3552 3 MP
PP
c9
3637 3552 mt 3541 3569 L
3541 3569 mt 3592 3628 L
1 sg
-96 17 51 60 3586 3492 3 MP
PP
c9
3586 3492 mt 3637 3552 L
3637 3552 mt 3541 3569 L
1 sg
-96 17 51 61 3580 3353 3 MP
PP
c10
3580 3353 mt 3631 3414 L
c9
3631 3414 mt 3535 3431 L
1 sg
51 61 -96 17 3631 3414 3 MP
PP
c9
3631 3414 mt 3535 3431 L
3535 3431 mt 3586 3492 L
1 sg
-96 17 51 64 3573 3209 3 MP
PP
c10
3573 3209 mt 3624 3273 L
3624 3273 mt 3528 3290 L
1 sg
52 63 -96 17 3624 3273 3 MP
PP
c10
3624 3273 mt 3528 3290 L
3528 3290 mt 3580 3353 L
1 sg
51 65 -96 16 3618 3128 3 MP
PP
c11
3618 3128 mt 3522 3144 L
3522 3144 mt 3573 3209 L
1 sg
-96 16 51 68 3567 3060 3 MP
PP
c11
3567 3060 mt 3618 3128 L
3618 3128 mt 3522 3144 L
1 sg
-95 17 51 73 3560 2901 3 MP
PP
c13
3560 2901 mt 3611 2974 L
c12
3611 2974 mt 3516 2991 L
1 sg
51 69 -95 17 3611 2974 3 MP
PP
c12
3611 2974 mt 3516 2991 L
3516 2991 mt 3567 3060 L
1 sg
51 77 -96 17 3605 2807 3 MP
PP
c14
3605 2807 mt 3509 2824 L
3509 2824 mt 3560 2901 L
1 sg
-96 17 51 83 3554 2724 3 MP
PP
c15
3554 2724 mt 3605 2807 L
c14
3605 2807 mt 3509 2824 L
1 sg
51 58 -96 17 3605 3896 3 MP
PP
c8
3605 3896 mt 3509 3913 L
3509 3913 mt 3560 3971 L
1 sg
-96 17 51 58 3554 3838 3 MP
PP
c8
3554 3838 mt 3605 3896 L
3605 3896 mt 3509 3913 L
1 sg
-96 16 51 109 3548 2505 3 MP
PP
/c17 { 0.000000 0.250000 1.000000 sr} bdef
c17
3548 2505 mt 3599 2614 L
c16
3599 2614 mt 3503 2630 L
1 sg
51 94 -96 16 3599 2614 3 MP
PP
c16
3599 2614 mt 3503 2630 L
3503 2630 mt 3554 2724 L
1 sg
-96 16 51 59 3548 3704 3 MP
PP
c9
3548 3704 mt 3599 3763 L
c8
3599 3763 mt 3503 3779 L
1 sg
51 59 -96 16 3599 3763 3 MP
PP
c8
3599 3763 mt 3503 3779 L
3503 3779 mt 3554 3838 L
1 sg
51 59 -95 17 3592 3628 3 MP
PP
c9
3592 3628 mt 3497 3645 L
3497 3645 mt 3548 3704 L
1 sg
-95 17 51 59 3541 3569 3 MP
PP
c9
3541 3569 mt 3592 3628 L
3592 3628 mt 3497 3645 L
1 sg
-96 16 51 61 3535 3431 3 MP
PP
c9
3535 3431 mt 3586 3492 L
3586 3492 mt 3490 3508 L
1 sg
51 61 -96 16 3586 3492 3 MP
PP
c9
3586 3492 mt 3490 3508 L
3490 3508 mt 3541 3569 L
1 sg
51 62 -96 16 3580 3353 3 MP
PP
c10
3580 3353 mt 3484 3369 L
3484 3369 mt 3535 3431 L
1 sg
-96 16 52 63 3528 3290 3 MP
PP
c10
3528 3290 mt 3580 3353 L
3580 3353 mt 3484 3369 L
1 sg
51 64 -96 17 3573 3209 3 MP
PP
c10
3573 3209 mt 3477 3226 L
3477 3226 mt 3528 3290 L
1 sg
-96 17 51 65 3522 3144 3 MP
PP
c11
3522 3144 mt 3573 3209 L
c10
3573 3209 mt 3477 3226 L
1 sg
-96 17 51 69 3516 2991 3 MP
PP
c12
3516 2991 mt 3567 3060 L
c11
3567 3060 mt 3471 3077 L
1 sg
51 67 -96 17 3567 3060 3 MP
PP
c11
3567 3060 mt 3471 3077 L
3471 3077 mt 3522 3144 L
1 sg
-95 17 51 77 3509 2824 3 MP
PP
c14
3509 2824 mt 3560 2901 L
c13
3560 2901 mt 3465 2918 L
1 sg
51 73 -95 17 3560 2901 3 MP
PP
c13
3560 2901 mt 3465 2918 L
3465 2918 mt 3516 2991 L
1 sg
51 84 -96 16 3554 2724 3 MP
PP
c15
3554 2724 mt 3458 2740 L
3458 2740 mt 3509 2824 L
1 sg
-96 16 51 94 3503 2630 3 MP
PP
c16
3503 2630 mt 3554 2724 L
c15
3554 2724 mt 3458 2740 L
1 sg
51 59 -96 16 3554 3838 3 MP
PP
c8
3554 3838 mt 3458 3854 L
3458 3854 mt 3509 3913 L
1 sg
-96 16 51 59 3503 3779 3 MP
PP
c8
3503 3779 mt 3554 3838 L
3554 3838 mt 3458 3854 L
1 sg
51 108 -96 17 3548 2505 3 MP
PP
c17
3548 2505 mt 3452 2522 L
3452 2522 mt 3503 2630 L
1 sg
-96 17 51 135 3497 2370 3 MP
PP
/c18 { 0.000000 0.437500 1.000000 sr} bdef
c18
3497 2370 mt 3548 2505 L
c17
3548 2505 mt 3452 2522 L
1 sg
51 58 -96 17 3548 3704 3 MP
PP
c9
3548 3704 mt 3452 3721 L
3452 3721 mt 3503 3779 L
1 sg
-96 17 51 59 3497 3645 3 MP
PP
c9
3497 3645 mt 3548 3704 L
3548 3704 mt 3452 3721 L
1 sg
-96 16 51 61 3490 3508 3 MP
PP
c9
3490 3508 mt 3541 3569 L
3541 3569 mt 3445 3585 L
1 sg
52 60 -96 16 3541 3569 3 MP
PP
c9
3541 3569 mt 3445 3585 L
3445 3585 mt 3497 3645 L
1 sg
-96 16 51 62 3484 3369 3 MP
PP
c10
3484 3369 mt 3535 3431 L
c9
3535 3431 mt 3439 3447 L
1 sg
51 61 -96 16 3535 3431 3 MP
PP
c9
3535 3431 mt 3439 3447 L
3439 3447 mt 3490 3508 L
1 sg
-95 16 51 64 3477 3226 3 MP
PP
c10
3477 3226 mt 3528 3290 L
3528 3290 mt 3433 3306 L
1 sg
51 63 -95 16 3528 3290 3 MP
PP
c10
3528 3290 mt 3433 3306 L
3433 3306 mt 3484 3369 L
1 sg
51 65 -96 17 3522 3144 3 MP
PP
c11
3522 3144 mt 3426 3161 L
3426 3161 mt 3477 3226 L
1 sg
-96 17 51 67 3471 3077 3 MP
PP
c11
3471 3077 mt 3522 3144 L
3522 3144 mt 3426 3161 L
1 sg
-96 16 51 73 3465 2918 3 MP
PP
c13
3465 2918 mt 3516 2991 L
c12
3516 2991 mt 3420 3007 L
1 sg
51 70 -96 16 3516 2991 3 MP
PP
c12
3516 2991 mt 3420 3007 L
3420 3007 mt 3471 3077 L
1 sg
51 77 -95 17 3509 2824 3 MP
PP
c14
3509 2824 mt 3414 2841 L
3414 2841 mt 3465 2918 L
1 sg
-95 17 51 84 3458 2740 3 MP
PP
c15
3458 2740 mt 3509 2824 L
c14
3509 2824 mt 3414 2841 L
1 sg
51 93 -96 17 3503 2630 3 MP
PP
c16
3503 2630 mt 3407 2647 L
3407 2647 mt 3458 2740 L
1 sg
-96 17 51 108 3452 2522 3 MP
PP
c17
3452 2522 mt 3503 2630 L
c16
3503 2630 mt 3407 2647 L
1 sg
51 58 -96 17 3503 3779 3 MP
PP
c8
3503 3779 mt 3407 3796 L
3407 3796 mt 3458 3854 L
1 sg
-96 17 51 58 3452 3721 3 MP
PP
c9
3452 3721 mt 3503 3779 L
c8
3503 3779 mt 3407 3796 L
1 sg
51 136 -96 16 3497 2370 3 MP
PP
c18
3497 2370 mt 3401 2386 L
3401 2386 mt 3452 2522 L
1 sg
-96 16 52 189 3445 2181 3 MP
PP
/c19 { 0.000000 0.750000 1.000000 sr} bdef
c19
3445 2181 mt 3497 2370 L
c18
3497 2370 mt 3401 2386 L
1 sg
-96 16 52 60 3445 3585 3 MP
PP
c9
3445 3585 mt 3497 3645 L
3497 3645 mt 3401 3661 L
1 sg
51 60 -96 16 3497 3645 3 MP
PP
c9
3497 3645 mt 3401 3661 L
3401 3661 mt 3452 3721 L
1 sg
-96 17 51 61 3439 3447 3 MP
PP
c9
3439 3447 mt 3490 3508 L
3490 3508 mt 3394 3525 L
1 sg
51 60 -96 17 3490 3508 3 MP
PP
c9
3490 3508 mt 3394 3525 L
3394 3525 mt 3445 3585 L
1 sg
-96 17 51 63 3433 3306 3 MP
PP
c10
3433 3306 mt 3484 3369 L
3484 3369 mt 3388 3386 L
1 sg
51 61 -96 17 3484 3369 3 MP
PP
c10
3484 3369 mt 3388 3386 L
3388 3386 mt 3439 3447 L
1 sg
51 64 -95 16 3477 3226 3 MP
PP
c10
3477 3226 mt 3382 3242 L
3382 3242 mt 3433 3306 L
1 sg
-95 16 51 65 3426 3161 3 MP
PP
c11
3426 3161 mt 3477 3226 L
c10
3477 3226 mt 3382 3242 L
1 sg
-96 16 51 70 3420 3007 3 MP
PP
c12
3420 3007 mt 3471 3077 L
c11
3471 3077 mt 3375 3093 L
1 sg
51 68 -96 16 3471 3077 3 MP
PP
c11
3471 3077 mt 3375 3093 L
3375 3093 mt 3426 3161 L
1 sg
51 73 -96 16 3465 2918 3 MP
PP
c13
3465 2918 mt 3369 2934 L
3369 2934 mt 3420 3007 L
1 sg
-96 16 51 77 3414 2841 3 MP
PP
c14
3414 2841 mt 3465 2918 L
c13
3465 2918 mt 3369 2934 L
1 sg
52 84 -96 17 3458 2740 3 MP
PP
c15
3458 2740 mt 3362 2757 L
3362 2757 mt 3414 2841 L
1 sg
-96 17 51 93 3407 2647 3 MP
PP
c16
3407 2647 mt 3458 2740 L
c15
3458 2740 mt 3362 2757 L
1 sg
-96 16 51 136 3401 2386 3 MP
PP
c18
3401 2386 mt 3452 2522 L
c17
3452 2522 mt 3356 2538 L
1 sg
51 109 -96 16 3452 2522 3 MP
PP
c17
3452 2522 mt 3356 2538 L
3356 2538 mt 3407 2647 L
1 sg
51 59 -96 16 3452 3721 3 MP
PP
c9
3452 3721 mt 3356 3737 L
3356 3737 mt 3407 3796 L
1 sg
-96 16 51 60 3401 3661 3 MP
PP
c9
3401 3661 mt 3452 3721 L
3452 3721 mt 3356 3737 L
1 sg
-95 16 51 323 3394 1858 3 MP
PP
/c20 { 0.437500 1.000000 0.562500 sr} bdef
c20
3394 1858 mt 3445 2181 L
c19
3445 2181 mt 3350 2197 L
1 sg
51 189 -95 16 3445 2181 3 MP
PP
c19
3445 2181 mt 3350 2197 L
3350 2197 mt 3401 2386 L
1 sg
-95 17 51 60 3394 3525 3 MP
PP
c9
3394 3525 mt 3445 3585 L
3445 3585 mt 3350 3602 L
1 sg
51 59 -95 17 3445 3585 3 MP
PP
c9
3445 3585 mt 3350 3602 L
3350 3602 mt 3401 3661 L
1 sg
-96 17 51 61 3388 3386 3 MP
PP
c10
3388 3386 mt 3439 3447 L
c9
3439 3447 mt 3343 3464 L
1 sg
51 61 -96 17 3439 3447 3 MP
PP
c9
3439 3447 mt 3343 3464 L
3343 3464 mt 3394 3525 L
1 sg
51 63 -96 17 3433 3306 3 MP
PP
c10
3433 3306 mt 3337 3323 L
3337 3323 mt 3388 3386 L
1 sg
-96 17 51 64 3382 3242 3 MP
PP
c10
3382 3242 mt 3433 3306 L
3433 3306 mt 3337 3323 L
1 sg
51 65 -95 16 3426 3161 3 MP
PP
c11
3426 3161 mt 3331 3177 L
3331 3177 mt 3382 3242 L
1 sg
-95 16 51 68 3375 3093 3 MP
PP
c11
3375 3093 mt 3426 3161 L
3426 3161 mt 3331 3177 L
1 sg
-96 17 51 73 3369 2934 3 MP
PP
c13
3369 2934 mt 3420 3007 L
c12
3420 3007 mt 3324 3024 L
1 sg
51 69 -96 17 3420 3007 3 MP
PP
c12
3420 3007 mt 3324 3024 L
3324 3024 mt 3375 3093 L
1 sg
-96 16 52 84 3362 2757 3 MP
PP
c15
3362 2757 mt 3414 2841 L
c14
3414 2841 mt 3318 2857 L
1 sg
51 77 -96 16 3414 2841 3 MP
PP
c14
3414 2841 mt 3318 2857 L
3318 2857 mt 3369 2934 L
1 sg
-96 16 51 109 3356 2538 3 MP
PP
c17
3356 2538 mt 3407 2647 L
c16
3407 2647 mt 3311 2663 L
1 sg
51 94 -96 16 3407 2647 3 MP
PP
c16
3407 2647 mt 3311 2663 L
3311 2663 mt 3362 2757 L
1 sg
51 135 -96 17 3401 2386 3 MP
PP
c18
3401 2386 mt 3305 2403 L
3305 2403 mt 3356 2538 L
1 sg
-96 17 51 189 3350 2197 3 MP
PP
c19
3350 2197 mt 3401 2386 L
c18
3401 2386 mt 3305 2403 L
1 sg
-96 17 51 59 3350 3602 3 MP
PP
c9
3350 3602 mt 3401 3661 L
3401 3661 mt 3305 3678 L
1 sg
51 59 -96 17 3401 3661 3 MP
PP
c9
3401 3661 mt 3305 3678 L
3305 3678 mt 3356 3737 L
1 sg
51 322 -95 17 3394 1858 3 MP
PP
c20
3394 1858 mt 3299 1875 L
3299 1875 mt 3350 2197 L
1 sg
-95 17 51 858 3343 1000 3 MP
PP
/c21 { 0.500000 0.000000 0.000000 sr} bdef
c21
3343 1000 mt 3394 1858 L
c20
3394 1858 mt 3299 1875 L
1 sg
51 61 -95 16 3394 3525 3 MP
PP
c9
3394 3525 mt 3299 3541 L
3299 3541 mt 3350 3602 L
1 sg
-95 16 51 61 3343 3464 3 MP
PP
c9
3343 3464 mt 3394 3525 L
3394 3525 mt 3299 3541 L
1 sg
51 62 -96 16 3388 3386 3 MP
PP
c10
3388 3386 mt 3292 3402 L
3292 3402 mt 3343 3464 L
1 sg
-96 16 51 63 3337 3323 3 MP
PP
c10
3337 3323 mt 3388 3386 L
3388 3386 mt 3292 3402 L
1 sg
-96 17 51 65 3331 3177 3 MP
PP
c11
3331 3177 mt 3382 3242 L
c10
3382 3242 mt 3286 3259 L
1 sg
51 64 -96 17 3382 3242 3 MP
PP
c10
3382 3242 mt 3286 3259 L
3286 3259 mt 3337 3323 L
1 sg
-96 17 51 69 3324 3024 3 MP
PP
c12
3324 3024 mt 3375 3093 L
c11
3375 3093 mt 3279 3110 L
1 sg
52 67 -96 17 3375 3093 3 MP
PP
c11
3375 3093 mt 3279 3110 L
3279 3110 mt 3331 3177 L
1 sg
-96 17 51 77 3318 2857 3 MP
PP
c14
3318 2857 mt 3369 2934 L
c13
3369 2934 mt 3273 2951 L
1 sg
51 73 -96 17 3369 2934 3 MP
PP
c13
3369 2934 mt 3273 2951 L
3273 2951 mt 3324 3024 L
1 sg
-95 16 51 94 3311 2663 3 MP
PP
c16
3311 2663 mt 3362 2757 L
c15
3362 2757 mt 3267 2773 L
1 sg
51 84 -95 16 3362 2757 3 MP
PP
c15
3362 2757 mt 3267 2773 L
3267 2773 mt 3318 2857 L
1 sg
-96 17 51 135 3305 2403 3 MP
PP
c18
3305 2403 mt 3356 2538 L
c17
3356 2538 mt 3260 2555 L
1 sg
51 108 -96 17 3356 2538 3 MP
PP
c17
3356 2538 mt 3260 2555 L
3260 2555 mt 3311 2663 L
1 sg
-96 17 51 322 3299 1875 3 MP
PP
c20
3299 1875 mt 3350 2197 L
c19
3350 2197 mt 3254 2214 L
1 sg
51 189 -96 17 3350 2197 3 MP
PP
c19
3350 2197 mt 3254 2214 L
3254 2214 mt 3305 2403 L
1 sg
51 60 -96 16 3350 3602 3 MP
PP
c9
3350 3602 mt 3254 3618 L
3254 3618 mt 3305 3678 L
1 sg
-96 16 51 61 3299 3541 3 MP
PP
c9
3299 3541 mt 3350 3602 L
3350 3602 mt 3254 3618 L
1 sg
-95 16 51 62 3292 3402 3 MP
PP
c10
3292 3402 mt 3343 3464 L
c9
3343 3464 mt 3248 3480 L
1 sg
51 61 -95 16 3343 3464 3 MP
PP
c9
3343 3464 mt 3248 3480 L
3248 3480 mt 3299 3541 L
1 sg
51 859 -95 16 3343 1000 3 MP
PP
c21
3343 1000 mt 3248 1016 L
3248 1016 mt 3299 1875 L
1 sg
51 63 -96 16 3337 3323 3 MP
PP
c10
3337 3323 mt 3241 3339 L
3241 3339 mt 3292 3402 L
1 sg
-96 16 51 64 3286 3259 3 MP
PP
c10
3286 3259 mt 3337 3323 L
3337 3323 mt 3241 3339 L
1 sg
51 65 -96 17 3331 3177 3 MP
PP
c11
3331 3177 mt 3235 3194 L
3235 3194 mt 3286 3259 L
1 sg
-96 17 52 67 3279 3110 3 MP
PP
c11
3279 3110 mt 3331 3177 L
3331 3177 mt 3235 3194 L
1 sg
51 70 -96 16 3324 3024 3 MP
PP
c12
3324 3024 mt 3228 3040 L
3228 3040 mt 3279 3110 L
1 sg
-96 16 51 73 3273 2951 3 MP
PP
c13
3273 2951 mt 3324 3024 L
c12
3324 3024 mt 3228 3040 L
1 sg
51 77 -96 17 3318 2857 3 MP
PP
c14
3318 2857 mt 3222 2874 L
3222 2874 mt 3273 2951 L
1 sg
-96 17 51 84 3267 2773 3 MP
PP
c15
3267 2773 mt 3318 2857 L
c14
3318 2857 mt 3222 2874 L
1 sg
-95 17 51 108 3260 2555 3 MP
PP
c17
3260 2555 mt 3311 2663 L
c16
3311 2663 mt 3216 2680 L
1 sg
51 93 -95 17 3311 2663 3 MP
PP
c16
3311 2663 mt 3216 2680 L
3216 2680 mt 3267 2773 L
1 sg
-96 16 51 189 3254 2214 3 MP
PP
c19
3254 2214 mt 3305 2403 L
c18
3305 2403 mt 3209 2419 L
1 sg
51 136 -96 16 3305 2403 3 MP
PP
c18
3305 2403 mt 3209 2419 L
3209 2419 mt 3260 2555 L
1 sg
-96 16 51 859 3248 1016 3 MP
PP
c21
3248 1016 mt 3299 1875 L
c20
3299 1875 mt 3203 1891 L
1 sg
51 323 -96 16 3299 1875 3 MP
PP
c20
3299 1875 mt 3203 1891 L
3203 1891 mt 3254 2214 L
1 sg
-96 17 51 61 3248 3480 3 MP
PP
c9
3248 3480 mt 3299 3541 L
3299 3541 mt 3203 3558 L
1 sg
51 60 -96 17 3299 3541 3 MP
PP
c9
3299 3541 mt 3203 3558 L
3203 3558 mt 3254 3618 L
1 sg
51 61 -95 17 3292 3402 3 MP
PP
c10
3292 3402 mt 3197 3419 L
3197 3419 mt 3248 3480 L
1 sg
-95 17 51 63 3241 3339 3 MP
PP
c10
3241 3339 mt 3292 3402 L
3292 3402 mt 3197 3419 L
1 sg
-96 17 51 65 3235 3194 3 MP
PP
c11
3235 3194 mt 3286 3259 L
c10
3286 3259 mt 3190 3276 L
1 sg
51 63 -96 17 3286 3259 3 MP
PP
c10
3286 3259 mt 3190 3276 L
3190 3276 mt 3241 3339 L
1 sg
-95 16 51 70 3228 3040 3 MP
PP
c12
3228 3040 mt 3279 3110 L
c11
3279 3110 mt 3184 3126 L
1 sg
51 68 -95 16 3279 3110 3 MP
PP
c11
3279 3110 mt 3184 3126 L
3184 3126 mt 3235 3194 L
1 sg
51 73 -96 16 3273 2951 3 MP
PP
c13
3273 2951 mt 3177 2967 L
3177 2967 mt 3228 3040 L
1 sg
-96 16 51 77 3222 2874 3 MP
PP
c14
3222 2874 mt 3273 2951 L
c13
3273 2951 mt 3177 2967 L
1 sg
51 84 -96 17 3267 2773 3 MP
PP
c15
3267 2773 mt 3171 2790 L
3171 2790 mt 3222 2874 L
1 sg
-96 17 51 93 3216 2680 3 MP
PP
c16
3216 2680 mt 3267 2773 L
c15
3267 2773 mt 3171 2790 L
1 sg
-95 16 51 136 3209 2419 3 MP
PP
c18
3209 2419 mt 3260 2555 L
c17
3260 2555 mt 3165 2571 L
1 sg
51 109 -95 16 3260 2555 3 MP
PP
c17
3260 2555 mt 3165 2571 L
3165 2571 mt 3216 2680 L
1 sg
-96 17 51 323 3203 1891 3 MP
PP
c20
3203 1891 mt 3254 2214 L
c19
3254 2214 mt 3158 2231 L
1 sg
51 188 -96 17 3254 2214 3 MP
PP
c19
3254 2214 mt 3158 2231 L
3158 2231 mt 3209 2419 L
1 sg
51 858 -96 17 3248 1016 3 MP
PP
c21
3248 1016 mt 3152 1033 L
3152 1033 mt 3203 1891 L
1 sg
-96 17 51 61 3197 3419 3 MP
PP
c10
3197 3419 mt 3248 3480 L
c9
3248 3480 mt 3152 3497 L
1 sg
51 61 -96 17 3248 3480 3 MP
PP
c9
3248 3480 mt 3152 3497 L
3152 3497 mt 3203 3558 L
1 sg
52 63 -96 17 3241 3339 3 MP
PP
c10
3241 3339 mt 3145 3356 L
3145 3356 mt 3197 3419 L
1 sg
-96 17 51 63 3190 3276 3 MP
PP
c10
3190 3276 mt 3241 3339 L
3241 3339 mt 3145 3356 L
1 sg
-96 16 51 68 3184 3126 3 MP
PP
c11
3184 3126 mt 3235 3194 L
3235 3194 mt 3139 3210 L
1 sg
51 66 -96 16 3235 3194 3 MP
PP
c11
3235 3194 mt 3139 3210 L
3139 3210 mt 3190 3276 L
1 sg
51 69 -95 17 3228 3040 3 MP
PP
c12
3228 3040 mt 3133 3057 L
3133 3057 mt 3184 3126 L
1 sg
-95 17 51 73 3177 2967 3 MP
PP
c13
3177 2967 mt 3228 3040 L
c12
3228 3040 mt 3133 3057 L
1 sg
-96 16 51 84 3171 2790 3 MP
PP
c15
3171 2790 mt 3222 2874 L
c14
3222 2874 mt 3126 2890 L
1 sg
51 77 -96 16 3222 2874 3 MP
PP
c14
3222 2874 mt 3126 2890 L
3126 2890 mt 3177 2967 L
1 sg
-96 16 51 109 3165 2571 3 MP
PP
c17
3165 2571 mt 3216 2680 L
c16
3216 2680 mt 3120 2696 L
1 sg
51 94 -96 16 3216 2680 3 MP
PP
c16
3216 2680 mt 3120 2696 L
3120 2696 mt 3171 2790 L
1 sg
-95 17 51 188 3158 2231 3 MP
PP
c19
3158 2231 mt 3209 2419 L
c18
3209 2419 mt 3114 2436 L
1 sg
51 135 -95 17 3209 2419 3 MP
PP
c18
3209 2419 mt 3114 2436 L
3114 2436 mt 3165 2571 L
1 sg
-96 17 51 858 3152 1033 3 MP
PP
c21
3152 1033 mt 3203 1891 L
c20
3203 1891 mt 3107 1908 L
1 sg
51 323 -96 17 3203 1891 3 MP
PP
c20
3203 1891 mt 3107 1908 L
3107 1908 mt 3158 2231 L
1 sg
-96 16 52 63 3145 3356 3 MP
PP
c10
3145 3356 mt 3197 3419 L
3197 3419 mt 3101 3435 L
1 sg
51 62 -96 16 3197 3419 3 MP
PP
c10
3197 3419 mt 3101 3435 L
3101 3435 mt 3152 3497 L
1 sg
-96 16 51 66 3139 3210 3 MP
PP
c11
3139 3210 mt 3190 3276 L
c10
3190 3276 mt 3094 3292 L
1 sg
51 64 -96 16 3190 3276 3 MP
PP
c10
3190 3276 mt 3094 3292 L
3094 3292 mt 3145 3356 L
1 sg
-96 17 51 69 3133 3057 3 MP
PP
c12
3133 3057 mt 3184 3126 L
c11
3184 3126 mt 3088 3143 L
1 sg
51 67 -96 17 3184 3126 3 MP
PP
c11
3184 3126 mt 3088 3143 L
3088 3143 mt 3139 3210 L
1 sg
-95 17 51 77 3126 2890 3 MP
PP
c14
3126 2890 mt 3177 2967 L
c13
3177 2967 mt 3082 2984 L
1 sg
51 73 -95 17 3177 2967 3 MP
PP
c13
3177 2967 mt 3082 2984 L
3082 2984 mt 3133 3057 L
1 sg
-96 16 51 94 3120 2696 3 MP
PP
c16
3120 2696 mt 3171 2790 L
c15
3171 2790 mt 3075 2806 L
1 sg
51 84 -96 16 3171 2790 3 MP
PP
c15
3171 2790 mt 3075 2806 L
3075 2806 mt 3126 2890 L
1 sg
51 108 -96 17 3165 2571 3 MP
PP
c17
3165 2571 mt 3069 2588 L
3069 2588 mt 3120 2696 L
1 sg
-96 17 51 135 3114 2436 3 MP
PP
c18
3114 2436 mt 3165 2571 L
c17
3165 2571 mt 3069 2588 L
1 sg
-96 16 51 323 3107 1908 3 MP
PP
c20
3107 1908 mt 3158 2231 L
c19
3158 2231 mt 3062 2247 L
1 sg
52 189 -96 16 3158 2231 3 MP
PP
c19
3158 2231 mt 3062 2247 L
3062 2247 mt 3114 2436 L
1 sg
51 859 -96 16 3152 1033 3 MP
PP
c21
3152 1033 mt 3056 1049 L
3056 1049 mt 3107 1908 L
1 sg
51 63 -95 16 3145 3356 3 MP
PP
c10
3145 3356 mt 3050 3372 L
3050 3372 mt 3101 3435 L
1 sg
-95 16 51 64 3094 3292 3 MP
PP
c10
3094 3292 mt 3145 3356 L
3145 3356 mt 3050 3372 L
1 sg
51 65 -96 17 3139 3210 3 MP
PP
c11
3139 3210 mt 3043 3227 L
3043 3227 mt 3094 3292 L
1 sg
-96 17 51 67 3088 3143 3 MP
PP
c11
3088 3143 mt 3139 3210 L
3139 3210 mt 3043 3227 L
1 sg
-96 16 51 73 3082 2984 3 MP
PP
c13
3082 2984 mt 3133 3057 L
c12
3133 3057 mt 3037 3073 L
1 sg
51 70 -96 16 3133 3057 3 MP
PP
c12
3133 3057 mt 3037 3073 L
3037 3073 mt 3088 3143 L
1 sg
-95 17 51 84 3075 2806 3 MP
PP
c15
3075 2806 mt 3126 2890 L
c14
3126 2890 mt 3031 2907 L
1 sg
51 77 -95 17 3126 2890 3 MP
PP
c14
3126 2890 mt 3031 2907 L
3031 2907 mt 3082 2984 L
1 sg
-96 17 51 108 3069 2588 3 MP
PP
c17
3069 2588 mt 3120 2696 L
c16
3120 2696 mt 3024 2713 L
1 sg
51 93 -96 17 3120 2696 3 MP
PP
c16
3120 2696 mt 3024 2713 L
3024 2713 mt 3075 2806 L
1 sg
51 136 -96 16 3114 2436 3 MP
PP
c18
3114 2436 mt 3018 2452 L
3018 2452 mt 3069 2588 L
1 sg
-96 16 52 189 3062 2247 3 MP
PP
c19
3062 2247 mt 3114 2436 L
c18
3114 2436 mt 3018 2452 L
1 sg
51 323 -96 16 3107 1908 3 MP
PP
c20
3107 1908 mt 3011 1924 L
3011 1924 mt 3062 2247 L
1 sg
-96 16 51 859 3056 1049 3 MP
PP
c21
3056 1049 mt 3107 1908 L
c20
3107 1908 mt 3011 1924 L
1 sg
51 63 -95 17 3094 3292 3 MP
PP
c10
3094 3292 mt 2999 3309 L
2999 3309 mt 3050 3372 L
1 sg
-95 17 51 65 3043 3227 3 MP
PP
c11
3043 3227 mt 3094 3292 L
c10
3094 3292 mt 2999 3309 L
1 sg
-96 16 51 70 3037 3073 3 MP
PP
c12
3037 3073 mt 3088 3143 L
c11
3088 3143 mt 2992 3159 L
1 sg
51 68 -96 16 3088 3143 3 MP
PP
c11
3088 3143 mt 2992 3159 L
2992 3159 mt 3043 3227 L
1 sg
-96 16 51 77 3031 2907 3 MP
PP
c14
3031 2907 mt 3082 2984 L
c13
3082 2984 mt 2986 3000 L
1 sg
51 73 -96 16 3082 2984 3 MP
PP
c13
3082 2984 mt 2986 3000 L
2986 3000 mt 3037 3073 L
1 sg
52 84 -96 17 3075 2806 3 MP
PP
c15
3075 2806 mt 2979 2823 L
2979 2823 mt 3031 2907 L
1 sg
-96 17 51 93 3024 2713 3 MP
PP
c16
3024 2713 mt 3075 2806 L
c15
3075 2806 mt 2979 2823 L
1 sg
51 109 -96 16 3069 2588 3 MP
PP
c17
3069 2588 mt 2973 2604 L
2973 2604 mt 3024 2713 L
1 sg
-96 16 51 136 3018 2452 3 MP
PP
c18
3018 2452 mt 3069 2588 L
c17
3069 2588 mt 2973 2604 L
1 sg
-95 17 51 323 3011 1924 3 MP
PP
c20
3011 1924 mt 3062 2247 L
c19
3062 2247 mt 2967 2264 L
1 sg
51 188 -95 17 3062 2247 3 MP
PP
c19
3062 2247 mt 2967 2264 L
2967 2264 mt 3018 2452 L
1 sg
51 858 -96 17 3056 1049 3 MP
PP
c21
3056 1049 mt 2960 1066 L
2960 1066 mt 3011 1924 L
1 sg
51 66 -95 16 3043 3227 3 MP
PP
c11
3043 3227 mt 2948 3243 L
2948 3243 mt 2999 3309 L
1 sg
-95 16 51 68 2992 3159 3 MP
PP
c11
2992 3159 mt 3043 3227 L
3043 3227 mt 2948 3243 L
1 sg
-96 17 51 73 2986 3000 3 MP
PP
c13
2986 3000 mt 3037 3073 L
c12
3037 3073 mt 2941 3090 L
1 sg
51 69 -96 17 3037 3073 3 MP
PP
c12
3037 3073 mt 2941 3090 L
2941 3090 mt 2992 3159 L
1 sg
-96 16 52 84 2979 2823 3 MP
PP
c15
2979 2823 mt 3031 2907 L
c14
3031 2907 mt 2935 2923 L
1 sg
51 77 -96 16 3031 2907 3 MP
PP
c14
3031 2907 mt 2935 2923 L
2935 2923 mt 2986 3000 L
1 sg
51 93 -96 17 3024 2713 3 MP
PP
c16
3024 2713 mt 2928 2730 L
2928 2730 mt 2979 2823 L
1 sg
-96 17 51 109 2973 2604 3 MP
PP
c17
2973 2604 mt 3024 2713 L
c16
3024 2713 mt 2928 2730 L
1 sg
-96 17 51 188 2967 2264 3 MP
PP
c19
2967 2264 mt 3018 2452 L
c18
3018 2452 mt 2922 2469 L
1 sg
51 135 -96 17 3018 2452 3 MP
PP
c18
3018 2452 mt 2922 2469 L
2922 2469 mt 2973 2604 L
1 sg
-95 17 51 858 2960 1066 3 MP
PP
c21
2960 1066 mt 3011 1924 L
c20
3011 1924 mt 2916 1941 L
1 sg
51 323 -95 17 3011 1924 3 MP
PP
c20
3011 1924 mt 2916 1941 L
2916 1941 mt 2967 2264 L
1 sg
52 67 -96 17 2992 3159 3 MP
PP
c11
2992 3159 mt 2896 3176 L
2896 3176 mt 2948 3243 L
1 sg
-96 17 51 69 2941 3090 3 MP
PP
c12
2941 3090 mt 2992 3159 L
c11
2992 3159 mt 2896 3176 L
1 sg
51 73 -96 17 2986 3000 3 MP
PP
c13
2986 3000 mt 2890 3017 L
2890 3017 mt 2941 3090 L
1 sg
-96 17 51 77 2935 2923 3 MP
PP
c14
2935 2923 mt 2986 3000 L
c13
2986 3000 mt 2890 3017 L
1 sg
-95 16 51 93 2928 2730 3 MP
PP
c16
2928 2730 mt 2979 2823 L
c15
2979 2823 mt 2884 2839 L
1 sg
51 84 -95 16 2979 2823 3 MP
PP
c15
2979 2823 mt 2884 2839 L
2884 2839 mt 2935 2923 L
1 sg
-96 17 51 135 2922 2469 3 MP
PP
c18
2922 2469 mt 2973 2604 L
c17
2973 2604 mt 2877 2621 L
1 sg
51 109 -96 17 2973 2604 3 MP
PP
c17
2973 2604 mt 2877 2621 L
2877 2621 mt 2928 2730 L
1 sg
51 189 -96 16 2967 2264 3 MP
PP
c19
2967 2264 mt 2871 2280 L
2871 2280 mt 2922 2469 L
1 sg
-96 16 51 323 2916 1941 3 MP
PP
c20
2916 1941 mt 2967 2264 L
c19
2967 2264 mt 2871 2280 L
1 sg
51 859 -95 16 2960 1066 3 MP
PP
c21
2960 1066 mt 2865 1082 L
2865 1082 mt 2916 1941 L
1 sg
-96 16 51 73 2890 3017 3 MP
PP
c13
2890 3017 mt 2941 3090 L
c12
2941 3090 mt 2845 3106 L
1 sg
51 70 -96 16 2941 3090 3 MP
PP
c12
2941 3090 mt 2845 3106 L
2845 3106 mt 2896 3176 L
1 sg
-96 17 51 84 2884 2839 3 MP
PP
c15
2884 2839 mt 2935 2923 L
c14
2935 2923 mt 2839 2940 L
1 sg
51 77 -96 17 2935 2923 3 MP
PP
c14
2935 2923 mt 2839 2940 L
2839 2940 mt 2890 3017 L
1 sg
-95 16 51 109 2877 2621 3 MP
PP
c17
2877 2621 mt 2928 2730 L
c16
2928 2730 mt 2833 2746 L
1 sg
51 93 -95 16 2928 2730 3 MP
PP
c16
2928 2730 mt 2833 2746 L
2833 2746 mt 2884 2839 L
1 sg
-96 17 51 189 2871 2280 3 MP
PP
c19
2871 2280 mt 2922 2469 L
c18
2922 2469 mt 2826 2486 L
1 sg
51 135 -96 17 2922 2469 3 MP
PP
c18
2922 2469 mt 2826 2486 L
2826 2486 mt 2877 2621 L
1 sg
-96 16 51 859 2865 1082 3 MP
PP
c21
2865 1082 mt 2916 1941 L
c20
2916 1941 mt 2820 1957 L
1 sg
51 323 -96 16 2916 1941 3 MP
PP
c20
2916 1941 mt 2820 1957 L
2820 1957 mt 2871 2280 L
1 sg
51 73 -96 16 2890 3017 3 MP
PP
c13
2890 3017 mt 2794 3033 L
2794 3033 mt 2845 3106 L
1 sg
-96 16 51 77 2839 2940 3 MP
PP
c14
2839 2940 mt 2890 3017 L
c13
2890 3017 mt 2794 3033 L
1 sg
51 84 -96 17 2884 2839 3 MP
PP
c15
2884 2839 mt 2788 2856 L
2788 2856 mt 2839 2940 L
1 sg
-96 17 51 93 2833 2746 3 MP
PP
c16
2833 2746 mt 2884 2839 L
c15
2884 2839 mt 2788 2856 L
1 sg
51 109 -95 16 2877 2621 3 MP
PP
c17
2877 2621 mt 2782 2637 L
2782 2637 mt 2833 2746 L
1 sg
-95 16 51 135 2826 2486 3 MP
PP
c18
2826 2486 mt 2877 2621 L
c17
2877 2621 mt 2782 2637 L
1 sg
51 189 -96 17 2871 2280 3 MP
PP
c19
2871 2280 mt 2775 2297 L
2775 2297 mt 2826 2486 L
1 sg
-96 17 51 323 2820 1957 3 MP
PP
c20
2820 1957 mt 2871 2280 L
c19
2871 2280 mt 2775 2297 L
1 sg
51 858 -96 17 2865 1082 3 MP
PP
c21
2865 1082 mt 2769 1099 L
2769 1099 mt 2820 1957 L
1 sg
-96 16 51 84 2788 2856 3 MP
PP
c15
2788 2856 mt 2839 2940 L
c14
2839 2940 mt 2743 2956 L
1 sg
51 77 -96 16 2839 2940 3 MP
PP
c14
2839 2940 mt 2743 2956 L
2743 2956 mt 2794 3033 L
1 sg
-96 17 51 109 2782 2637 3 MP
PP
c17
2782 2637 mt 2833 2746 L
c16
2833 2746 mt 2737 2763 L
1 sg
51 93 -96 17 2833 2746 3 MP
PP
c16
2833 2746 mt 2737 2763 L
2737 2763 mt 2788 2856 L
1 sg
51 135 -95 16 2826 2486 3 MP
PP
c18
2826 2486 mt 2731 2502 L
2731 2502 mt 2782 2637 L
1 sg
-95 16 51 189 2775 2297 3 MP
PP
c19
2775 2297 mt 2826 2486 L
c18
2826 2486 mt 2731 2502 L
1 sg
-96 17 51 858 2769 1099 3 MP
PP
c21
2769 1099 mt 2820 1957 L
c20
2820 1957 mt 2724 1974 L
1 sg
51 323 -96 17 2820 1957 3 MP
PP
c20
2820 1957 mt 2724 1974 L
2724 1974 mt 2775 2297 L
1 sg
-96 16 51 93 2737 2763 3 MP
PP
c16
2737 2763 mt 2788 2856 L
c15
2788 2856 mt 2692 2872 L
1 sg
51 84 -96 16 2788 2856 3 MP
PP
c15
2788 2856 mt 2692 2872 L
2692 2872 mt 2743 2956 L
1 sg
51 109 -96 17 2782 2637 3 MP
PP
c17
2782 2637 mt 2686 2654 L
2686 2654 mt 2737 2763 L
1 sg
-96 17 51 135 2731 2502 3 MP
PP
c18
2731 2502 mt 2782 2637 L
c17
2782 2637 mt 2686 2654 L
1 sg
52 189 -96 16 2775 2297 3 MP
PP
c19
2775 2297 mt 2679 2313 L
2679 2313 mt 2731 2502 L
1 sg
-96 16 51 323 2724 1974 3 MP
PP
c20
2724 1974 mt 2775 2297 L
c19
2775 2297 mt 2679 2313 L
1 sg
51 859 -96 16 2769 1099 3 MP
PP
c21
2769 1099 mt 2673 1115 L
2673 1115 mt 2724 1974 L
1 sg
51 93 -96 16 2737 2763 3 MP
PP
c16
2737 2763 mt 2641 2779 L
2641 2779 mt 2692 2872 L
1 sg
-96 16 51 109 2686 2654 3 MP
PP
c17
2686 2654 mt 2737 2763 L
c16
2737 2763 mt 2641 2779 L
1 sg
-96 17 52 189 2679 2313 3 MP
PP
c19
2679 2313 mt 2731 2502 L
c18
2731 2502 mt 2635 2519 L
1 sg
51 135 -96 17 2731 2502 3 MP
PP
c18
2731 2502 mt 2635 2519 L
2635 2519 mt 2686 2654 L
1 sg
-96 16 51 859 2673 1115 3 MP
PP
c21
2673 1115 mt 2724 1974 L
c20
2724 1974 mt 2628 1990 L
1 sg
51 323 -96 16 2724 1974 3 MP
PP
c20
2724 1974 mt 2628 1990 L
2628 1990 mt 2679 2313 L
1 sg
51 109 -96 16 2686 2654 3 MP
PP
c17
2686 2654 mt 2590 2670 L
2590 2670 mt 2641 2779 L
1 sg
-96 16 51 135 2635 2519 3 MP
PP
c18
2635 2519 mt 2686 2654 L
c17
2686 2654 mt 2590 2670 L
1 sg
51 189 -95 17 2679 2313 3 MP
PP
c19
2679 2313 mt 2584 2330 L
2584 2330 mt 2635 2519 L
1 sg
-95 17 51 323 2628 1990 3 MP
PP
c20
2628 1990 mt 2679 2313 L
c19
2679 2313 mt 2584 2330 L
1 sg
51 858 -96 17 2673 1115 3 MP
PP
c21
2673 1115 mt 2577 1132 L
2577 1132 mt 2628 1990 L
1 sg
-96 16 51 189 2584 2330 3 MP
PP
c19
2584 2330 mt 2635 2519 L
c18
2635 2519 mt 2539 2535 L
1 sg
51 135 -96 16 2635 2519 3 MP
PP
c18
2635 2519 mt 2539 2535 L
2539 2535 mt 2590 2670 L
1 sg
-95 17 51 858 2577 1132 3 MP
PP
c21
2577 1132 mt 2628 1990 L
c20
2628 1990 mt 2533 2007 L
1 sg
51 323 -95 17 2628 1990 3 MP
PP
c20
2628 1990 mt 2533 2007 L
2533 2007 mt 2584 2330 L
1 sg
-96 16 51 323 2533 2007 3 MP
PP
c20
2533 2007 mt 2584 2330 L
c19
2584 2330 mt 2488 2346 L
1 sg
51 189 -96 16 2584 2330 3 MP
PP
c19
2584 2330 mt 2488 2346 L
2488 2346 mt 2539 2535 L
1 sg
51 859 -95 16 2577 1132 3 MP
PP
c21
2577 1132 mt 2482 1148 L
2482 1148 mt 2533 2007 L
1 sg
51 323 -96 16 2533 2007 3 MP
PP
c20
2533 2007 mt 2437 2023 L
2437 2023 mt 2488 2346 L
1 sg
-96 16 51 859 2482 1148 3 MP
PP
c21
2482 1148 mt 2533 2007 L
c20
2533 2007 mt 2437 2023 L
1 sg
51 858 -96 17 2482 1148 3 MP
PP
c21
2482 1148 mt 2386 1165 L
2386 1165 mt 2437 2023 L
gr

c21
0 sg
1020 4937 mt 
(b [mm]) s
%%IncludeResource: font Symbol
/Symbol /WindowsLatin1Encoding 240 FMSR

 391 2426 mt  -90 rotate
(s) s
90 rotate
%%IncludeResource: font Helvetica
/Helvetica /WindowsLatin1Encoding 192 FMSR

 511 2282 mt  -90 rotate
(z) s
90 rotate
%%IncludeResource: font Helvetica
/Helvetica /WindowsLatin1Encoding 240 FMSR

 391 2186 mt  -90 rotate
( [mm]) s
90 rotate
gs 899 389 5363 4228 MR c np
gr


end %%Color Dict

eplot
%%EndObject

epage
end

showpage

%%Trailer
%%EOF
