%!PS-Adobe-2.0 EPSF-1.2
%%Creator: MATLAB, The Mathworks, Inc. Version 7.5.0.342 (R2007b). Operating System: Microsoft Windows Vista.
%%Title: .\Slad_2.eps
%%CreationDate: 03/13/2013  11:39:10
%%DocumentNeededFonts: Helvetica
%%DocumentProcessColors: Cyan Magenta Yellow Black
%%Pages: 1
%%BoundingBox:    18   186   593   583
%%EndComments

%%BeginProlog
% MathWorks dictionary
/MathWorks 160 dict begin
% definition operators
/bdef {bind def} bind def
/ldef {load def} bind def
/xdef {exch def} bdef
/xstore {exch store} bdef
% operator abbreviations
/c  /clip ldef
/cc /concat ldef
/cp /closepath ldef
/gr /grestore ldef
/gs /gsave ldef
/mt /moveto ldef
/np /newpath ldef
/cm /currentmatrix ldef
/sm /setmatrix ldef
/rm /rmoveto ldef
/rl /rlineto ldef
/s {show newpath} bdef
/sc {setcmykcolor} bdef
/sr /setrgbcolor ldef
/sg /setgray ldef
/w /setlinewidth ldef
/j /setlinejoin ldef
/cap /setlinecap ldef
/rc {rectclip} bdef
/rf {rectfill} bdef
% page state control
/pgsv () def
/bpage {/pgsv save def} bdef
/epage {pgsv restore} bdef
/bplot /gsave ldef
/eplot {stroke grestore} bdef
% orientation switch
/portraitMode 0 def /landscapeMode 1 def /rotateMode 2 def
% coordinate system mappings
/dpi2point 0 def
% font control
/FontSize 0 def
/FMS {/FontSize xstore findfont [FontSize 0 0 FontSize neg 0 0]
  makefont setfont} bdef
/ISOLatin1Encoding where {pop /WindowsLatin1Encoding 256 array bdef
ISOLatin1Encoding WindowsLatin1Encoding copy pop
/.notdef/.notdef/quotesinglbase/florin/quotedblbase/ellipsis/dagger
/daggerdbl/circumflex/perthousand/Scaron/guilsinglleft/OE/.notdef/.notdef
/.notdef/.notdef/quoteleft/quoteright/quotedblleft/quotedblright/bullet
/endash/emdash/tilde/trademark/scaron/guilsinglright/oe/.notdef/.notdef
/Ydieresis WindowsLatin1Encoding 128 32 getinterval astore pop}
{/WindowsLatin1Encoding StandardEncoding bdef} ifelse
/reencode {exch dup where {pop load} {pop StandardEncoding} ifelse
  exch dup 3 1 roll findfont dup length dict begin
  { 1 index /FID ne {def}{pop pop} ifelse } forall
  /Encoding exch def currentdict end definefont pop} bdef
/isroman {findfont /CharStrings get /Agrave known} bdef
/FMSR {3 1 roll 1 index dup isroman {reencode} {pop pop} ifelse
  exch FMS} bdef
/csm {1 dpi2point div -1 dpi2point div scale neg translate
 dup landscapeMode eq {pop -90 rotate}
  {rotateMode eq {90 rotate} if} ifelse} bdef
% line types: solid, dotted, dashed, dotdash
/SO { [] 0 setdash } bdef
/DO { [.5 dpi2point mul 4 dpi2point mul] 0 setdash } bdef
/DA { [6 dpi2point mul] 0 setdash } bdef
/DD { [.5 dpi2point mul 4 dpi2point mul 6 dpi2point mul 4
  dpi2point mul] 0 setdash } bdef
% macros for lines and objects
/L {lineto stroke} bdef
/MP {3 1 roll moveto 1 sub {rlineto} repeat} bdef
/AP {{rlineto} repeat} bdef
/PDlw -1 def
/W {/PDlw currentlinewidth def setlinewidth} def
/PP {closepath eofill} bdef
/DP {closepath stroke} bdef
/MR {4 -2 roll moveto dup  0 exch rlineto exch 0 rlineto
  neg 0 exch rlineto closepath} bdef
/FR {MR stroke} bdef
/PR {MR fill} bdef
/L1i {{currentfile picstr readhexstring pop} image} bdef
/tMatrix matrix def
/MakeOval {newpath tMatrix currentmatrix pop translate scale
0 0 1 0 360 arc tMatrix setmatrix} bdef
/FO {MakeOval stroke} bdef
/PO {MakeOval fill} bdef
/PD {currentlinewidth 2 div 0 360 arc fill
   PDlw -1 eq not {PDlw w /PDlw -1 def} if} def
/FA {newpath tMatrix currentmatrix pop translate scale
  0 0 1 5 -2 roll arc tMatrix setmatrix stroke} bdef
/PA {newpath tMatrix currentmatrix pop	translate 0 0 moveto scale
  0 0 1 5 -2 roll arc closepath tMatrix setmatrix fill} bdef
/FAn {newpath tMatrix currentmatrix pop translate scale
  0 0 1 5 -2 roll arcn tMatrix setmatrix stroke} bdef
/PAn {newpath tMatrix currentmatrix pop translate 0 0 moveto scale
  0 0 1 5 -2 roll arcn closepath tMatrix setmatrix fill} bdef
/vradius 0 def /hradius 0 def /lry 0 def
/lrx 0 def /uly 0 def /ulx 0 def /rad 0 def
/MRR {/vradius xdef /hradius xdef /lry xdef /lrx xdef /uly xdef
  /ulx xdef newpath tMatrix currentmatrix pop ulx hradius add uly
  vradius add translate hradius vradius scale 0 0 1 180 270 arc 
  tMatrix setmatrix lrx hradius sub uly vradius add translate
  hradius vradius scale 0 0 1 270 360 arc tMatrix setmatrix
  lrx hradius sub lry vradius sub translate hradius vradius scale
  0 0 1 0 90 arc tMatrix setmatrix ulx hradius add lry vradius sub
  translate hradius vradius scale 0 0 1 90 180 arc tMatrix setmatrix
  closepath} bdef
/FRR {MRR stroke } bdef
/PRR {MRR fill } bdef
/MlrRR {/lry xdef /lrx xdef /uly xdef /ulx xdef /rad lry uly sub 2 div def
  newpath tMatrix currentmatrix pop ulx rad add uly rad add translate
  rad rad scale 0 0 1 90 270 arc tMatrix setmatrix lrx rad sub lry rad
  sub translate rad rad scale 0 0 1 270 90 arc tMatrix setmatrix
  closepath} bdef
/FlrRR {MlrRR stroke } bdef
/PlrRR {MlrRR fill } bdef
/MtbRR {/lry xdef /lrx xdef /uly xdef /ulx xdef /rad lrx ulx sub 2 div def
  newpath tMatrix currentmatrix pop ulx rad add uly rad add translate
  rad rad scale 0 0 1 180 360 arc tMatrix setmatrix lrx rad sub lry rad
  sub translate rad rad scale 0 0 1 0 180 arc tMatrix setmatrix
  closepath} bdef
/FtbRR {MtbRR stroke } bdef
/PtbRR {MtbRR fill } bdef
/stri 6 array def /dtri 6 array def
/smat 6 array def /dmat 6 array def
/tmat1 6 array def /tmat2 6 array def /dif 3 array def
/asub {/ind2 exch def /ind1 exch def dup dup
  ind1 get exch ind2 get sub exch } bdef
/tri_to_matrix {
  2 0 asub 3 1 asub 4 0 asub 5 1 asub
  dup 0 get exch 1 get 7 -1 roll astore } bdef
/compute_transform {
  dmat dtri tri_to_matrix tmat1 invertmatrix 
  smat stri tri_to_matrix tmat2 concatmatrix } bdef
/ds {stri astore pop} bdef
/dt {dtri astore pop} bdef
/db {2 copy /cols xdef /rows xdef mul dup string
  currentfile exch readhexstring pop
  /bmap xdef pop pop} bdef
/it {gs np dtri aload pop moveto lineto lineto cp c
  cols rows 8 compute_transform 
  {bmap} image gr}bdef
/il {newpath moveto lineto stroke}bdef
currentdict end def
%%EndProlog

%%BeginSetup
MathWorks begin

0 cap

end
%%EndSetup

%%Page: 1 1
%%BeginPageSetup
%%PageBoundingBox:    18   186   593   583
MathWorks begin
bpage
%%EndPageSetup

%%BeginObject: obj1
bplot

/dpi2point 12 def
portraitMode 0216 7344 csm

    0   341  6903  4768 MR c np
85 dict begin %Colortable dictionary
/c0 { 0.000000 0.000000 0.000000 sr} bdef
/c1 { 1.000000 1.000000 1.000000 sr} bdef
/c2 { 0.900000 0.000000 0.000000 sr} bdef
/c3 { 0.000000 0.820000 0.000000 sr} bdef
/c4 { 0.000000 0.000000 0.800000 sr} bdef
/c5 { 0.910000 0.820000 0.320000 sr} bdef
/c6 { 1.000000 0.260000 0.820000 sr} bdef
/c7 { 0.000000 0.820000 0.820000 sr} bdef
c0
1 j
1 sg
   0    0 6919 5187 PR
6 w
-1522 -1652 -3805 661 1522 1651 4738 2304 4 MP
PP
3805 -660 -1522 -1652 -3805 661 1522 1651 4738 2304 5 MP stroke
0 1915 1522 1651 0 -1915 4738 2304 4 MP
PP
-1522 -1651 0 1915 1522 1651 0 -1915 4738 2304 5 MP stroke
0 1915 -3805 660 0 -1915 4738 2304 4 MP
PP
3805 -660 0 1915 -3805 660 0 -1915 4738 2304 5 MP stroke
4 w
DO
0 sg
6260 3955 mt 4738 2304 L
4738 2304 mt 4738  389 L
5309 4120 mt 3787 2469 L
3787 2469 mt 3787  554 L
4358 4285 mt 2836 2634 L
2836 2634 mt 2836  719 L
3407 4450 mt 1885 2799 L
1885 2799 mt 1885  884 L
2455 4616 mt  933 2964 L
 933 2964 mt  933 1049 L
 933 2964 mt 4738 2304 L
4738 2304 mt 4738  389 L
1441 3515 mt 5246 2854 L
5246 2854 mt 5246  939 L
1948 4065 mt 5753 3405 L
5753 3405 mt 5753 1489 L
2455 4616 mt 6260 3955 L
6260 3955 mt 6260 2040 L
 933 2964 mt 4738 2304 L
4738 2304 mt 6260 3955 L
 933 2581 mt 4738 1921 L
4738 1921 mt 6260 3572 L
 933 2198 mt 4738 1538 L
4738 1538 mt 6260 3189 L
 933 1815 mt 4738 1155 L
4738 1155 mt 6260 2806 L
 933 1432 mt 4738  772 L
4738  772 mt 6260 2423 L
 933 1049 mt 4738  389 L
4738  389 mt 6260 2040 L
SO
6 w
6260 3955 mt 2455 4616 L
 933 2964 mt 2455 4616 L
 933 2964 mt  933 1049 L
6260 3955 mt 6326 4026 L
%%IncludeResource: font Helvetica
/Helvetica /WindowsLatin1Encoding 180 FMSR

6349 4218 mt 
(-1000) s
5309 4120 mt 5375 4191 L
5398 4384 mt 
(-500) s
4358 4285 mt 4423 4356 L
4447 4549 mt 
(0) s
3407 4450 mt 3472 4521 L
3496 4714 mt 
(500) s
2455 4616 mt 2521 4686 L
2544 4879 mt 
(1000) s
 933 2964 mt  838 2981 L
 704 3154 mt 
(0) s
1441 3515 mt 1346 3531 L
1012 3704 mt 
(100) s
1948 4065 mt 1853 4082 L
1519 4255 mt 
(200) s
2455 4616 mt 2360 4632 L
2026 4805 mt 
(300) s
 933 2964 mt  868 2893 L
 745 2934 mt 
(0) s
 933 2581 mt  868 2510 L
 545 2551 mt 
(500) s
 933 2198 mt  868 2127 L
 445 2168 mt 
(1000) s
 933 1815 mt  868 1744 L
 445 1785 mt 
(1500) s
 933 1432 mt  868 1361 L
 445 1402 mt 
(2000) s
 933 1049 mt  868  978 L
 445 1019 mt 
(2500) s
gs 933 389 5328 4228 MR c np
1 sg
-96 17 51 55 4783 4145 3 MP
PP
/c8 { 0.000000 0.000000 0.562500 sr} bdef
c8
4783 4145 mt 4834 4200 L
4834 4200 mt 4738 4217 L
1 sg
50 56 -95 16 4783 4145 3 MP
PP
c8
4783 4145 mt 4688 4161 L
4688 4161 mt 4738 4217 L
1 sg
-95 16 51 55 4732 4090 3 MP
PP
c8
4732 4090 mt 4783 4145 L
4783 4145 mt 4688 4161 L
1 sg
-95 16 50 56 4688 4161 3 MP
PP
c8
4688 4161 mt 4738 4217 L
4738 4217 mt 4643 4233 L
1 sg
51 55 -95 16 4732 4090 3 MP
PP
c8
4732 4090 mt 4637 4106 L
4637 4106 mt 4688 4161 L
1 sg
-95 16 51 56 4681 4034 3 MP
PP
c8
4681 4034 mt 4732 4090 L
4732 4090 mt 4637 4106 L
1 sg
50 55 -95 17 4688 4161 3 MP
PP
c8
4688 4161 mt 4593 4178 L
4593 4178 mt 4643 4233 L
1 sg
-95 17 51 55 4637 4106 3 MP
PP
c8
4637 4106 mt 4688 4161 L
4688 4161 mt 4593 4178 L
1 sg
-95 17 50 55 4631 3979 3 MP
PP
c8
4631 3979 mt 4681 4034 L
4681 4034 mt 4586 4051 L
1 sg
51 55 -95 17 4681 4034 3 MP
PP
c8
4681 4034 mt 4586 4051 L
4586 4051 mt 4637 4106 L
1 sg
-95 17 50 55 4593 4178 3 MP
PP
c8
4593 4178 mt 4643 4233 L
4643 4233 mt 4548 4250 L
1 sg
51 55 -95 17 4637 4106 3 MP
PP
c8
4637 4106 mt 4542 4123 L
4542 4123 mt 4593 4178 L
1 sg
-95 17 51 55 4586 4051 3 MP
PP
c8
4586 4051 mt 4637 4106 L
4637 4106 mt 4542 4123 L
1 sg
50 55 -95 17 4631 3979 3 MP
PP
c8
4631 3979 mt 4536 3996 L
4536 3996 mt 4586 4051 L
1 sg
-95 17 51 55 4580 3924 3 MP
PP
c8
4580 3924 mt 4631 3979 L
4631 3979 mt 4536 3996 L
1 sg
50 55 -95 17 4593 4178 3 MP
PP
c8
4593 4178 mt 4498 4195 L
4498 4195 mt 4548 4250 L
1 sg
-95 17 51 55 4542 4123 3 MP
PP
c8
4542 4123 mt 4593 4178 L
4593 4178 mt 4498 4195 L
1 sg
-95 17 50 55 4536 3996 3 MP
PP
c8
4536 3996 mt 4586 4051 L
4586 4051 mt 4491 4068 L
1 sg
51 55 -95 17 4586 4051 3 MP
PP
c8
4586 4051 mt 4491 4068 L
4491 4068 mt 4542 4123 L
1 sg
51 55 -95 17 4580 3924 3 MP
PP
c8
4580 3924 mt 4485 3941 L
4485 3941 mt 4536 3996 L
1 sg
-95 17 51 55 4529 3869 3 MP
PP
c8
4529 3869 mt 4580 3924 L
4580 3924 mt 4485 3941 L
1 sg
-95 16 50 55 4498 4195 3 MP
PP
c8
4498 4195 mt 4548 4250 L
4548 4250 mt 4453 4266 L
1 sg
51 55 -95 17 4542 4123 3 MP
PP
c8
4542 4123 mt 4447 4140 L
4447 4140 mt 4498 4195 L
1 sg
-95 17 51 55 4491 4068 3 MP
PP
c8
4491 4068 mt 4542 4123 L
4542 4123 mt 4447 4140 L
1 sg
51 55 -96 17 4536 3996 3 MP
PP
c8
4536 3996 mt 4440 4013 L
4440 4013 mt 4491 4068 L
1 sg
-96 17 51 55 4485 3941 3 MP
PP
c8
4485 3941 mt 4536 3996 L
4536 3996 mt 4440 4013 L
1 sg
51 56 -95 16 4529 3869 3 MP
PP
c8
4529 3869 mt 4434 3885 L
4434 3885 mt 4485 3941 L
1 sg
-95 16 51 56 4478 3813 3 MP
PP
c8
4478 3813 mt 4529 3869 L
4529 3869 mt 4434 3885 L
1 sg
-96 16 51 55 4447 4140 3 MP
PP
c8
4447 4140 mt 4498 4195 L
4498 4195 mt 4402 4211 L
1 sg
51 55 -96 16 4498 4195 3 MP
PP
c8
4498 4195 mt 4402 4211 L
4402 4211 mt 4453 4266 L
1 sg
-95 16 51 55 4440 4013 3 MP
PP
c8
4440 4013 mt 4491 4068 L
4491 4068 mt 4396 4084 L
1 sg
51 56 -95 16 4491 4068 3 MP
PP
c8
4491 4068 mt 4396 4084 L
4396 4084 mt 4447 4140 L
1 sg
50 56 -95 16 4485 3941 3 MP
PP
c8
4485 3941 mt 4390 3957 L
4390 3957 mt 4440 4013 L
1 sg
-95 16 51 56 4434 3885 3 MP
PP
c8
4434 3885 mt 4485 3941 L
4485 3941 mt 4390 3957 L
1 sg
-95 17 50 55 4428 3758 3 MP
PP
c8
4428 3758 mt 4478 3813 L
4478 3813 mt 4383 3830 L
1 sg
51 55 -95 17 4478 3813 3 MP
PP
c8
4478 3813 mt 4383 3830 L
4383 3830 mt 4434 3885 L
1 sg
-95 17 51 55 4402 4211 3 MP
PP
c8
4402 4211 mt 4453 4266 L
4453 4266 mt 4358 4283 L
1 sg
-95 16 51 56 4396 4084 3 MP
PP
c8
4396 4084 mt 4447 4140 L
4447 4140 mt 4352 4156 L
1 sg
50 55 -95 16 4447 4140 3 MP
PP
c8
4447 4140 mt 4352 4156 L
4352 4156 mt 4402 4211 L
1 sg
-95 16 50 56 4390 3957 3 MP
PP
c8
4390 3957 mt 4440 4013 L
4440 4013 mt 4345 4029 L
1 sg
51 55 -95 16 4440 4013 3 MP
PP
c8
4440 4013 mt 4345 4029 L
4345 4029 mt 4396 4084 L
1 sg
-95 17 51 55 4383 3830 3 MP
PP
c8
4383 3830 mt 4434 3885 L
4434 3885 mt 4339 3902 L
1 sg
51 55 -95 17 4434 3885 3 MP
PP
c8
4434 3885 mt 4339 3902 L
4339 3902 mt 4390 3957 L
1 sg
50 55 -95 17 4428 3758 3 MP
PP
c8
4428 3758 mt 4333 3775 L
4333 3775 mt 4383 3830 L
1 sg
-95 17 51 55 4377 3703 3 MP
PP
c8
4377 3703 mt 4428 3758 L
4428 3758 mt 4333 3775 L
1 sg
-95 17 50 55 4352 4156 3 MP
PP
c8
4352 4156 mt 4402 4211 L
4402 4211 mt 4307 4228 L
1 sg
51 55 -95 17 4402 4211 3 MP
PP
c8
4402 4211 mt 4307 4228 L
4307 4228 mt 4358 4283 L
1 sg
-95 17 51 55 4345 4029 3 MP
PP
c8
4345 4029 mt 4396 4084 L
4396 4084 mt 4301 4101 L
1 sg
51 55 -95 17 4396 4084 3 MP
PP
c8
4396 4084 mt 4301 4101 L
4301 4101 mt 4352 4156 L
1 sg
50 55 -95 17 4390 3957 3 MP
PP
c8
4390 3957 mt 4295 3974 L
4295 3974 mt 4345 4029 L
1 sg
-95 17 51 55 4339 3902 3 MP
PP
c8
4339 3902 mt 4390 3957 L
4390 3957 mt 4295 3974 L
1 sg
-95 17 50 55 4333 3775 3 MP
PP
c8
4333 3775 mt 4383 3830 L
4383 3830 mt 4288 3847 L
1 sg
51 55 -95 17 4383 3830 3 MP
PP
c8
4383 3830 mt 4288 3847 L
4288 3847 mt 4339 3902 L
1 sg
51 56 -95 16 4377 3703 3 MP
PP
c8
4377 3703 mt 4282 3719 L
4282 3719 mt 4333 3775 L
1 sg
-95 16 51 56 4326 3647 3 MP
PP
c8
4326 3647 mt 4377 3703 L
4377 3703 mt 4282 3719 L
1 sg
-95 16 51 55 4307 4228 3 MP
PP
c8
4307 4228 mt 4358 4283 L
4358 4283 mt 4263 4299 L
1 sg
-95 17 51 55 4301 4101 3 MP
PP
c8
4301 4101 mt 4352 4156 L
4352 4156 mt 4257 4173 L
1 sg
50 55 -95 17 4352 4156 3 MP
PP
c8
4352 4156 mt 4257 4173 L
4257 4173 mt 4307 4228 L
1 sg
-95 17 50 55 4295 3974 3 MP
PP
c8
4295 3974 mt 4345 4029 L
4345 4029 mt 4250 4046 L
1 sg
51 55 -95 17 4345 4029 3 MP
PP
c8
4345 4029 mt 4250 4046 L
4250 4046 mt 4301 4101 L
1 sg
51 55 -95 17 4339 3902 3 MP
PP
c8
4339 3902 mt 4244 3919 L
4244 3919 mt 4295 3974 L
1 sg
-95 17 51 55 4288 3847 3 MP
PP
c8
4288 3847 mt 4339 3902 L
4339 3902 mt 4244 3919 L
1 sg
50 56 -95 16 4333 3775 3 MP
PP
c8
4333 3775 mt 4238 3791 L
4238 3791 mt 4288 3847 L
1 sg
-95 16 51 56 4282 3719 3 MP
PP
c8
4282 3719 mt 4333 3775 L
4333 3775 mt 4238 3791 L
1 sg
51 55 -95 17 4326 3647 3 MP
PP
c8
4326 3647 mt 4231 3664 L
4231 3664 mt 4282 3719 L
1 sg
-95 17 50 55 4276 3592 3 MP
PP
c8
4276 3592 mt 4326 3647 L
4326 3647 mt 4231 3664 L
1 sg
-95 16 50 55 4257 4173 3 MP
PP
c8
4257 4173 mt 4307 4228 L
4307 4228 mt 4212 4244 L
1 sg
51 55 -95 16 4307 4228 3 MP
PP
c8
4307 4228 mt 4212 4244 L
4212 4244 mt 4263 4299 L
1 sg
51 56 -95 16 4301 4101 3 MP
PP
c8
4301 4101 mt 4206 4117 L
4206 4117 mt 4257 4173 L
1 sg
-95 16 51 55 4250 4046 3 MP
PP
c8
4250 4046 mt 4301 4101 L
4301 4101 mt 4206 4117 L
1 sg
-96 16 51 55 4244 3919 3 MP
PP
c8
4244 3919 mt 4295 3974 L
4295 3974 mt 4199 3990 L
1 sg
51 56 -96 16 4295 3974 3 MP
PP
c8
4295 3974 mt 4199 3990 L
4199 3990 mt 4250 4046 L
1 sg
51 56 -95 16 4288 3847 3 MP
PP
c8
4288 3847 mt 4193 3863 L
4193 3863 mt 4244 3919 L
1 sg
-95 16 50 56 4238 3791 3 MP
PP
c8
4238 3791 mt 4288 3847 L
4288 3847 mt 4193 3863 L
1 sg
51 55 -95 17 4282 3719 3 MP
PP
c8
4282 3719 mt 4187 3736 L
4187 3736 mt 4238 3791 L
1 sg
-95 17 51 55 4231 3664 3 MP
PP
c8
4231 3664 mt 4282 3719 L
4282 3719 mt 4187 3736 L
1 sg
-96 16 51 56 4225 3536 3 MP
PP
c8
4225 3536 mt 4276 3592 L
4276 3592 mt 4180 3608 L
1 sg
51 56 -96 16 4276 3592 3 MP
PP
c8
4276 3592 mt 4180 3608 L
4180 3608 mt 4231 3664 L
1 sg
-95 17 51 55 4212 4244 3 MP
PP
c8
4212 4244 mt 4263 4299 L
4263 4299 mt 4168 4316 L
1 sg
51 55 -96 16 4257 4173 3 MP
PP
c8
4257 4173 mt 4161 4189 L
4161 4189 mt 4212 4244 L
1 sg
-96 16 51 56 4206 4117 3 MP
PP
c8
4206 4117 mt 4257 4173 L
4257 4173 mt 4161 4189 L
1 sg
-95 16 51 56 4199 3990 3 MP
PP
c8
4199 3990 mt 4250 4046 L
4250 4046 mt 4155 4062 L
1 sg
51 55 -95 16 4250 4046 3 MP
PP
c8
4250 4046 mt 4155 4062 L
4155 4062 mt 4206 4117 L
1 sg
50 55 -95 16 4244 3919 3 MP
PP
c8
4244 3919 mt 4149 3935 L
4149 3935 mt 4199 3990 L
1 sg
-95 16 51 56 4193 3863 3 MP
PP
c8
4193 3863 mt 4244 3919 L
4244 3919 mt 4149 3935 L
1 sg
-96 17 51 55 4187 3736 3 MP
PP
c8
4187 3736 mt 4238 3791 L
4238 3791 mt 4142 3808 L
1 sg
51 55 -96 17 4238 3791 3 MP
PP
c8
4238 3791 mt 4142 3808 L
4142 3808 mt 4193 3863 L
1 sg
51 55 -95 17 4231 3664 3 MP
PP
c8
4231 3664 mt 4136 3681 L
4136 3681 mt 4187 3736 L
1 sg
-95 17 51 56 4180 3608 3 MP
PP
c8
4180 3608 mt 4231 3664 L
4231 3664 mt 4136 3681 L
1 sg
50 55 -95 17 4225 3536 3 MP
PP
c8
4225 3536 mt 4130 3553 L
4130 3553 mt 4180 3608 L
1 sg
-95 17 51 56 4174 3480 3 MP
PP
c8
4174 3480 mt 4225 3536 L
4225 3536 mt 4130 3553 L
1 sg
51 55 -95 17 4212 4244 3 MP
PP
c8
4212 4244 mt 4117 4261 L
4117 4261 mt 4168 4316 L
1 sg
-95 17 51 55 4161 4189 3 MP
PP
c8
4161 4189 mt 4212 4244 L
4212 4244 mt 4117 4261 L
1 sg
50 55 -95 17 4206 4117 3 MP
PP
c8
4206 4117 mt 4111 4134 L
4111 4134 mt 4161 4189 L
1 sg
-95 17 51 55 4155 4062 3 MP
PP
c8
4155 4062 mt 4206 4117 L
4206 4117 mt 4111 4134 L
1 sg
51 55 -95 17 4199 3990 3 MP
PP
c8
4199 3990 mt 4104 4007 L
4104 4007 mt 4155 4062 L
1 sg
-95 17 50 55 4149 3935 3 MP
PP
c8
4149 3935 mt 4199 3990 L
4199 3990 mt 4104 4007 L
1 sg
51 55 -95 17 4193 3863 3 MP
PP
c8
4193 3863 mt 4098 3880 L
4098 3880 mt 4149 3935 L
1 sg
-95 17 51 55 4142 3808 3 MP
PP
c8
4142 3808 mt 4193 3863 L
4193 3863 mt 4098 3880 L
1 sg
-95 17 51 55 4136 3681 3 MP
PP
c8
4136 3681 mt 4187 3736 L
4187 3736 mt 4092 3753 L
1 sg
50 55 -95 17 4187 3736 3 MP
PP
c8
4187 3736 mt 4092 3753 L
4092 3753 mt 4142 3808 L
1 sg
51 56 -95 17 4180 3608 3 MP
PP
c8
4180 3608 mt 4085 3625 L
4085 3625 mt 4136 3681 L
1 sg
-95 17 50 55 4130 3553 3 MP
PP
c8
4130 3553 mt 4180 3608 L
4180 3608 mt 4085 3625 L
1 sg
-95 17 51 56 4123 3424 3 MP
PP
c8
4123 3424 mt 4174 3480 L
4174 3480 mt 4079 3497 L
1 sg
51 56 -95 17 4174 3480 3 MP
PP
c8
4174 3480 mt 4079 3497 L
4079 3497 mt 4130 3553 L
1 sg
-95 16 51 55 4117 4261 3 MP
PP
c8
4117 4261 mt 4168 4316 L
4168 4316 mt 4073 4332 L
1 sg
-95 17 50 55 4111 4134 3 MP
PP
c8
4111 4134 mt 4161 4189 L
4161 4189 mt 4066 4206 L
1 sg
51 55 -95 17 4161 4189 3 MP
PP
c8
4161 4189 mt 4066 4206 L
4066 4206 mt 4117 4261 L
1 sg
51 55 -95 17 4155 4062 3 MP
PP
c8
4155 4062 mt 4060 4079 L
4060 4079 mt 4111 4134 L
1 sg
-95 17 51 55 4104 4007 3 MP
PP
c8
4104 4007 mt 4155 4062 L
4155 4062 mt 4060 4079 L
1 sg
50 55 -95 17 4149 3935 3 MP
PP
c8
4149 3935 mt 4054 3952 L
4054 3952 mt 4104 4007 L
1 sg
-95 17 51 55 4098 3880 3 MP
PP
c8
4098 3880 mt 4149 3935 L
4149 3935 mt 4054 3952 L
1 sg
51 55 -95 17 4142 3808 3 MP
PP
c8
4142 3808 mt 4047 3825 L
4047 3825 mt 4098 3880 L
1 sg
-95 17 50 55 4092 3753 3 MP
PP
c8
4092 3753 mt 4142 3808 L
4142 3808 mt 4047 3825 L
1 sg
-95 16 51 56 4085 3625 3 MP
PP
c8
4085 3625 mt 4136 3681 L
4136 3681 mt 4041 3697 L
1 sg
51 56 -95 16 4136 3681 3 MP
PP
c8
4136 3681 mt 4041 3697 L
4041 3697 mt 4092 3753 L
1 sg
50 55 -95 17 4130 3553 3 MP
PP
c8
4130 3553 mt 4035 3570 L
4035 3570 mt 4085 3625 L
1 sg
-95 17 51 56 4079 3497 3 MP
PP
c8
4079 3497 mt 4130 3553 L
4130 3553 mt 4035 3570 L
1 sg
51 56 -95 17 4123 3424 3 MP
PP
c8
4123 3424 mt 4028 3441 L
4028 3441 mt 4079 3497 L
1 sg
-95 17 50 56 4073 3368 3 MP
PP
c8
4073 3368 mt 4123 3424 L
4123 3424 mt 4028 3441 L
1 sg
-95 16 51 55 4066 4206 3 MP
PP
c8
4066 4206 mt 4117 4261 L
4117 4261 mt 4022 4277 L
1 sg
51 55 -95 16 4117 4261 3 MP
PP
c8
4117 4261 mt 4022 4277 L
4022 4277 mt 4073 4332 L
1 sg
50 56 -95 16 4111 4134 3 MP
PP
c8
4111 4134 mt 4016 4150 L
4016 4150 mt 4066 4206 L
1 sg
-95 16 51 55 4060 4079 3 MP
PP
c8
4060 4079 mt 4111 4134 L
4111 4134 mt 4016 4150 L
1 sg
51 55 -95 17 4104 4007 3 MP
PP
c8
4104 4007 mt 4009 4024 L
4009 4024 mt 4060 4079 L
1 sg
-95 17 50 55 4054 3952 3 MP
PP
c8
4054 3952 mt 4104 4007 L
4104 4007 mt 4009 4024 L
1 sg
51 56 -95 16 4098 3880 3 MP
PP
c8
4098 3880 mt 4003 3896 L
4003 3896 mt 4054 3952 L
1 sg
-95 16 51 55 4047 3825 3 MP
PP
c8
4047 3825 mt 4098 3880 L
4098 3880 mt 4003 3896 L
1 sg
50 56 -95 16 4092 3753 3 MP
PP
c8
4092 3753 mt 3997 3769 L
3997 3769 mt 4047 3825 L
1 sg
-95 16 51 56 4041 3697 3 MP
PP
c8
4041 3697 mt 4092 3753 L
4092 3753 mt 3997 3769 L
1 sg
51 55 -95 17 4085 3625 3 MP
PP
c8
4085 3625 mt 3990 3642 L
3990 3642 mt 4041 3697 L
1 sg
-95 17 50 55 4035 3570 3 MP
PP
c8
4035 3570 mt 4085 3625 L
4085 3625 mt 3990 3642 L
1 sg
-95 17 51 56 4028 3441 3 MP
PP
c8
4028 3441 mt 4079 3497 L
4079 3497 mt 3984 3514 L
1 sg
51 56 -95 17 4079 3497 3 MP
PP
c8
4079 3497 mt 3984 3514 L
3984 3514 mt 4035 3570 L
1 sg
-96 17 51 55 4022 4277 3 MP
PP
c8
4022 4277 mt 4073 4332 L
4073 4332 mt 3977 4349 L
1 sg
-96 17 51 56 4022 3312 3 MP
PP
c8
4022 3312 mt 4073 3368 L
4073 3368 mt 3977 3385 L
1 sg
51 56 -96 17 4073 3368 3 MP
PP
c8
4073 3368 mt 3977 3385 L
3977 3385 mt 4028 3441 L
1 sg
-95 16 50 56 4016 4150 3 MP
PP
c8
4016 4150 mt 4066 4206 L
4066 4206 mt 3971 4222 L
1 sg
51 55 -95 16 4066 4206 3 MP
PP
c8
4066 4206 mt 3971 4222 L
3971 4222 mt 4022 4277 L
1 sg
51 55 -95 16 4060 4079 3 MP
PP
c8
4060 4079 mt 3965 4095 L
3965 4095 mt 4016 4150 L
1 sg
-95 16 51 55 4009 4024 3 MP
PP
c8
4009 4024 mt 4060 4079 L
4060 4079 mt 3965 4095 L
1 sg
51 56 -96 16 4054 3952 3 MP
PP
c8
4054 3952 mt 3958 3968 L
3958 3968 mt 4009 4024 L
1 sg
-96 16 51 56 4003 3896 3 MP
PP
c8
4003 3896 mt 4054 3952 L
4054 3952 mt 3958 3968 L
1 sg
-95 16 50 56 3997 3769 3 MP
PP
c8
3997 3769 mt 4047 3825 L
4047 3825 mt 3952 3841 L
1 sg
51 55 -95 16 4047 3825 3 MP
PP
c8
4047 3825 mt 3952 3841 L
3952 3841 mt 4003 3896 L
1 sg
51 55 -95 17 4041 3697 3 MP
PP
c8
4041 3697 mt 3946 3714 L
3946 3714 mt 3997 3769 L
1 sg
-95 17 51 55 3990 3642 3 MP
PP
c8
3990 3642 mt 4041 3697 L
4041 3697 mt 3946 3714 L
1 sg
-96 16 51 56 3984 3514 3 MP
PP
c8
3984 3514 mt 4035 3570 L
4035 3570 mt 3939 3586 L
1 sg
51 56 -96 16 4035 3570 3 MP
PP
c8
4035 3570 mt 3939 3586 L
3939 3586 mt 3990 3642 L
1 sg
-95 17 51 56 3977 3385 3 MP
PP
c8
3977 3385 mt 4028 3441 L
4028 3441 mt 3933 3458 L
1 sg
51 56 -95 17 4028 3441 3 MP
PP
c8
4028 3441 mt 3933 3458 L
3933 3458 mt 3984 3514 L
gr

c8
0 sg
%%IncludeResource: font Helvetica
/Helvetica /WindowsLatin1Encoding 240 FMSR

4023 5030 mt 
(x [mm]) s
gs 933 389 5328 4228 MR c np
1 sg
50 55 -95 17 4022 4277 3 MP
PP
c8
4022 4277 mt 3927 4294 L
3927 4294 mt 3977 4349 L
1 sg
-95 17 51 55 3971 4222 3 MP
PP
c8
3971 4222 mt 4022 4277 L
4022 4277 mt 3927 4294 L
1 sg
50 56 -95 17 4022 3312 3 MP
PP
c8
4022 3312 mt 3927 3329 L
3927 3329 mt 3977 3385 L
1 sg
-95 17 51 57 3971 3255 3 MP
PP
c8
3971 3255 mt 4022 3312 L
4022 3312 mt 3927 3329 L
1 sg
-96 17 51 55 3965 4095 3 MP
PP
c8
3965 4095 mt 4016 4150 L
4016 4150 mt 3920 4167 L
1 sg
51 55 -96 17 4016 4150 3 MP
PP
c8
4016 4150 mt 3920 4167 L
3920 4167 mt 3971 4222 L
1 sg
51 55 -95 16 4009 4024 3 MP
PP
c8
4009 4024 mt 3914 4040 L
3914 4040 mt 3965 4095 L
1 sg
-95 16 51 56 3958 3968 3 MP
PP
c8
3958 3968 mt 4009 4024 L
4009 4024 mt 3914 4040 L
1 sg
-95 17 51 55 3952 3841 3 MP
PP
c8
3952 3841 mt 4003 3896 L
4003 3896 mt 3908 3913 L
1 sg
50 55 -95 17 4003 3896 3 MP
PP
c8
4003 3896 mt 3908 3913 L
3908 3913 mt 3958 3968 L
1 sg
51 55 -96 17 3997 3769 3 MP
PP
c8
3997 3769 mt 3901 3786 L
3901 3786 mt 3952 3841 L
1 sg
-96 17 51 55 3946 3714 3 MP
PP
c8
3946 3714 mt 3997 3769 L
3997 3769 mt 3901 3786 L
1 sg
-95 16 51 56 3939 3586 3 MP
PP
c8
3939 3586 mt 3990 3642 L
3990 3642 mt 3895 3658 L
1 sg
51 56 -95 16 3990 3642 3 MP
PP
c8
3990 3642 mt 3895 3658 L
3895 3658 mt 3946 3714 L
1 sg
-95 17 51 56 3933 3458 3 MP
PP
c8
3933 3458 mt 3984 3514 L
3984 3514 mt 3889 3531 L
1 sg
50 55 -95 17 3984 3514 3 MP
PP
c8
3984 3514 mt 3889 3531 L
3889 3531 mt 3939 3586 L
1 sg
-95 16 50 55 3927 4294 3 MP
PP
c8
3927 4294 mt 3977 4349 L
3977 4349 mt 3882 4365 L
1 sg
-95 17 50 56 3927 3329 3 MP
PP
c8
3927 3329 mt 3977 3385 L
3977 3385 mt 3882 3402 L
1 sg
51 56 -95 17 3977 3385 3 MP
PP
c8
3977 3385 mt 3882 3402 L
3882 3402 mt 3933 3458 L
1 sg
-95 16 51 55 3920 4167 3 MP
PP
c8
3920 4167 mt 3971 4222 L
3971 4222 mt 3876 4238 L
1 sg
-95 18 51 57 3920 3198 3 MP
PP
c8
3920 3198 mt 3971 3255 L
3971 3255 mt 3876 3273 L
1 sg
51 56 -95 18 3971 3255 3 MP
PP
c8
3971 3255 mt 3876 3273 L
3876 3273 mt 3927 3329 L
1 sg
51 56 -95 16 3971 4222 3 MP
PP
c8
3971 4222 mt 3876 4238 L
3876 4238 mt 3927 4294 L
1 sg
-95 17 51 55 3914 4040 3 MP
PP
c8
3914 4040 mt 3965 4095 L
3965 4095 mt 3870 4112 L
1 sg
50 55 -95 17 3965 4095 3 MP
PP
c8
3965 4095 mt 3870 4112 L
3870 4112 mt 3920 4167 L
1 sg
51 55 -95 17 3958 3968 3 MP
PP
c8
3958 3968 mt 3863 3985 L
3863 3985 mt 3914 4040 L
1 sg
-95 17 50 55 3908 3913 3 MP
PP
c8
3908 3913 mt 3958 3968 L
3958 3968 mt 3863 3985 L
1 sg
-95 17 51 55 3901 3786 3 MP
PP
c8
3901 3786 mt 3952 3841 L
3952 3841 mt 3857 3858 L
1 sg
51 55 -95 17 3952 3841 3 MP
PP
c8
3952 3841 mt 3857 3858 L
3857 3858 mt 3908 3913 L
1 sg
50 56 -95 16 3946 3714 3 MP
PP
c8
3946 3714 mt 3851 3730 L
3851 3730 mt 3901 3786 L
1 sg
-95 16 51 56 3895 3658 3 MP
PP
c8
3895 3658 mt 3946 3714 L
3946 3714 mt 3851 3730 L
1 sg
51 55 -95 17 3939 3586 3 MP
PP
c8
3939 3586 mt 3844 3603 L
3844 3603 mt 3895 3658 L
1 sg
-95 17 50 55 3889 3531 3 MP
PP
c8
3889 3531 mt 3939 3586 L
3939 3586 mt 3844 3603 L
1 sg
51 56 -95 17 3933 3458 3 MP
PP
c8
3933 3458 mt 3838 3475 L
3838 3475 mt 3889 3531 L
1 sg
-95 17 51 56 3882 3402 3 MP
PP
c8
3882 3402 mt 3933 3458 L
3933 3458 mt 3838 3475 L
1 sg
-95 16 51 56 3876 4238 3 MP
PP
c8
3876 4238 mt 3927 4294 L
3927 4294 mt 3832 4310 L
1 sg
50 55 -95 16 3927 4294 3 MP
PP
c8
3927 4294 mt 3832 4310 L
3832 4310 mt 3882 4365 L
1 sg
-95 17 51 56 3876 3273 3 MP
PP
c8
3876 3273 mt 3927 3329 L
3927 3329 mt 3832 3346 L
1 sg
50 56 -95 17 3927 3329 3 MP
PP
c8
3927 3329 mt 3832 3346 L
3832 3346 mt 3882 3402 L
1 sg
-95 16 50 55 3870 4112 3 MP
PP
c8
3870 4112 mt 3920 4167 L
3920 4167 mt 3825 4183 L
1 sg
51 57 -95 18 3920 3198 3 MP
PP
c8
3920 3198 mt 3825 3216 L
3825 3216 mt 3876 3273 L
1 sg
51 55 -95 16 3920 4167 3 MP
PP
c8
3920 4167 mt 3825 4183 L
3825 4183 mt 3876 4238 L
1 sg
-95 18 50 57 3870 3141 3 MP
PP
c8
3870 3141 mt 3920 3198 L
3920 3198 mt 3825 3216 L
1 sg
-95 16 51 55 3863 3985 3 MP
PP
c8
3863 3985 mt 3914 4040 L
3914 4040 mt 3819 4056 L
1 sg
51 56 -95 16 3914 4040 3 MP
PP
c8
3914 4040 mt 3819 4056 L
3819 4056 mt 3870 4112 L
1 sg
-95 16 51 55 3857 3858 3 MP
PP
c8
3857 3858 mt 3908 3913 L
3908 3913 mt 3813 3929 L
1 sg
50 56 -95 16 3908 3913 3 MP
PP
c8
3908 3913 mt 3813 3929 L
3813 3929 mt 3863 3985 L
1 sg
-95 16 50 56 3851 3730 3 MP
PP
c8
3851 3730 mt 3901 3786 L
3901 3786 mt 3806 3802 L
1 sg
51 56 -95 16 3901 3786 3 MP
PP
c8
3901 3786 mt 3806 3802 L
3806 3802 mt 3857 3858 L
1 sg
-95 17 51 55 3844 3603 3 MP
PP
c8
3844 3603 mt 3895 3658 L
3895 3658 mt 3800 3675 L
1 sg
51 55 -95 17 3895 3658 3 MP
PP
c8
3895 3658 mt 3800 3675 L
3800 3675 mt 3851 3730 L
1 sg
-95 16 51 56 3838 3475 3 MP
PP
c8
3838 3475 mt 3889 3531 L
3889 3531 mt 3794 3547 L
1 sg
50 56 -95 16 3889 3531 3 MP
PP
c8
3889 3531 mt 3794 3547 L
3794 3547 mt 3844 3603 L
1 sg
51 56 -95 17 3882 3402 3 MP
PP
c8
3882 3402 mt 3787 3419 L
3787 3419 mt 3838 3475 L
1 sg
-95 17 50 56 3832 3346 3 MP
PP
c8
3832 3346 mt 3882 3402 L
3882 3402 mt 3787 3419 L
1 sg
-95 17 51 57 3825 3216 3 MP
PP
c8
3825 3216 mt 3876 3273 L
3876 3273 mt 3781 3290 L
1 sg
51 56 -95 17 3876 3273 3 MP
PP
c8
3876 3273 mt 3781 3290 L
3781 3290 mt 3832 3346 L
1 sg
51 55 -95 17 3876 4238 3 MP
PP
c8
3876 4238 mt 3781 4255 L
3781 4255 mt 3832 4310 L
1 sg
-95 17 51 55 3825 4183 3 MP
PP
c8
3825 4183 mt 3876 4238 L
3876 4238 mt 3781 4255 L
1 sg
-95 16 51 56 3819 4056 3 MP
PP
c8
3819 4056 mt 3870 4112 L
3870 4112 mt 3775 4128 L
1 sg
50 55 -95 16 3870 4112 3 MP
PP
c8
3870 4112 mt 3775 4128 L
3775 4128 mt 3825 4183 L
1 sg
50 58 -95 17 3870 3141 3 MP
PP
c8
3870 3141 mt 3775 3158 L
3775 3158 mt 3825 3216 L
1 sg
-95 17 51 58 3819 3083 3 MP
PP
c8
3819 3083 mt 3870 3141 L
3870 3141 mt 3775 3158 L
1 sg
-95 16 50 56 3813 3929 3 MP
PP
c8
3813 3929 mt 3863 3985 L
3863 3985 mt 3768 4001 L
1 sg
51 55 -95 16 3863 3985 3 MP
PP
c8
3863 3985 mt 3768 4001 L
3768 4001 mt 3819 4056 L
1 sg
-95 16 51 56 3806 3802 3 MP
PP
c8
3806 3802 mt 3857 3858 L
3857 3858 mt 3762 3874 L
1 sg
51 55 -95 16 3857 3858 3 MP
PP
c8
3857 3858 mt 3762 3874 L
3762 3874 mt 3813 3929 L
1 sg
50 55 -95 17 3851 3730 3 MP
PP
c8
3851 3730 mt 3756 3747 L
3756 3747 mt 3806 3802 L
1 sg
-95 17 51 55 3800 3675 3 MP
PP
c8
3800 3675 mt 3851 3730 L
3851 3730 mt 3756 3747 L
1 sg
51 56 -95 16 3844 3603 3 MP
PP
c8
3844 3603 mt 3749 3619 L
3749 3619 mt 3800 3675 L
1 sg
-95 16 50 56 3794 3547 3 MP
PP
c8
3794 3547 mt 3844 3603 L
3844 3603 mt 3749 3619 L
1 sg
-95 17 51 56 3787 3419 3 MP
PP
c8
3787 3419 mt 3838 3475 L
3838 3475 mt 3743 3492 L
1 sg
51 55 -95 17 3838 3475 3 MP
PP
c8
3838 3475 mt 3743 3492 L
3743 3492 mt 3794 3547 L
1 sg
50 56 -95 17 3832 3346 3 MP
PP
c8
3832 3346 mt 3737 3363 L
3737 3363 mt 3787 3419 L
1 sg
-95 17 51 56 3781 3290 3 MP
PP
c8
3781 3290 mt 3832 3346 L
3832 3346 mt 3737 3363 L
1 sg
-95 17 50 58 3775 3158 3 MP
PP
c8
3775 3158 mt 3825 3216 L
3825 3216 mt 3730 3233 L
1 sg
51 55 -95 17 3825 4183 3 MP
PP
c8
3825 4183 mt 3730 4200 L
3730 4200 mt 3781 4255 L
1 sg
51 57 -95 17 3825 3216 3 MP
PP
c8
3825 3216 mt 3730 3233 L
3730 3233 mt 3781 3290 L
1 sg
-95 17 50 55 3775 4128 3 MP
PP
c8
3775 4128 mt 3825 4183 L
3825 4183 mt 3730 4200 L
1 sg
-95 17 51 55 3768 4001 3 MP
PP
c8
3768 4001 mt 3819 4056 L
3819 4056 mt 3724 4073 L
1 sg
51 55 -95 17 3819 4056 3 MP
PP
c8
3819 4056 mt 3724 4073 L
3724 4073 mt 3775 4128 L
1 sg
-95 17 51 60 3768 3023 3 MP
PP
c8
3768 3023 mt 3819 3083 L
3819 3083 mt 3724 3100 L
1 sg
51 58 -95 17 3819 3083 3 MP
PP
c8
3819 3083 mt 3724 3100 L
3724 3100 mt 3775 3158 L
1 sg
51 55 -96 17 3813 3929 3 MP
PP
c8
3813 3929 mt 3717 3946 L
3717 3946 mt 3768 4001 L
1 sg
-96 17 51 55 3762 3874 3 MP
PP
c8
3762 3874 mt 3813 3929 L
3813 3929 mt 3717 3946 L
1 sg
-95 17 50 55 3756 3747 3 MP
PP
c8
3756 3747 mt 3806 3802 L
3806 3802 mt 3711 3819 L
1 sg
51 55 -95 17 3806 3802 3 MP
PP
c8
3806 3802 mt 3711 3819 L
3711 3819 mt 3762 3874 L
1 sg
51 56 -95 16 3800 3675 3 MP
PP
c8
3800 3675 mt 3705 3691 L
3705 3691 mt 3756 3747 L
1 sg
-95 16 51 56 3749 3619 3 MP
PP
c8
3749 3619 mt 3800 3675 L
3800 3675 mt 3705 3691 L
1 sg
-96 17 51 55 3743 3492 3 MP
PP
c8
3743 3492 mt 3794 3547 L
3794 3547 mt 3698 3564 L
1 sg
51 55 -96 17 3794 3547 3 MP
PP
c8
3794 3547 mt 3698 3564 L
3698 3564 mt 3749 3619 L
1 sg
-95 17 50 56 3737 3363 3 MP
PP
c8
3737 3363 mt 3787 3419 L
3787 3419 mt 3692 3436 L
1 sg
51 56 -95 17 3787 3419 3 MP
PP
c8
3787 3419 mt 3692 3436 L
3692 3436 mt 3743 3492 L
1 sg
51 56 -95 17 3781 3290 3 MP
PP
c8
3781 3290 mt 3686 3307 L
3686 3307 mt 3737 3363 L
1 sg
-95 17 51 57 3730 3233 3 MP
PP
c8
3730 3233 mt 3781 3290 L
3781 3290 mt 3686 3307 L
1 sg
-96 16 51 55 3724 4073 3 MP
PP
c8
3724 4073 mt 3775 4128 L
3775 4128 mt 3679 4144 L
1 sg
51 56 -96 16 3775 4128 3 MP
PP
c8
3775 4128 mt 3679 4144 L
3679 4144 mt 3730 4200 L
1 sg
51 57 -96 18 3775 3158 3 MP
PP
c8
3775 3158 mt 3679 3176 L
3679 3176 mt 3730 3233 L
1 sg
-96 18 51 58 3724 3100 3 MP
PP
c8
3724 3100 mt 3775 3158 L
3775 3158 mt 3679 3176 L
1 sg
51 56 -95 16 3768 4001 3 MP
PP
c8
3768 4001 mt 3673 4017 L
3673 4017 mt 3724 4073 L
1 sg
51 59 -95 18 3768 3023 3 MP
PP
c8
3768 3023 mt 3673 3041 L
3673 3041 mt 3724 3100 L
1 sg
-95 18 51 61 3717 2962 3 MP
PP
c8
3717 2962 mt 3768 3023 L
3768 3023 mt 3673 3041 L
1 sg
-95 16 51 55 3717 3946 3 MP
PP
c8
3717 3946 mt 3768 4001 L
3768 4001 mt 3673 4017 L
1 sg
50 56 -95 16 3762 3874 3 MP
PP
c8
3762 3874 mt 3667 3890 L
3667 3890 mt 3717 3946 L
1 sg
-95 16 51 55 3711 3819 3 MP
PP
c8
3711 3819 mt 3762 3874 L
3762 3874 mt 3667 3890 L
1 sg
51 56 -96 16 3756 3747 3 MP
PP
c8
3756 3747 mt 3660 3763 L
3660 3763 mt 3711 3819 L
1 sg
-96 16 51 56 3705 3691 3 MP
PP
c8
3705 3691 mt 3756 3747 L
3756 3747 mt 3660 3763 L
1 sg
51 55 -95 17 3749 3619 3 MP
PP
c8
3749 3619 mt 3654 3636 L
3654 3636 mt 3705 3691 L
1 sg
-95 17 51 55 3698 3564 3 MP
PP
c8
3698 3564 mt 3749 3619 L
3749 3619 mt 3654 3636 L
1 sg
50 56 -95 16 3743 3492 3 MP
PP
c8
3743 3492 mt 3648 3508 L
3648 3508 mt 3698 3564 L
1 sg
-95 16 51 56 3692 3436 3 MP
PP
c8
3692 3436 mt 3743 3492 L
3743 3492 mt 3648 3508 L
1 sg
-96 17 51 56 3686 3307 3 MP
PP
c8
3686 3307 mt 3737 3363 L
3737 3363 mt 3641 3380 L
1 sg
51 56 -96 17 3737 3363 3 MP
PP
c8
3737 3363 mt 3641 3380 L
3641 3380 mt 3692 3436 L
1 sg
51 57 -95 17 3730 3233 3 MP
PP
c8
3730 3233 mt 3635 3250 L
3635 3250 mt 3686 3307 L
1 sg
-95 17 51 57 3679 3176 3 MP
PP
c8
3679 3176 mt 3730 3233 L
3730 3233 mt 3635 3250 L
1 sg
-95 16 51 56 3673 4017 3 MP
PP
c8
3673 4017 mt 3724 4073 L
3724 4073 mt 3629 4089 L
1 sg
50 55 -95 16 3724 4073 3 MP
PP
c8
3724 4073 mt 3629 4089 L
3629 4089 mt 3679 4144 L
1 sg
50 58 -95 18 3724 3100 3 MP
PP
c8
3724 3100 mt 3629 3118 L
3629 3118 mt 3679 3176 L
1 sg
-95 18 51 59 3673 3041 3 MP
PP
c8
3673 3041 mt 3724 3100 L
3724 3100 mt 3629 3118 L
1 sg
51 60 -95 19 3717 2962 3 MP
PP
c8
3717 2962 mt 3622 2981 L
3622 2981 mt 3673 3041 L
1 sg
51 55 -95 16 3717 3946 3 MP
PP
c8
3717 3946 mt 3622 3962 L
3622 3962 mt 3673 4017 L
1 sg
-95 16 50 56 3667 3890 3 MP
PP
c8
3667 3890 mt 3717 3946 L
3717 3946 mt 3622 3962 L
1 sg
-95 19 50 64 3667 2898 3 MP
PP
/c9 { 0.000000 0.000000 0.625000 sr} bdef
c9
3667 2898 mt 3717 2962 L
c8
3717 2962 mt 3622 2981 L
1 sg
51 55 -95 16 3711 3819 3 MP
PP
c8
3711 3819 mt 3616 3835 L
3616 3835 mt 3667 3890 L
1 sg
-95 16 51 56 3660 3763 3 MP
PP
c8
3660 3763 mt 3711 3819 L
3711 3819 mt 3616 3835 L
1 sg
-95 17 51 55 3654 3636 3 MP
PP
c8
3654 3636 mt 3705 3691 L
3705 3691 mt 3610 3708 L
1 sg
50 55 -95 17 3705 3691 3 MP
PP
c8
3705 3691 mt 3610 3708 L
3610 3708 mt 3660 3763 L
1 sg
-95 16 50 56 3648 3508 3 MP
PP
c8
3648 3508 mt 3698 3564 L
3698 3564 mt 3603 3580 L
1 sg
51 56 -95 16 3698 3564 3 MP
PP
c8
3698 3564 mt 3603 3580 L
3603 3580 mt 3654 3636 L
1 sg
-95 16 51 56 3641 3380 3 MP
PP
c8
3641 3380 mt 3692 3436 L
3692 3436 mt 3597 3452 L
1 sg
51 56 -95 16 3692 3436 3 MP
PP
c8
3692 3436 mt 3597 3452 L
3597 3452 mt 3648 3508 L
1 sg
50 57 -95 16 3686 3307 3 MP
PP
c8
3686 3307 mt 3591 3323 L
3591 3323 mt 3641 3380 L
1 sg
-95 16 51 57 3635 3250 3 MP
PP
c8
3635 3250 mt 3686 3307 L
3686 3307 mt 3591 3323 L
1 sg
-95 17 50 58 3629 3118 3 MP
PP
c8
3629 3118 mt 3679 3176 L
3679 3176 mt 3584 3193 L
1 sg
51 57 -95 17 3679 3176 3 MP
PP
c8
3679 3176 mt 3584 3193 L
3584 3193 mt 3635 3250 L
1 sg
51 59 -95 18 3673 3041 3 MP
PP
c8
3673 3041 mt 3578 3059 L
3578 3059 mt 3629 3118 L
1 sg
-95 17 51 55 3622 3962 3 MP
PP
c8
3622 3962 mt 3673 4017 L
3673 4017 mt 3578 4034 L
1 sg
-95 18 51 60 3622 2981 3 MP
PP
c8
3622 2981 mt 3673 3041 L
3673 3041 mt 3578 3059 L
1 sg
51 55 -95 17 3673 4017 3 MP
PP
c8
3673 4017 mt 3578 4034 L
3578 4034 mt 3629 4089 L
1 sg
50 55 -95 17 3667 3890 3 MP
PP
c8
3667 3890 mt 3572 3907 L
3572 3907 mt 3622 3962 L
1 sg
-95 17 51 55 3616 3835 3 MP
PP
c8
3616 3835 mt 3667 3890 L
3667 3890 mt 3572 3907 L
1 sg
-95 19 51 69 3616 2829 3 MP
PP
c9
3616 2829 mt 3667 2898 L
3667 2898 mt 3572 2917 L
1 sg
50 64 -95 19 3667 2898 3 MP
PP
c9
3667 2898 mt 3572 2917 L
3572 2917 mt 3622 2981 L
1 sg
-95 17 50 55 3610 3708 3 MP
PP
c8
3610 3708 mt 3660 3763 L
3660 3763 mt 3565 3780 L
1 sg
51 55 -95 17 3660 3763 3 MP
PP
c8
3660 3763 mt 3565 3780 L
3565 3780 mt 3616 3835 L
1 sg
51 56 -95 16 3654 3636 3 MP
PP
c8
3654 3636 mt 3559 3652 L
3559 3652 mt 3610 3708 L
1 sg
-95 16 51 56 3603 3580 3 MP
PP
c8
3603 3580 mt 3654 3636 L
3654 3636 mt 3559 3652 L
1 sg
50 55 -95 17 3648 3508 3 MP
PP
c8
3648 3508 mt 3553 3525 L
3553 3525 mt 3603 3580 L
1 sg
-95 17 51 56 3597 3452 3 MP
PP
c8
3597 3452 mt 3648 3508 L
3648 3508 mt 3553 3525 L
1 sg
-95 16 50 57 3591 3323 3 MP
PP
c8
3591 3323 mt 3641 3380 L
3641 3380 mt 3546 3396 L
1 sg
51 56 -95 16 3641 3380 3 MP
PP
c8
3641 3380 mt 3546 3396 L
3546 3396 mt 3597 3452 L
1 sg
51 56 -95 17 3635 3250 3 MP
PP
c8
3635 3250 mt 3540 3267 L
3540 3267 mt 3591 3323 L
1 sg
-95 17 51 57 3584 3193 3 MP
PP
c8
3584 3193 mt 3635 3250 L
3635 3250 mt 3540 3267 L
1 sg
-95 17 51 59 3578 3059 3 MP
PP
c8
3578 3059 mt 3629 3118 L
3629 3118 mt 3534 3135 L
1 sg
50 58 -95 17 3629 3118 3 MP
PP
c8
3629 3118 mt 3534 3135 L
3534 3135 mt 3584 3193 L
1 sg
51 60 -95 18 3622 2981 3 MP
PP
c8
3622 2981 mt 3527 2999 L
3527 2999 mt 3578 3059 L
1 sg
51 56 -95 16 3622 3962 3 MP
PP
c8
3622 3962 mt 3527 3978 L
3527 3978 mt 3578 4034 L
1 sg
-95 16 50 55 3572 3907 3 MP
PP
c8
3572 3907 mt 3622 3962 L
3622 3962 mt 3527 3978 L
1 sg
-95 18 50 64 3572 2917 3 MP
PP
c9
3572 2917 mt 3622 2981 L
c8
3622 2981 mt 3527 2999 L
1 sg
-95 16 51 55 3565 3780 3 MP
PP
c8
3565 3780 mt 3616 3835 L
3616 3835 mt 3521 3851 L
1 sg
51 56 -95 16 3616 3835 3 MP
PP
c8
3616 3835 mt 3521 3851 L
3521 3851 mt 3572 3907 L
1 sg
-95 20 51 77 3565 2752 3 MP
PP
/c10 { 0.000000 0.000000 0.687500 sr} bdef
c10
3565 2752 mt 3616 2829 L
c9
3616 2829 mt 3521 2849 L
1 sg
51 68 -95 20 3616 2829 3 MP
PP
c9
3616 2829 mt 3521 2849 L
3521 2849 mt 3572 2917 L
1 sg
-95 16 51 56 3559 3652 3 MP
PP
c8
3559 3652 mt 3610 3708 L
3610 3708 mt 3515 3724 L
1 sg
50 56 -95 16 3610 3708 3 MP
PP
c8
3610 3708 mt 3515 3724 L
3515 3724 mt 3565 3780 L
1 sg
-95 17 50 55 3553 3525 3 MP
PP
c8
3553 3525 mt 3603 3580 L
3603 3580 mt 3508 3597 L
1 sg
51 55 -95 17 3603 3580 3 MP
PP
c8
3603 3580 mt 3508 3597 L
3508 3597 mt 3559 3652 L
1 sg
51 56 -95 17 3597 3452 3 MP
PP
c8
3597 3452 mt 3502 3469 L
3502 3469 mt 3553 3525 L
1 sg
-95 17 51 56 3546 3396 3 MP
PP
c8
3546 3396 mt 3597 3452 L
3597 3452 mt 3502 3469 L
1 sg
50 56 -95 17 3591 3323 3 MP
PP
c8
3591 3323 mt 3496 3340 L
3496 3340 mt 3546 3396 L
1 sg
-95 17 51 56 3540 3267 3 MP
PP
c8
3540 3267 mt 3591 3323 L
3591 3323 mt 3496 3340 L
1 sg
51 57 -95 17 3584 3193 3 MP
PP
c8
3584 3193 mt 3489 3210 L
3489 3210 mt 3540 3267 L
1 sg
-95 17 50 58 3534 3135 3 MP
PP
c8
3534 3135 mt 3584 3193 L
3584 3193 mt 3489 3210 L
1 sg
-95 17 51 60 3527 2999 3 MP
PP
c8
3527 2999 mt 3578 3059 L
3578 3059 mt 3483 3076 L
1 sg
51 59 -95 17 3578 3059 3 MP
PP
c8
3578 3059 mt 3483 3076 L
3483 3076 mt 3534 3135 L
1 sg
-95 19 51 68 3521 2849 3 MP
PP
c9
3521 2849 mt 3572 2917 L
3572 2917 mt 3477 2936 L
1 sg
50 63 -95 19 3572 2917 3 MP
PP
c9
3572 2917 mt 3477 2936 L
3477 2936 mt 3527 2999 L
1 sg
50 55 -95 16 3572 3907 3 MP
PP
c8
3572 3907 mt 3477 3923 L
3477 3923 mt 3527 3978 L
1 sg
-95 16 51 56 3521 3851 3 MP
PP
c8
3521 3851 mt 3572 3907 L
3572 3907 mt 3477 3923 L
1 sg
51 55 -95 16 3565 3780 3 MP
PP
c8
3565 3780 mt 3470 3796 L
3470 3796 mt 3521 3851 L
1 sg
-95 21 50 97 3515 2655 3 MP
PP
/c11 { 0.000000 0.000000 0.750000 sr} bdef
c11
3515 2655 mt 3565 2752 L
c10
3565 2752 mt 3470 2773 L
1 sg
-95 16 50 56 3515 3724 3 MP
PP
c8
3515 3724 mt 3565 3780 L
3565 3780 mt 3470 3796 L
1 sg
51 76 -95 21 3565 2752 3 MP
PP
c10
3565 2752 mt 3470 2773 L
3470 2773 mt 3521 2849 L
1 sg
51 55 -95 17 3559 3652 3 MP
PP
c8
3559 3652 mt 3464 3669 L
3464 3669 mt 3515 3724 L
1 sg
-95 17 51 55 3508 3597 3 MP
PP
c8
3508 3597 mt 3559 3652 L
3559 3652 mt 3464 3669 L
1 sg
51 56 -96 16 3553 3525 3 MP
PP
c8
3553 3525 mt 3457 3541 L
3457 3541 mt 3508 3597 L
1 sg
-96 16 51 56 3502 3469 3 MP
PP
c8
3502 3469 mt 3553 3525 L
3553 3525 mt 3457 3541 L
1 sg
-95 17 50 56 3496 3340 3 MP
PP
c8
3496 3340 mt 3546 3396 L
3546 3396 mt 3451 3413 L
1 sg
51 56 -95 17 3546 3396 3 MP
PP
c8
3546 3396 mt 3451 3413 L
3451 3413 mt 3502 3469 L
1 sg
51 57 -95 16 3540 3267 3 MP
PP
c8
3540 3267 mt 3445 3283 L
3445 3283 mt 3496 3340 L
1 sg
-95 16 51 57 3489 3210 3 MP
PP
c8
3489 3210 mt 3540 3267 L
3540 3267 mt 3445 3283 L
1 sg
51 58 -96 17 3534 3135 3 MP
PP
c8
3534 3135 mt 3438 3152 L
3438 3152 mt 3489 3210 L
1 sg
-96 17 51 59 3483 3076 3 MP
PP
c8
3483 3076 mt 3534 3135 L
3534 3135 mt 3438 3152 L
1 sg
51 60 -95 17 3527 2999 3 MP
PP
c8
3527 2999 mt 3432 3016 L
3432 3016 mt 3483 3076 L
1 sg
-95 17 50 63 3477 2936 3 MP
PP
c9
3477 2936 mt 3527 2999 L
c8
3527 2999 mt 3432 3016 L
1 sg
51 55 -95 17 3521 3851 3 MP
PP
c8
3521 3851 mt 3426 3868 L
3426 3868 mt 3477 3923 L
1 sg
-95 17 51 55 3470 3796 3 MP
PP
c8
3470 3796 mt 3521 3851 L
3521 3851 mt 3426 3868 L
1 sg
-95 19 51 76 3470 2773 3 MP
PP
c10
3470 2773 mt 3521 2849 L
c9
3521 2849 mt 3426 2868 L
1 sg
51 68 -95 19 3521 2849 3 MP
PP
c9
3521 2849 mt 3426 2868 L
3426 2868 mt 3477 2936 L
1 sg
51 56 -96 16 3515 3724 3 MP
PP
c8
3515 3724 mt 3419 3740 L
3419 3740 mt 3470 3796 L
1 sg
-96 16 51 55 3464 3669 3 MP
PP
c8
3464 3669 mt 3515 3724 L
3515 3724 mt 3419 3740 L
1 sg
-96 24 51 146 3464 2509 3 MP
PP
/c12 { 0.000000 0.000000 1.000000 sr} bdef
c12
3464 2509 mt 3515 2655 L
c11
3515 2655 mt 3419 2679 L
0 sg
3429 2679 mt 3329 2690 L
3329 2690 mt 3229 2702 L
3229 2702 mt 3131 2714 L
3131 2714 mt 3033 2728 L
3033 2728 mt 2958 2741 L
2958 2741 mt 2937 2744 L
2937 2744 mt 2917 2748 L
2917 2748 mt 2843 2761 L
2843 2761 mt 2750 2780 L
2750 2780 mt 2659 2801 L
2659 2801 mt 2568 2822 L
2568 2822 mt 2478 2844 L
1 sg
51 94 -96 24 3515 2655 3 MP
PP
c11
3515 2655 mt 3419 2679 L
3419 2679 mt 3470 2773 L
1 sg
51 56 -95 16 3508 3597 3 MP
PP
c8
3508 3597 mt 3413 3613 L
3413 3613 mt 3464 3669 L
1 sg
-95 16 51 56 3457 3541 3 MP
PP
c8
3457 3541 mt 3508 3597 L
3508 3597 mt 3413 3613 L
1 sg
50 56 -95 16 3502 3469 3 MP
PP
c8
3502 3469 mt 3407 3485 L
3407 3485 mt 3457 3541 L
1 sg
-95 16 51 56 3451 3413 3 MP
PP
c8
3451 3413 mt 3502 3469 L
3502 3469 mt 3407 3485 L
1 sg
-96 16 51 57 3445 3283 3 MP
PP
c8
3445 3283 mt 3496 3340 L
3496 3340 mt 3400 3356 L
1 sg
51 57 -96 16 3496 3340 3 MP
PP
c8
3496 3340 mt 3400 3356 L
3400 3356 mt 3451 3413 L
1 sg
51 57 -95 16 3489 3210 3 MP
PP
c8
3489 3210 mt 3394 3226 L
3394 3226 mt 3445 3283 L
1 sg
-95 16 51 58 3438 3152 3 MP
PP
c8
3438 3152 mt 3489 3210 L
3489 3210 mt 3394 3226 L
1 sg
-95 17 51 60 3432 3016 3 MP
PP
c8
3432 3016 mt 3483 3076 L
3483 3076 mt 3388 3093 L
1 sg
50 59 -95 17 3483 3076 3 MP
PP
c8
3483 3076 mt 3388 3093 L
3388 3093 mt 3438 3152 L
1 sg
51 63 -96 17 3477 2936 3 MP
PP
c9
3477 2936 mt 3381 2953 L
3381 2953 mt 3432 3016 L
1 sg
-96 17 51 68 3426 2868 3 MP
PP
c9
3426 2868 mt 3477 2936 L
3477 2936 mt 3381 2953 L
1 sg
-95 16 51 56 3419 3740 3 MP
PP
c8
3419 3740 mt 3470 3796 L
3470 3796 mt 3375 3812 L
1 sg
51 75 -95 20 3470 2773 3 MP
PP
c10
3470 2773 mt 3375 2793 L
3375 2793 mt 3426 2868 L
1 sg
51 56 -95 16 3470 3796 3 MP
PP
c8
3470 3796 mt 3375 3812 L
3375 3812 mt 3426 3868 L
1 sg
-95 20 51 94 3419 2679 3 MP
PP
c11
3419 2679 mt 3470 2773 L
c10
3470 2773 mt 3375 2793 L
1 sg
50 55 -95 16 3464 3669 3 MP
PP
c8
3464 3669 mt 3369 3685 L
3369 3685 mt 3419 3740 L
1 sg
-95 30 51 314 3413 2195 3 MP
PP
/c13 { 0.000000 0.500000 1.000000 sr} bdef
c13
3413 2195 mt 3464 2509 L
c12
3464 2509 mt 3369 2539 L
1 sg
50 140 -95 30 3464 2509 3 MP
PP
c12
3464 2509 mt 3369 2539 L
/c14 { 0.000000 0.000000 0.937500 sr} bdef
c14
3369 2539 mt 3419 2679 L
1 sg
-95 16 51 56 3413 3613 3 MP
PP
c8
3413 3613 mt 3464 3669 L
3464 3669 mt 3369 3685 L
1 sg
51 56 -95 16 3457 3541 3 MP
PP
c8
3457 3541 mt 3362 3557 L
3362 3557 mt 3413 3613 L
1 sg
-95 16 50 56 3407 3485 3 MP
PP
c8
3407 3485 mt 3457 3541 L
3457 3541 mt 3362 3557 L
1 sg
51 56 -95 16 3451 3413 3 MP
PP
c8
3451 3413 mt 3356 3429 L
3356 3429 mt 3407 3485 L
1 sg
-95 16 51 57 3400 3356 3 MP
PP
c8
3400 3356 mt 3451 3413 L
3451 3413 mt 3356 3429 L
1 sg
-95 17 51 57 3394 3226 3 MP
PP
c8
3394 3226 mt 3445 3283 L
3445 3283 mt 3350 3300 L
1 sg
50 56 -95 17 3445 3283 3 MP
PP
c8
3445 3283 mt 3350 3300 L
3350 3300 mt 3400 3356 L
1 sg
51 57 -95 17 3438 3152 3 MP
PP
c8
3438 3152 mt 3343 3169 L
3343 3169 mt 3394 3226 L
1 sg
-95 17 50 59 3388 3093 3 MP
PP
c8
3388 3093 mt 3438 3152 L
3438 3152 mt 3343 3169 L
1 sg
51 60 -95 17 3432 3016 3 MP
PP
c8
3432 3016 mt 3337 3033 L
3337 3033 mt 3388 3093 L
1 sg
-95 17 51 63 3381 2953 3 MP
PP
c9
3381 2953 mt 3432 3016 L
c8
3432 3016 mt 3337 3033 L
1 sg
50 66 -95 19 3426 2868 3 MP
PP
c9
3426 2868 mt 3331 2887 L
3331 2887 mt 3381 2953 L
1 sg
-95 19 51 75 3375 2793 3 MP
PP
c10
3375 2793 mt 3426 2868 L
c9
3426 2868 mt 3331 2887 L
1 sg
51 55 -95 17 3419 3740 3 MP
PP
c8
3419 3740 mt 3324 3757 L
3324 3757 mt 3375 3812 L
1 sg
-95 17 50 55 3369 3685 3 MP
PP
c8
3369 3685 mt 3419 3740 L
3419 3740 mt 3324 3757 L
1 sg
51 92 -95 22 3419 2679 3 MP
PP
c11
3419 2679 mt 3324 2701 L
3324 2701 mt 3375 2793 L
0 sg
3374 2620 mt 3275 2632 L
3275 2632 mt 3177 2645 L
3177 2645 mt 3079 2658 L
3079 2658 mt 2982 2673 L
2982 2673 mt 2920 2683 L
3388 2635 mt 3290 2648 L
3290 2648 mt 3193 2662 L
3193 2662 mt 3095 2676 L
3095 2676 mt 2999 2691 L
2999 2691 mt 2903 2707 L
2903 2707 mt 2809 2724 L
2809 2724 mt 2715 2742 L
2715 2742 mt 2622 2761 L
2622 2761 mt 2529 2780 L
2529 2780 mt 2437 2800 L
3402 2650 mt 3305 2664 L
3305 2664 mt 3208 2679 L
3208 2679 mt 3112 2694 L
3112 2694 mt 3016 2710 L
3016 2710 mt 2920 2726 L
2920 2726 mt 2826 2743 L
2826 2743 mt 2731 2760 L
2731 2760 mt 2638 2778 L
2638 2778 mt 2544 2796 L
2544 2796 mt 2451 2815 L
1 sg
-95 22 50 140 3369 2539 3 MP
PP
c14
3369 2539 mt 3419 2679 L
c11
3419 2679 mt 3324 2701 L
1 sg
-95 47 51 1453 3362 742 3 MP
PP
/c15 { 0.500000 0.000000 0.000000 sr} bdef
c15
3362  742 mt 3413 2195 L
c13
3413 2195 mt 3318 2242 L
1 sg
51 297 -95 47 3413 2195 3 MP
PP
c13
3413 2195 mt 3318 2242 L
/c16 { 0.000000 0.437500 1.000000 sr} bdef
c16
3318 2242 mt 3369 2539 L
1 sg
-95 16 51 56 3362 3557 3 MP
PP
c8
3362 3557 mt 3413 3613 L
3413 3613 mt 3318 3629 L
1 sg
51 56 -95 16 3413 3613 3 MP
PP
c8
3413 3613 mt 3318 3629 L
3318 3629 mt 3369 3685 L
1 sg
50 56 -95 16 3407 3485 3 MP
PP
c8
3407 3485 mt 3312 3501 L
3312 3501 mt 3362 3557 L
1 sg
-95 16 51 56 3356 3429 3 MP
PP
c8
3356 3429 mt 3407 3485 L
3407 3485 mt 3312 3501 L
1 sg
-95 17 50 56 3350 3300 3 MP
PP
c8
3350 3300 mt 3400 3356 L
3400 3356 mt 3305 3373 L
1 sg
51 56 -95 17 3400 3356 3 MP
PP
c8
3400 3356 mt 3305 3373 L
3305 3373 mt 3356 3429 L
1 sg
-95 17 51 57 3343 3169 3 MP
PP
c8
3343 3169 mt 3394 3226 L
3394 3226 mt 3299 3243 L
1 sg
51 57 -95 17 3394 3226 3 MP
PP
c8
3394 3226 mt 3299 3243 L
3299 3243 mt 3350 3300 L
1 sg
50 59 -95 17 3388 3093 3 MP
PP
c8
3388 3093 mt 3293 3110 L
3293 3110 mt 3343 3169 L
1 sg
-95 17 51 60 3337 3033 3 MP
PP
c8
3337 3033 mt 3388 3093 L
3388 3093 mt 3293 3110 L
1 sg
51 62 -95 18 3381 2953 3 MP
PP
c9
3381 2953 mt 3286 2971 L
3286 2971 mt 3337 3033 L
1 sg
-95 18 50 66 3331 2887 3 MP
PP
c9
3331 2887 mt 3381 2953 L
3381 2953 mt 3286 2971 L
1 sg
-95 19 51 92 3324 2701 3 MP
PP
c11
3324 2701 mt 3375 2793 L
c10
3375 2793 mt 3280 2812 L
1 sg
51 75 -95 19 3375 2793 3 MP
PP
c10
3375 2793 mt 3280 2812 L
3280 2812 mt 3331 2887 L
1 sg
50 135 -95 27 3369 2539 3 MP
PP
c14
3369 2539 mt 3274 2566 L
3274 2566 mt 3324 2701 L
1 sg
-95 16 51 56 3318 3629 3 MP
PP
c8
3318 3629 mt 3369 3685 L
3369 3685 mt 3274 3701 L
1 sg
50 56 -95 16 3369 3685 3 MP
PP
c8
3369 3685 mt 3274 3701 L
3274 3701 mt 3324 3757 L
1 sg
-95 27 51 297 3318 2242 3 MP
PP
c16
3318 2242 mt 3369 2539 L
c14
3369 2539 mt 3274 2566 L
1 sg
-95 16 50 56 3312 3501 3 MP
PP
c8
3312 3501 mt 3362 3557 L
3362 3557 mt 3267 3573 L
1 sg
51 56 -95 16 3362 3557 3 MP
PP
c8
3362 3557 mt 3267 3573 L
3267 3573 mt 3318 3629 L
1 sg
51 1362 -95 138 3362 742 3 MP
PP
c15
3362  742 mt 3267  880 L
/c17 { 0.750000 0.000000 0.000000 sr} bdef
c17
3267  880 mt 3318 2242 L
1 sg
51 56 -95 16 3356 3429 3 MP
PP
c8
3356 3429 mt 3261 3445 L
3261 3445 mt 3312 3501 L
1 sg
-95 16 51 56 3305 3373 3 MP
PP
c8
3305 3373 mt 3356 3429 L
3356 3429 mt 3261 3445 L
1 sg
-95 16 51 57 3299 3243 3 MP
PP
c8
3299 3243 mt 3350 3300 L
3350 3300 mt 3255 3316 L
1 sg
50 57 -95 16 3350 3300 3 MP
PP
c8
3350 3300 mt 3255 3316 L
3255 3316 mt 3305 3373 L
1 sg
51 58 -95 16 3343 3169 3 MP
PP
c8
3343 3169 mt 3248 3185 L
3248 3185 mt 3299 3243 L
1 sg
-95 16 50 59 3293 3110 3 MP
PP
c8
3293 3110 mt 3343 3169 L
3343 3169 mt 3248 3185 L
1 sg
51 60 -95 17 3337 3033 3 MP
PP
c8
3337 3033 mt 3242 3050 L
3242 3050 mt 3293 3110 L
1 sg
-95 17 51 62 3286 2971 3 MP
PP
c9
3286 2971 mt 3337 3033 L
c8
3337 3033 mt 3242 3050 L
1 sg
50 67 -95 17 3331 2887 3 MP
PP
c9
3331 2887 mt 3236 2904 L
3236 2904 mt 3286 2971 L
1 sg
-95 17 51 75 3280 2812 3 MP
PP
c10
3280 2812 mt 3331 2887 L
c9
3331 2887 mt 3236 2904 L
1 sg
51 90 -95 21 3324 2701 3 MP
PP
c11
3324 2701 mt 3229 2722 L
3229 2722 mt 3280 2812 L
1 sg
-95 21 50 135 3274 2566 3 MP
PP
c14
3274 2566 mt 3324 2701 L
c11
3324 2701 mt 3229 2722 L
1 sg
-95 40 51 1362 3267 880 3 MP
PP
c17
3267  880 mt 3318 2242 L
c16
3318 2242 mt 3223 2282 L
1 sg
51 284 -95 40 3318 2242 3 MP
PP
c16
3318 2242 mt 3223 2282 L
3223 2282 mt 3274 2566 L
1 sg
-95 16 51 56 3267 3573 3 MP
PP
c8
3267 3573 mt 3318 3629 L
3318 3629 mt 3223 3645 L
1 sg
51 56 -95 16 3318 3629 3 MP
PP
c8
3318 3629 mt 3223 3645 L
3223 3645 mt 3274 3701 L
1 sg
-96 16 51 56 3261 3445 3 MP
PP
c8
3261 3445 mt 3312 3501 L
3312 3501 mt 3216 3517 L
1 sg
51 56 -96 16 3312 3501 3 MP
PP
c8
3312 3501 mt 3216 3517 L
3216 3517 mt 3267 3573 L
1 sg
51 56 -95 16 3305 3373 3 MP
PP
c8
3305 3373 mt 3210 3389 L
3210 3389 mt 3261 3445 L
1 sg
-95 16 50 57 3255 3316 3 MP
PP
c8
3255 3316 mt 3305 3373 L
3305 3373 mt 3210 3389 L
1 sg
51 57 -95 16 3299 3243 3 MP
PP
c8
3299 3243 mt 3204 3259 L
3204 3259 mt 3255 3316 L
1 sg
-95 16 51 58 3248 3185 3 MP
PP
c8
3248 3185 mt 3299 3243 L
3299 3243 mt 3204 3259 L
1 sg
-96 16 51 60 3242 3050 3 MP
PP
c8
3242 3050 mt 3293 3110 L
3293 3110 mt 3197 3126 L
1 sg
51 59 -96 16 3293 3110 3 MP
PP
c8
3293 3110 mt 3197 3126 L
3197 3126 mt 3248 3185 L
1 sg
51 62 -95 17 3286 2971 3 MP
PP
c9
3286 2971 mt 3191 2988 L
3191 2988 mt 3242 3050 L
1 sg
-95 17 50 67 3236 2904 3 MP
PP
c9
3236 2904 mt 3286 2971 L
3286 2971 mt 3191 2988 L
1 sg
51 73 -95 19 3280 2812 3 MP
PP
c10
3280 2812 mt 3185 2831 L
3185 2831 mt 3236 2904 L
1 sg
-95 19 51 90 3229 2722 3 MP
PP
c11
3229 2722 mt 3280 2812 L
c10
3280 2812 mt 3185 2831 L
1 sg
-96 24 51 284 3223 2282 3 MP
PP
c16
3223 2282 mt 3274 2566 L
c14
3274 2566 mt 3178 2590 L
1 sg
51 132 -96 24 3274 2566 3 MP
PP
c14
3274 2566 mt 3178 2590 L
/c18 { 0.000000 0.000000 0.875000 sr} bdef
c18
3178 2590 mt 3229 2722 L
1 sg
-95 16 51 56 3216 3517 3 MP
PP
c8
3216 3517 mt 3267 3573 L
3267 3573 mt 3172 3589 L
1 sg
51 1291 -95 111 3267 880 3 MP
PP
c17
3267  880 mt 3172  991 L
/c19 { 0.937500 0.000000 0.000000 sr} bdef
c19
3172  991 mt 3223 2282 L
1 sg
51 56 -95 16 3267 3573 3 MP
PP
c8
3267 3573 mt 3172 3589 L
3172 3589 mt 3223 3645 L
1 sg
-95 16 51 56 3210 3389 3 MP
PP
c8
3210 3389 mt 3261 3445 L
3261 3445 mt 3166 3461 L
1 sg
50 56 -95 16 3261 3445 3 MP
PP
c8
3261 3445 mt 3166 3461 L
3166 3461 mt 3216 3517 L
1 sg
-96 16 51 57 3204 3259 3 MP
PP
c8
3204 3259 mt 3255 3316 L
3255 3316 mt 3159 3332 L
1 sg
51 57 -96 16 3255 3316 3 MP
PP
c8
3255 3316 mt 3159 3332 L
3159 3332 mt 3210 3389 L
1 sg
-95 16 51 59 3197 3126 3 MP
PP
c8
3197 3126 mt 3248 3185 L
3248 3185 mt 3153 3201 L
1 sg
51 58 -95 16 3248 3185 3 MP
PP
c8
3248 3185 mt 3153 3201 L
3153 3201 mt 3204 3259 L
1 sg
50 60 -95 16 3242 3050 3 MP
PP
c8
3242 3050 mt 3147 3066 L
3147 3066 mt 3197 3126 L
1 sg
-95 16 51 62 3191 2988 3 MP
PP
c9
3191 2988 mt 3242 3050 L
c8
3242 3050 mt 3147 3066 L
1 sg
-96 17 51 73 3185 2831 3 MP
PP
c10
3185 2831 mt 3236 2904 L
c9
3236 2904 mt 3140 2921 L
1 sg
51 67 -96 17 3236 2904 3 MP
PP
c9
3236 2904 mt 3140 2921 L
3140 2921 mt 3191 2988 L
1 sg
51 90 -95 19 3229 2722 3 MP
PP
c11
3229 2722 mt 3134 2741 L
3134 2741 mt 3185 2831 L
1 sg
-95 19 51 132 3178 2590 3 MP
PP
c18
3178 2590 mt 3229 2722 L
c11
3229 2722 mt 3134 2741 L
1 sg
-95 33 51 1291 3172 991 3 MP
PP
c19
3172  991 mt 3223 2282 L
c16
3223 2282 mt 3128 2315 L
1 sg
50 275 -95 33 3223 2282 3 MP
PP
c16
3223 2282 mt 3128 2315 L
/c20 { 0.000000 0.375000 1.000000 sr} bdef
c20
3128 2315 mt 3178 2590 L
1 sg
51 56 -95 16 3216 3517 3 MP
PP
c8
3216 3517 mt 3121 3533 L
3121 3533 mt 3172 3589 L
1 sg
-95 16 50 56 3166 3461 3 MP
PP
c8
3166 3461 mt 3216 3517 L
3216 3517 mt 3121 3533 L
1 sg
-95 16 51 57 3159 3332 3 MP
PP
c8
3159 3332 mt 3210 3389 L
3210 3389 mt 3115 3405 L
1 sg
51 56 -95 16 3210 3389 3 MP
PP
c8
3210 3389 mt 3115 3405 L
3115 3405 mt 3166 3461 L
1 sg
-95 16 51 58 3153 3201 3 MP
PP
c8
3153 3201 mt 3204 3259 L
3204 3259 mt 3109 3275 L
1 sg
50 57 -95 16 3204 3259 3 MP
PP
c8
3204 3259 mt 3109 3275 L
3109 3275 mt 3159 3332 L
1 sg
51 59 -95 16 3197 3126 3 MP
PP
c8
3197 3126 mt 3102 3142 L
3102 3142 mt 3153 3201 L
1 sg
-95 16 50 60 3147 3066 3 MP
PP
c8
3147 3066 mt 3197 3126 L
3197 3126 mt 3102 3142 L
1 sg
-95 16 51 67 3140 2921 3 MP
PP
c9
3140 2921 mt 3191 2988 L
3191 2988 mt 3096 3004 L
1 sg
51 62 -95 16 3191 2988 3 MP
PP
c9
3191 2988 mt 3096 3004 L
3096 3004 mt 3147 3066 L
1 sg
-95 17 51 90 3134 2741 3 MP
PP
c11
3134 2741 mt 3185 2831 L
c10
3185 2831 mt 3090 2848 L
1 sg
50 73 -95 17 3185 2831 3 MP
PP
c10
3185 2831 mt 3090 2848 L
3090 2848 mt 3140 2921 L
1 sg
51 130 -95 21 3178 2590 3 MP
PP
c18
3178 2590 mt 3083 2611 L
3083 2611 mt 3134 2741 L
1 sg
-95 21 50 275 3128 2315 3 MP
PP
c20
3128 2315 mt 3178 2590 L
c18
3178 2590 mt 3083 2611 L
1 sg
51 1240 -95 84 3172 991 3 MP
PP
c19
3172  991 mt 3077 1075 L
/c21 { 1.000000 0.062500 0.000000 sr} bdef
c21
3077 1075 mt 3128 2315 L
1 sg
-95 16 51 56 3115 3405 3 MP
PP
c8
3115 3405 mt 3166 3461 L
3166 3461 mt 3071 3477 L
1 sg
50 56 -95 16 3166 3461 3 MP
PP
c8
3166 3461 mt 3071 3477 L
3071 3477 mt 3121 3533 L
1 sg
-95 16 50 57 3109 3275 3 MP
PP
c8
3109 3275 mt 3159 3332 L
3159 3332 mt 3064 3348 L
1 sg
51 57 -95 16 3159 3332 3 MP
PP
c8
3159 3332 mt 3064 3348 L
3064 3348 mt 3115 3405 L
1 sg
51 58 -95 16 3153 3201 3 MP
PP
c8
3153 3201 mt 3058 3217 L
3058 3217 mt 3109 3275 L
1 sg
-95 16 51 59 3102 3142 3 MP
PP
c8
3102 3142 mt 3153 3201 L
3153 3201 mt 3058 3217 L
1 sg
-95 16 51 62 3096 3004 3 MP
PP
c9
3096 3004 mt 3147 3066 L
c8
3147 3066 mt 3052 3082 L
1 sg
50 60 -95 16 3147 3066 3 MP
PP
c8
3147 3066 mt 3052 3082 L
3052 3082 mt 3102 3142 L
1 sg
-95 16 50 73 3090 2848 3 MP
PP
c10
3090 2848 mt 3140 2921 L
c9
3140 2921 mt 3045 2937 L
1 sg
51 67 -95 16 3140 2921 3 MP
PP
c9
3140 2921 mt 3045 2937 L
3045 2937 mt 3096 3004 L
1 sg
51 90 -95 17 3134 2741 3 MP
PP
c11
3134 2741 mt 3039 2758 L
3039 2758 mt 3090 2848 L
1 sg
-95 17 51 130 3083 2611 3 MP
PP
c18
3083 2611 mt 3134 2741 L
c11
3134 2741 mt 3039 2758 L
1 sg
-95 27 51 1240 3077 1075 3 MP
PP
c21
3077 1075 mt 3128 2315 L
c20
3128 2315 mt 3033 2342 L
1 sg
50 269 -95 27 3128 2315 3 MP
PP
c20
3128 2315 mt 3033 2342 L
3033 2342 mt 3083 2611 L
1 sg
-95 16 51 57 3064 3348 3 MP
PP
c8
3064 3348 mt 3115 3405 L
3115 3405 mt 3020 3421 L
1 sg
51 56 -95 16 3115 3405 3 MP
PP
c8
3115 3405 mt 3020 3421 L
3020 3421 mt 3071 3477 L
1 sg
50 57 -95 16 3109 3275 3 MP
PP
c8
3109 3275 mt 3014 3291 L
3014 3291 mt 3064 3348 L
1 sg
-95 16 51 58 3058 3217 3 MP
PP
c8
3058 3217 mt 3109 3275 L
3109 3275 mt 3014 3291 L
1 sg
51 59 -95 16 3102 3142 3 MP
PP
c8
3102 3142 mt 3007 3158 L
3007 3158 mt 3058 3217 L
1 sg
-95 16 50 60 3052 3082 3 MP
PP
c8
3052 3082 mt 3102 3142 L
3102 3142 mt 3007 3158 L
1 sg
51 62 -95 16 3096 3004 3 MP
PP
c9
3096 3004 mt 3001 3020 L
3001 3020 mt 3052 3082 L
1 sg
-95 16 51 67 3045 2937 3 MP
PP
c9
3045 2937 mt 3096 3004 L
3096 3004 mt 3001 3020 L
1 sg
50 73 -95 16 3090 2848 3 MP
PP
c10
3090 2848 mt 2995 2864 L
2995 2864 mt 3045 2937 L
1 sg
-95 16 51 90 3039 2758 3 MP
PP
c11
3039 2758 mt 3090 2848 L
c10
3090 2848 mt 2995 2864 L
1 sg
-95 18 50 269 3033 2342 3 MP
PP
c20
3033 2342 mt 3083 2611 L
c18
3083 2611 mt 2988 2629 L
1 sg
51 129 -95 18 3083 2611 3 MP
PP
c18
3083 2611 mt 2988 2629 L
2988 2629 mt 3039 2758 L
1 sg
51 1210 -95 57 3077 1075 3 MP
PP
c21
3077 1075 mt 2982 1132 L
/c22 { 1.000000 0.187500 0.000000 sr} bdef
c22
2982 1132 mt 3033 2342 L
1 sg
51 57 -95 16 3064 3348 3 MP
PP
c8
3064 3348 mt 2969 3364 L
2969 3364 mt 3020 3421 L
1 sg
-95 16 50 57 3014 3291 3 MP
PP
c8
3014 3291 mt 3064 3348 L
3064 3348 mt 2969 3364 L
1 sg
-95 15 51 59 3007 3158 3 MP
PP
c8
3007 3158 mt 3058 3217 L
3058 3217 mt 2963 3232 L
1 sg
51 59 -95 15 3058 3217 3 MP
PP
c8
3058 3217 mt 2963 3232 L
2963 3232 mt 3014 3291 L
1 sg
51 60 -96 16 3052 3082 3 MP
PP
c8
3052 3082 mt 2956 3098 L
2956 3098 mt 3007 3158 L
1 sg
-96 16 51 62 3001 3020 3 MP
PP
c9
3001 3020 mt 3052 3082 L
c8
3052 3082 mt 2956 3098 L
1 sg
-95 16 50 73 2995 2864 3 MP
PP
c10
2995 2864 mt 3045 2937 L
c9
3045 2937 mt 2950 2953 L
1 sg
51 67 -95 16 3045 2937 3 MP
PP
c9
3045 2937 mt 2950 2953 L
2950 2953 mt 3001 3020 L
1 sg
-95 16 51 129 2988 2629 3 MP
PP
c18
2988 2629 mt 3039 2758 L
c11
3039 2758 mt 2944 2774 L
1 sg
51 90 -95 16 3039 2758 3 MP
PP
c11
3039 2758 mt 2944 2774 L
2944 2774 mt 2995 2864 L
1 sg
-96 20 51 1210 2982 1132 3 MP
PP
c22
2982 1132 mt 3033 2342 L
c20
3033 2342 mt 2937 2362 L
1 sg
51 267 -96 20 3033 2342 3 MP
PP
c20
3033 2342 mt 2937 2362 L
2937 2362 mt 2988 2629 L
1 sg
51 58 -96 15 3014 3291 3 MP
PP
c8
3014 3291 mt 2918 3306 L
2918 3306 mt 2969 3364 L
1 sg
-96 15 51 59 2963 3232 3 MP
PP
c8
2963 3232 mt 3014 3291 L
3014 3291 mt 2918 3306 L
1 sg
51 59 -95 15 3007 3158 3 MP
PP
c8
3007 3158 mt 2912 3173 L
2912 3173 mt 2963 3232 L
1 sg
-95 15 51 60 2956 3098 3 MP
PP
c8
2956 3098 mt 3007 3158 L
3007 3158 mt 2912 3173 L
1 sg
-95 15 51 67 2950 2953 3 MP
PP
c9
2950 2953 mt 3001 3020 L
3001 3020 mt 2906 3035 L
1 sg
50 63 -95 15 3001 3020 3 MP
PP
c9
3001 3020 mt 2906 3035 L
2906 3035 mt 2956 3098 L
1 sg
-96 14 51 90 2944 2774 3 MP
PP
c11
2944 2774 mt 2995 2864 L
c10
2995 2864 mt 2899 2878 L
1 sg
51 75 -96 14 2995 2864 3 MP
PP
c10
2995 2864 mt 2899 2878 L
2899 2878 mt 2950 2953 L
1 sg
51 130 -95 15 2988 2629 3 MP
PP
c18
2988 2629 mt 2893 2644 L
2893 2644 mt 2944 2774 L
1 sg
-95 15 51 267 2937 2362 3 MP
PP
c20
2937 2362 mt 2988 2629 L
c18
2988 2629 mt 2893 2644 L
1 sg
50 1200 -95 30 2982 1132 3 MP
PP
c22
2982 1132 mt 2887 1162 L
2887 1162 mt 2937 2362 L
1 sg
50 58 -95 16 2963 3232 3 MP
PP
c8
2963 3232 mt 2868 3248 L
2868 3248 mt 2918 3306 L
1 sg
-95 16 51 59 2912 3173 3 MP
PP
c8
2912 3173 mt 2963 3232 L
2963 3232 mt 2868 3248 L
1 sg
-95 15 50 63 2906 3035 3 MP
PP
c9
2906 3035 mt 2956 3098 L
c8
2956 3098 mt 2861 3113 L
1 sg
51 60 -95 15 2956 3098 3 MP
PP
c8
2956 3098 mt 2861 3113 L
2861 3113 mt 2912 3173 L
1 sg
51 68 -95 14 2950 2953 3 MP
PP
c9
2950 2953 mt 2855 2967 L
2855 2967 mt 2906 3035 L
1 sg
-95 14 51 75 2899 2878 3 MP
PP
c10
2899 2878 mt 2950 2953 L
c9
2950 2953 mt 2855 2967 L
1 sg
-95 14 51 130 2893 2644 3 MP
PP
c18
2893 2644 mt 2944 2774 L
c11
2944 2774 mt 2849 2788 L
1 sg
50 90 -95 14 2944 2774 3 MP
PP
c11
2944 2774 mt 2849 2788 L
2849 2788 mt 2899 2878 L
1 sg
51 269 -95 13 2937 2362 3 MP
PP
c20
2937 2362 mt 2842 2375 L
2842 2375 mt 2893 2644 L
1 sg
-95 13 50 1200 2887 1162 3 MP
PP
c22
2887 1162 mt 2937 2362 L
c20
2937 2362 mt 2842 2375 L
1 sg
51 60 -95 15 2912 3173 3 MP
PP
c8
2912 3173 mt 2817 3188 L
2817 3188 mt 2868 3248 L
1 sg
-95 15 51 60 2861 3113 3 MP
PP
c8
2861 3113 mt 2912 3173 L
2912 3173 mt 2817 3188 L
1 sg
-95 14 51 68 2855 2967 3 MP
PP
c9
2855 2967 mt 2906 3035 L
2906 3035 mt 2811 3049 L
1 sg
50 64 -95 14 2906 3035 3 MP
PP
c9
2906 3035 mt 2811 3049 L
2811 3049 mt 2861 3113 L
1 sg
51 75 -95 14 2899 2878 3 MP
PP
c10
2899 2878 mt 2804 2892 L
2804 2892 mt 2855 2967 L
1 sg
-95 14 50 90 2849 2788 3 MP
PP
c11
2849 2788 mt 2899 2878 L
c10
2899 2878 mt 2804 2892 L
0 sg
2853 2695 mt 2792 2706 L
2792 2706 mt 2699 2724 L
2699 2724 mt 2606 2744 L
2606 2744 mt 2514 2764 L
2514 2764 mt 2423 2785 L
1 sg
51 132 -95 12 2893 2644 3 MP
PP
c18
2893 2644 mt 2798 2656 L
2798 2656 mt 2849 2788 L
1 sg
-95 12 51 269 2842 2375 3 MP
PP
c20
2842 2375 mt 2893 2644 L
c18
2893 2644 mt 2798 2656 L
1 sg
50 1210 -95 3 2887 1162 3 MP
PP
c22
2887 1162 mt 2792 1165 L
2792 1165 mt 2842 2375 L
1 sg
-95 14 50 64 2811 3049 3 MP
PP
c9
2811 3049 mt 2861 3113 L
c8
2861 3113 mt 2766 3127 L
1 sg
51 61 -95 14 2861 3113 3 MP
PP
c8
2861 3113 mt 2766 3127 L
2766 3127 mt 2817 3188 L
1 sg
-95 14 51 75 2804 2892 3 MP
PP
c10
2804 2892 mt 2855 2967 L
c9
2855 2967 mt 2760 2981 L
1 sg
51 68 -95 14 2855 2967 3 MP
PP
c9
2855 2967 mt 2760 2981 L
2760 2981 mt 2811 3049 L
1 sg
-95 12 51 132 2798 2656 3 MP
PP
c18
2798 2656 mt 2849 2788 L
c11
2849 2788 mt 2754 2800 L
1 sg
50 92 -95 12 2849 2788 3 MP
PP
c11
2849 2788 mt 2754 2800 L
2754 2800 mt 2804 2892 L
1 sg
-95 6 50 1210 2792 1165 3 MP
PP
c22
2792 1165 mt 2842 2375 L
c20
2842 2375 mt 2747 2381 L
1 sg
51 275 -95 6 2842 2375 3 MP
PP
c20
2842 2375 mt 2747 2381 L
2747 2381 mt 2798 2656 L
1 sg
50 64 -95 14 2811 3049 3 MP
PP
c9
2811 3049 mt 2716 3063 L
2716 3063 mt 2766 3127 L
1 sg
-95 14 51 68 2760 2981 3 MP
PP
c9
2760 2981 mt 2811 3049 L
2811 3049 mt 2716 3063 L
1 sg
-95 13 50 92 2754 2800 3 MP
PP
c11
2754 2800 mt 2804 2892 L
c10
2804 2892 mt 2709 2905 L
1 sg
51 76 -95 13 2804 2892 3 MP
PP
c10
2804 2892 mt 2709 2905 L
2709 2905 mt 2760 2981 L
1 sg
51 135 -95 9 2798 2656 3 MP
PP
c18
2798 2656 mt 2703 2665 L
c14
2703 2665 mt 2754 2800 L
1 sg
-95 9 51 275 2747 2381 3 MP
PP
c20
2747 2381 mt 2798 2656 L
c18
2798 2656 mt 2703 2665 L
1 sg
51 1240 -96 -24 2792 1165 3 MP
PP
c22
2792 1165 mt 2696 1141 L
c21
2696 1141 mt 2747 2381 L
1 sg
51 69 -95 13 2760 2981 3 MP
PP
c9
2760 2981 mt 2665 2994 L
2665 2994 mt 2716 3063 L
1 sg
-95 13 51 76 2709 2905 3 MP
PP
c10
2709 2905 mt 2760 2981 L
c9
2760 2981 mt 2665 2994 L
1 sg
-96 11 51 135 2703 2665 3 MP
PP
c14
2703 2665 mt 2754 2800 L
c11
2754 2800 mt 2658 2811 L
1 sg
51 94 -96 11 2754 2800 3 MP
PP
c11
2754 2800 mt 2658 2811 L
2658 2811 mt 2709 2905 L
1 sg
51 284 -95 0 2747 2381 3 MP
PP
c20
2747 2381 mt 2652 2381 L
c16
2652 2381 mt 2703 2665 L
1 sg
-95 0 51 1240 2696 1141 3 MP
PP
c21
2696 1141 mt 2747 2381 L
c20
2747 2381 mt 2652 2381 L
1 sg
51 77 -95 12 2709 2905 3 MP
PP
c10
2709 2905 mt 2614 2917 L
2614 2917 mt 2665 2994 L
1 sg
-95 12 51 94 2658 2811 3 MP
PP
c11
2658 2811 mt 2709 2905 L
c10
2709 2905 mt 2614 2917 L
1 sg
50 140 -95 6 2703 2665 3 MP
PP
c14
2703 2665 mt 2608 2671 L
2608 2671 mt 2658 2811 L
1 sg
-95 6 51 284 2652 2381 3 MP
PP
c16
2652 2381 mt 2703 2665 L
c14
2703 2665 mt 2608 2671 L
1 sg
51 1291 -95 -51 2696 1141 3 MP
PP
c21
2696 1141 mt 2601 1090 L
c19
2601 1090 mt 2652 2381 L
1 sg
-95 9 50 140 2608 2671 3 MP
PP
c14
2608 2671 mt 2658 2811 L
c11
2658 2811 mt 2563 2820 L
1 sg
51 97 -95 9 2658 2811 3 MP
PP
c11
2658 2811 mt 2563 2820 L
2563 2820 mt 2614 2917 L
1 sg
-95 -7 51 1291 2601 1090 3 MP
PP
c19
2601 1090 mt 2652 2381 L
c16
2652 2381 mt 2557 2374 L
1 sg
51 297 -95 -7 2652 2381 3 MP
PP
c16
2652 2381 mt 2557 2374 L
2557 2374 mt 2608 2671 L
1 sg
50 146 -95 3 2608 2671 3 MP
PP
c14
2608 2671 mt 2513 2674 L
c12
2513 2674 mt 2563 2820 L
1 sg
-95 3 51 297 2557 2374 3 MP
PP
c16
2557 2374 mt 2608 2671 L
c14
2608 2671 mt 2513 2674 L
1 sg
51 1362 -95 -78 2601 1090 3 MP
PP
c19
2601 1090 mt 2506 1012 L
c17
2506 1012 mt 2557 2374 L
1 sg
-95 -14 51 1362 2506 1012 3 MP
PP
c17
2506 1012 mt 2557 2374 L
c16
2557 2374 mt 2462 2360 L
1 sg
51 314 -95 -14 2557 2374 3 MP
PP
c16
2557 2374 mt 2462 2360 L
c13
2462 2360 mt 2513 2674 L
1 sg
51 1453 -95 -105 2506 1012 3 MP
PP
c17
2506 1012 mt 2411  907 L
c15
2411  907 mt 2462 2360 L
gr

c15
0 sg
1048 4935 mt 
(b [mm]) s
 227 2720 mt  -90 rotate
(\214lad C) s
90 rotate
%%IncludeResource: font Helvetica
/Helvetica /WindowsLatin1Encoding 192 FMSR

 347 1920 mt  -90 rotate
(s) s
90 rotate
%%IncludeResource: font Helvetica
/Helvetica /WindowsLatin1Encoding 240 FMSR

 227 1824 mt  -90 rotate
([mm]) s
90 rotate
gs 933 389 5328 4228 MR c np
gr


end %%Color Dict

eplot
%%EndObject

epage
end

showpage

%%Trailer
%%EOF
